------------------FileName: Liborder.php - Function Name: before hitting razor api-----July 26, 2022, 12:19 am--------------------
{"payment_method":"razorpay","orderinvoice_no":235037,"total_amount":"1450","total_courier_charges":95,"finalamount":1545,"customer_id":"fda75a8cc8657d28e44cc4ddcf8e6a9b16623e0428ed09e1144dfe5fcae768711c290ef084a98cce16f6ad3a89de5d634079c8c898637464176581f74fde3e6fj6AxtuviyJY3fSRyS+3y7oEBn910+gnc4A7HtDqDV\/U="}
------------------FileName: Liborder.php - Function Name: after hitting razor api-----July 26, 2022, 12:19 am--------------------
{"payment_method":"razorpay","orderinvoice_no":235037,"total_amount":"1450","total_courier_charges":95,"finalamount":1545,"customer_id":"fda75a8cc8657d28e44cc4ddcf8e6a9b16623e0428ed09e1144dfe5fcae768711c290ef084a98cce16f6ad3a89de5d634079c8c898637464176581f74fde3e6fj6AxtuviyJY3fSRyS+3y7oEBn910+gnc4A7HtDqDV\/U=","razorpay_response":{}}
------------------FileName: Liborder.php - Function Name: updatepayment-----July 26, 2022, 12:19 am--------------------
{"payment_method":"razorpay","all_shiiping_dtl":{"postState":"20","showexp":0,"totalWeight":0.5,"total_shipping_cost":95},"total_courier_charges":95,"total_amount":"1450","customer_id":"fda75a8cc8657d28e44cc4ddcf8e6a9b16623e0428ed09e1144dfe5fcae768711c290ef084a98cce16f6ad3a89de5d634079c8c898637464176581f74fde3e6fj6AxtuviyJY3fSRyS+3y7oEBn910+gnc4A7HtDqDV\/U=","usrid":"fda75a8cc8657d28e44cc4ddcf8e6a9b16623e0428ed09e1144dfe5fcae768711c290ef084a98cce16f6ad3a89de5d634079c8c898637464176581f74fde3e6fj6AxtuviyJY3fSRyS+3y7oEBn910+gnc4A7HtDqDV\/U=","orderinvoice_no":235037,"final_amount_to_pay":1545}
------------------FileName: Liborder.php - Function Name: before hitting razor api-----July 26, 2022, 12:37 am--------------------
{"payment_method":"razorpay","orderinvoice_no":235038,"total_amount":"7967","total_courier_charges":0,"finalamount":7967,"customer_id":"5bc5f9612593dd64c2cccc854b1714ba650cd6d13ed7fd988eee24fb2f432bb1cdeaf58f2a49019ddf4569b52836a2ec6793774ab6ac3b16c5eb31a263c56ff8tXy40\/Y2Pj2v+SLviUAKmoIzsTVmBIKyPjRwVOLEqps="}
------------------FileName: Liborder.php - Function Name: after hitting razor api-----July 26, 2022, 12:37 am--------------------
{"payment_method":"razorpay","orderinvoice_no":235038,"total_amount":"7967","total_courier_charges":0,"finalamount":7967,"customer_id":"5bc5f9612593dd64c2cccc854b1714ba650cd6d13ed7fd988eee24fb2f432bb1cdeaf58f2a49019ddf4569b52836a2ec6793774ab6ac3b16c5eb31a263c56ff8tXy40\/Y2Pj2v+SLviUAKmoIzsTVmBIKyPjRwVOLEqps=","razorpay_response":{}}
------------------FileName: Liborder.php - Function Name: updatepayment-----July 26, 2022, 12:37 am--------------------
{"payment_method":"razorpay","all_shiiping_dtl":{"postState":"20","showexp":0,"total_shipping_cost":0,"totalWeight":0.55},"total_courier_charges":0,"total_amount":"7967","customer_id":"5bc5f9612593dd64c2cccc854b1714ba650cd6d13ed7fd988eee24fb2f432bb1cdeaf58f2a49019ddf4569b52836a2ec6793774ab6ac3b16c5eb31a263c56ff8tXy40\/Y2Pj2v+SLviUAKmoIzsTVmBIKyPjRwVOLEqps=","usrid":"5bc5f9612593dd64c2cccc854b1714ba650cd6d13ed7fd988eee24fb2f432bb1cdeaf58f2a49019ddf4569b52836a2ec6793774ab6ac3b16c5eb31a263c56ff8tXy40\/Y2Pj2v+SLviUAKmoIzsTVmBIKyPjRwVOLEqps=","orderinvoice_no":235038,"final_amount_to_pay":7967}
------------------FileName: Liborder.php - Function Name: before hitting razor api-----July 26, 2022, 9:59 am--------------------
{"payment_method":"razorpay","orderinvoice_no":235040,"total_amount":"7967","total_courier_charges":0,"finalamount":7967,"customer_id":"93d04bcce14750457e12cd91daf5937963b64af88d1287777e3f3f9e768751fc96c266d38f82c4948c88130baf7af108f8db5dc3769f7528f28b0de5a823fa9fioyt3PqEhrquuSfdTH3aEt9kWyzZt7D5pf4eeQ\/YV2w="}
------------------FileName: Liborder.php - Function Name: after hitting razor api-----July 26, 2022, 9:59 am--------------------
{"payment_method":"razorpay","orderinvoice_no":235040,"total_amount":"7967","total_courier_charges":0,"finalamount":7967,"customer_id":"93d04bcce14750457e12cd91daf5937963b64af88d1287777e3f3f9e768751fc96c266d38f82c4948c88130baf7af108f8db5dc3769f7528f28b0de5a823fa9fioyt3PqEhrquuSfdTH3aEt9kWyzZt7D5pf4eeQ\/YV2w=","razorpay_response":{}}
------------------FileName: Liborder.php - Function Name: updatepayment-----July 26, 2022, 9:59 am--------------------
{"payment_method":"razorpay","all_shiiping_dtl":{"postState":"20","showexp":0,"total_shipping_cost":0,"totalWeight":0.55},"total_courier_charges":0,"total_amount":"7967","customer_id":"93d04bcce14750457e12cd91daf5937963b64af88d1287777e3f3f9e768751fc96c266d38f82c4948c88130baf7af108f8db5dc3769f7528f28b0de5a823fa9fioyt3PqEhrquuSfdTH3aEt9kWyzZt7D5pf4eeQ\/YV2w=","usrid":"93d04bcce14750457e12cd91daf5937963b64af88d1287777e3f3f9e768751fc96c266d38f82c4948c88130baf7af108f8db5dc3769f7528f28b0de5a823fa9fioyt3PqEhrquuSfdTH3aEt9kWyzZt7D5pf4eeQ\/YV2w=","orderinvoice_no":235040,"final_amount_to_pay":7967}
------------------FileName: Liborder.php - Function Name: updatefinalorderdetails-----July 26, 2022, 10:02 am--------------------
{"order_pay_status":1,"payment_gateway_response":"{\"result\":\"success\",\"attributes\":{\"razorpay_order_id\":\"order_JxrZV65AZXAnA7\",\"razorpay_payment_id\":\"pay_JxrcNq6MMgXumv\",\"razorpay_signature\":\"7dfab99056582652d20bda6ccf52f281660c72724329fe6eb6653963e2c9529a\"}}","orderinvoice_no":235040}
------------------FileName: Liborder.php - Function Name: before hitting razor api-----July 26, 2022, 10:10 am--------------------
{"payment_method":"razorpay","orderinvoice_no":235039,"total_amount":"9490","total_courier_charges":0,"finalamount":9490,"customer_id":"408417eaa636fdfc4568434655ac91c1dc91d047afc939b593dab7087aae82adef92b656b33bbb351833aa2295677c0167f1595163d8485293b339d66aba6f26Ewr6m2nKoWapjl+FTlsTJxMV1+CtfoVCQwDJIXhmxpg="}
------------------FileName: Liborder.php - Function Name: after hitting razor api-----July 26, 2022, 10:10 am--------------------
{"payment_method":"razorpay","orderinvoice_no":235039,"total_amount":"9490","total_courier_charges":0,"finalamount":9490,"customer_id":"408417eaa636fdfc4568434655ac91c1dc91d047afc939b593dab7087aae82adef92b656b33bbb351833aa2295677c0167f1595163d8485293b339d66aba6f26Ewr6m2nKoWapjl+FTlsTJxMV1+CtfoVCQwDJIXhmxpg=","razorpay_response":{}}
------------------FileName: Liborder.php - Function Name: updatepayment-----July 26, 2022, 10:10 am--------------------
{"payment_method":"razorpay","all_shiiping_dtl":{"postState":"28","showexp":1,"total_shipping_cost":0,"totalWeight":25.1},"total_courier_charges":0,"total_amount":"9490","customer_id":"408417eaa636fdfc4568434655ac91c1dc91d047afc939b593dab7087aae82adef92b656b33bbb351833aa2295677c0167f1595163d8485293b339d66aba6f26Ewr6m2nKoWapjl+FTlsTJxMV1+CtfoVCQwDJIXhmxpg=","usrid":"408417eaa636fdfc4568434655ac91c1dc91d047afc939b593dab7087aae82adef92b656b33bbb351833aa2295677c0167f1595163d8485293b339d66aba6f26Ewr6m2nKoWapjl+FTlsTJxMV1+CtfoVCQwDJIXhmxpg=","orderinvoice_no":235039,"final_amount_to_pay":9490}
------------------FileName: Liborder.php - Function Name: updatefinalorderdetails-----July 26, 2022, 10:12 am--------------------
{"order_pay_status":1,"payment_gateway_response":"{\"result\":\"success\",\"attributes\":{\"razorpay_order_id\":\"order_Jxrkftzwsw2OfT\",\"razorpay_payment_id\":\"pay_JxrnDmp4RjWULM\",\"razorpay_signature\":\"804a92bf2a7ed80e5584470b87de2eeb1722d8f8c9d88bfe1568bc0bbbbba3de\"}}","orderinvoice_no":235039}
------------------FileName: Liborder.php - Function Name: before hitting razor api-----July 26, 2022, 11:37 am--------------------
{"payment_method":"razorpay","orderinvoice_no":235041,"total_amount":"560","total_courier_charges":95,"finalamount":655,"customer_id":"e7fc9f311b489856ac0de77265c40d6c60c195b41bf8e2064c721f110e460a9c91b668679858f5b8295cc8c8a7c3f0efb86692579f066df578128416a9c7be42sHAGxv\/\/YR3lIZg3o2A8hOa1fSioYEKr4UGzjJP2j\/g="}
------------------FileName: Liborder.php - Function Name: after hitting razor api-----July 26, 2022, 11:37 am--------------------
{"payment_method":"razorpay","orderinvoice_no":235041,"total_amount":"560","total_courier_charges":95,"finalamount":655,"customer_id":"e7fc9f311b489856ac0de77265c40d6c60c195b41bf8e2064c721f110e460a9c91b668679858f5b8295cc8c8a7c3f0efb86692579f066df578128416a9c7be42sHAGxv\/\/YR3lIZg3o2A8hOa1fSioYEKr4UGzjJP2j\/g=","razorpay_response":{}}
------------------FileName: Liborder.php - Function Name: updatepayment-----July 26, 2022, 11:37 am--------------------
{"payment_method":"razorpay","all_shiiping_dtl":{"postState":"20","showexp":0,"totalWeight":0.5,"total_shipping_cost":95},"total_courier_charges":95,"total_amount":"560","customer_id":"e7fc9f311b489856ac0de77265c40d6c60c195b41bf8e2064c721f110e460a9c91b668679858f5b8295cc8c8a7c3f0efb86692579f066df578128416a9c7be42sHAGxv\/\/YR3lIZg3o2A8hOa1fSioYEKr4UGzjJP2j\/g=","usrid":"e7fc9f311b489856ac0de77265c40d6c60c195b41bf8e2064c721f110e460a9c91b668679858f5b8295cc8c8a7c3f0efb86692579f066df578128416a9c7be42sHAGxv\/\/YR3lIZg3o2A8hOa1fSioYEKr4UGzjJP2j\/g=","orderinvoice_no":235041,"final_amount_to_pay":655}
------------------FileName: Liborder.php - Function Name: updatefinalorderdetails-----July 26, 2022, 11:39 am--------------------
{"order_pay_status":1,"payment_gateway_response":"{\"result\":\"success\",\"attributes\":{\"razorpay_order_id\":\"order_JxtErGTua3oSBc\",\"razorpay_payment_id\":\"pay_JxtFRenqqkfukq\",\"razorpay_signature\":\"fe86fe0037e2f950e42b7b9a5816618ae4ab04470800c3ddac4a954a737531cf\"}}","orderinvoice_no":235041}
------------------FileName: Liborder.php - Function Name: before hitting razor api-----July 26, 2022, 12:28 pm--------------------
{"payment_method":"razorpay","orderinvoice_no":235043,"total_amount":"6290","total_courier_charges":0,"finalamount":6290,"customer_id":"5e1871c2ed85a64247545c7b9e7dfe97aeca84f0071758f14fae763d447efef99e5c850f28b326b0d0d7b15b179edf9ea556b510c816442cf7c0012a062f8853dRxhk5LBqJuooS9EuNQ9pCWEzQF9KexHq3KwBXD5J7Q="}
------------------FileName: Liborder.php - Function Name: after hitting razor api-----July 26, 2022, 12:28 pm--------------------
{"payment_method":"razorpay","orderinvoice_no":235043,"total_amount":"6290","total_courier_charges":0,"finalamount":6290,"customer_id":"5e1871c2ed85a64247545c7b9e7dfe97aeca84f0071758f14fae763d447efef99e5c850f28b326b0d0d7b15b179edf9ea556b510c816442cf7c0012a062f8853dRxhk5LBqJuooS9EuNQ9pCWEzQF9KexHq3KwBXD5J7Q=","razorpay_response":{}}
------------------FileName: Liborder.php - Function Name: updatepayment-----July 26, 2022, 12:28 pm--------------------
{"payment_method":"razorpay","all_shiiping_dtl":{"postState":"9","showexp":0,"total_shipping_cost":0,"totalWeight":2},"total_courier_charges":0,"total_amount":"6290","customer_id":"5e1871c2ed85a64247545c7b9e7dfe97aeca84f0071758f14fae763d447efef99e5c850f28b326b0d0d7b15b179edf9ea556b510c816442cf7c0012a062f8853dRxhk5LBqJuooS9EuNQ9pCWEzQF9KexHq3KwBXD5J7Q=","usrid":"5e1871c2ed85a64247545c7b9e7dfe97aeca84f0071758f14fae763d447efef99e5c850f28b326b0d0d7b15b179edf9ea556b510c816442cf7c0012a062f8853dRxhk5LBqJuooS9EuNQ9pCWEzQF9KexHq3KwBXD5J7Q=","orderinvoice_no":235043,"final_amount_to_pay":6290}
------------------FileName: Liborder.php - Function Name: updatefinalorderdetails-----July 26, 2022, 12:31 pm--------------------
{"order_pay_status":1,"payment_gateway_response":"{\"result\":\"success\",\"attributes\":{\"razorpay_order_id\":\"order_Jxu7HcWg19ctGR\",\"razorpay_payment_id\":\"pay_Jxu94SJLdNl9zD\",\"razorpay_signature\":\"3d7f028ec45d7e93bf0d73dcaa99a7b894f70faf667a3ae0da0366a69e7ebcb7\"}}","orderinvoice_no":235043}
