------------------FileName: Liborder.php - Function Name: before hitting razor api-----June 13, 2022, 6:34 am--------------------
{"payment_method":"razorpay","orderinvoice_no":234439,"total_amount":"2040","total_courier_charges":0,"finalamount":2040,"customer_id":"76da12e07d263009fe4f758d8922cbdc4166d96f6e28ef93cfda9c0299cff7fa6c88983b5fb1fd45b1b1f3638f5a2c6e28c65f448b3e6e044d54768117de8013fHJoxzmR1wd9BMHkYnPS8JfRJJs3dpfpZSALKdW1D+Q="}
------------------FileName: Liborder.php - Function Name: after hitting razor api-----June 13, 2022, 6:34 am--------------------
{"payment_method":"razorpay","orderinvoice_no":234439,"total_amount":"2040","total_courier_charges":0,"finalamount":2040,"customer_id":"76da12e07d263009fe4f758d8922cbdc4166d96f6e28ef93cfda9c0299cff7fa6c88983b5fb1fd45b1b1f3638f5a2c6e28c65f448b3e6e044d54768117de8013fHJoxzmR1wd9BMHkYnPS8JfRJJs3dpfpZSALKdW1D+Q=","razorpay_response":{}}
------------------FileName: Liborder.php - Function Name: updatepayment-----June 13, 2022, 6:34 am--------------------
{"payment_method":"razorpay","all_shiiping_dtl":{"postState":"29","showexp":0,"total_shipping_cost":0,"totalWeight":0.75},"total_courier_charges":0,"total_amount":"2040","customer_id":"76da12e07d263009fe4f758d8922cbdc4166d96f6e28ef93cfda9c0299cff7fa6c88983b5fb1fd45b1b1f3638f5a2c6e28c65f448b3e6e044d54768117de8013fHJoxzmR1wd9BMHkYnPS8JfRJJs3dpfpZSALKdW1D+Q=","usrid":"76da12e07d263009fe4f758d8922cbdc4166d96f6e28ef93cfda9c0299cff7fa6c88983b5fb1fd45b1b1f3638f5a2c6e28c65f448b3e6e044d54768117de8013fHJoxzmR1wd9BMHkYnPS8JfRJJs3dpfpZSALKdW1D+Q=","orderinvoice_no":234439,"final_amount_to_pay":2040}
------------------FileName: Liborder.php - Function Name: updatefinalorderdetails-----June 13, 2022, 6:44 am--------------------
{"order_pay_status":1,"payment_gateway_response":"{\"result\":\"success\",\"attributes\":{\"razorpay_order_id\":\"order_Jgn6Itj8b99LRF\",\"razorpay_payment_id\":\"pay_JgnHJUz0njWeIb\",\"razorpay_signature\":\"fb3cd85721ecc889d891d000df6c3127caad1158a695a1fa3180ddafa2d1a2d9\"}}","orderinvoice_no":234439}
------------------FileName: Liborder.php - Function Name: before hitting razor api-----June 13, 2022, 9:19 am--------------------
{"payment_method":"razorpay","orderinvoice_no":234441,"total_amount":"840","total_courier_charges":95,"finalamount":935,"customer_id":"c772a7400db4c7e05b553400413b9b7d5fec2bd4b08a0b7bc4b4b65697e69da72447024c80a2caa132e192735fef0061700c7e3fadb48c5a85008d9635f1292fCphcY65rSG66wI0Xah7dHmH6PR6pt2yIY9saPg+cj6Y="}
------------------FileName: Liborder.php - Function Name: after hitting razor api-----June 13, 2022, 9:19 am--------------------
{"payment_method":"razorpay","orderinvoice_no":234441,"total_amount":"840","total_courier_charges":95,"finalamount":935,"customer_id":"c772a7400db4c7e05b553400413b9b7d5fec2bd4b08a0b7bc4b4b65697e69da72447024c80a2caa132e192735fef0061700c7e3fadb48c5a85008d9635f1292fCphcY65rSG66wI0Xah7dHmH6PR6pt2yIY9saPg+cj6Y=","razorpay_response":{}}
------------------FileName: Liborder.php - Function Name: updatepayment-----June 13, 2022, 9:19 am--------------------
{"payment_method":"razorpay","all_shiiping_dtl":{"postState":"22","showexp":0,"totalWeight":0.5,"total_shipping_cost":95},"total_courier_charges":95,"total_amount":"840","customer_id":"c772a7400db4c7e05b553400413b9b7d5fec2bd4b08a0b7bc4b4b65697e69da72447024c80a2caa132e192735fef0061700c7e3fadb48c5a85008d9635f1292fCphcY65rSG66wI0Xah7dHmH6PR6pt2yIY9saPg+cj6Y=","usrid":"c772a7400db4c7e05b553400413b9b7d5fec2bd4b08a0b7bc4b4b65697e69da72447024c80a2caa132e192735fef0061700c7e3fadb48c5a85008d9635f1292fCphcY65rSG66wI0Xah7dHmH6PR6pt2yIY9saPg+cj6Y=","orderinvoice_no":234441,"final_amount_to_pay":935}
------------------FileName: Liborder.php - Function Name: updatefinalorderdetails-----June 13, 2022, 9:20 am--------------------
{"order_pay_status":1,"payment_gateway_response":"{\"result\":\"success\",\"attributes\":{\"razorpay_order_id\":\"order_JgpukJ4pMekFJU\",\"razorpay_payment_id\":\"pay_Jgpv6IhOsKzNjX\",\"razorpay_signature\":\"d68084fc65515e4342d5f07f0944b2887baae0a4c15813d93348227c8a21ddda\"}}","orderinvoice_no":234441}
------------------FileName: Liborder.php - Function Name: before hitting razor api-----June 13, 2022, 10:31 am--------------------
{"payment_method":"razorpay","orderinvoice_no":234442,"total_amount":"1400","total_courier_charges":95,"finalamount":1495,"customer_id":"9c768d5e2d9c1678ca57b4e546711c49fdf4cae72cd47809cfdbed607e0ea2dca729f102239d612bf07b249c5458f1d03c854afeac1279b5b8aa60fb66ff3263twleWghsmyDDmYveWnxn5xqJDye7tgushcrln0RTxso="}
------------------FileName: Liborder.php - Function Name: after hitting razor api-----June 13, 2022, 10:31 am--------------------
{"payment_method":"razorpay","orderinvoice_no":234442,"total_amount":"1400","total_courier_charges":95,"finalamount":1495,"customer_id":"9c768d5e2d9c1678ca57b4e546711c49fdf4cae72cd47809cfdbed607e0ea2dca729f102239d612bf07b249c5458f1d03c854afeac1279b5b8aa60fb66ff3263twleWghsmyDDmYveWnxn5xqJDye7tgushcrln0RTxso=","razorpay_response":{}}
------------------FileName: Liborder.php - Function Name: updatepayment-----June 13, 2022, 10:31 am--------------------
{"payment_method":"razorpay","all_shiiping_dtl":{"postState":"20","showexp":0,"totalWeight":0.5,"total_shipping_cost":95},"total_courier_charges":95,"total_amount":"1400","customer_id":"9c768d5e2d9c1678ca57b4e546711c49fdf4cae72cd47809cfdbed607e0ea2dca729f102239d612bf07b249c5458f1d03c854afeac1279b5b8aa60fb66ff3263twleWghsmyDDmYveWnxn5xqJDye7tgushcrln0RTxso=","usrid":"9c768d5e2d9c1678ca57b4e546711c49fdf4cae72cd47809cfdbed607e0ea2dca729f102239d612bf07b249c5458f1d03c854afeac1279b5b8aa60fb66ff3263twleWghsmyDDmYveWnxn5xqJDye7tgushcrln0RTxso=","orderinvoice_no":234442,"final_amount_to_pay":1495}
------------------FileName: Liborder.php - Function Name: updatefinalorderdetails-----June 13, 2022, 10:33 am--------------------
{"order_pay_status":1,"payment_gateway_response":"{\"result\":\"success\",\"attributes\":{\"razorpay_order_id\":\"order_Jgr9X6F2ZYbnJC\",\"razorpay_payment_id\":\"pay_JgrAPQVgtnl6Uo\",\"razorpay_signature\":\"c6bb6bcbb004e0608438c449446fab64e6e76872de626959f59afeccda61a5aa\"}}","orderinvoice_no":234442}
------------------FileName: Liborder.php - Function Name: before hitting razor api-----June 13, 2022, 12:00 pm--------------------
{"payment_method":"razorpay","orderinvoice_no":234444,"total_amount":"2090","total_courier_charges":0,"finalamount":2090,"customer_id":"b39ed62c3647d8e83955007758b5492d2c85c8a1e868c99081552862bfb94b74e6df53584fb376efd753019f232d52582b2f43b4c037b790944d745aeb1321f6rwtzAu\/nonw71hrDmTx94bZWddQvHB6acLa9x7hjtgs="}
------------------FileName: Liborder.php - Function Name: after hitting razor api-----June 13, 2022, 12:00 pm--------------------
{"payment_method":"razorpay","orderinvoice_no":234444,"total_amount":"2090","total_courier_charges":0,"finalamount":2090,"customer_id":"b39ed62c3647d8e83955007758b5492d2c85c8a1e868c99081552862bfb94b74e6df53584fb376efd753019f232d52582b2f43b4c037b790944d745aeb1321f6rwtzAu\/nonw71hrDmTx94bZWddQvHB6acLa9x7hjtgs=","razorpay_response":{}}
------------------FileName: Liborder.php - Function Name: updatepayment-----June 13, 2022, 12:00 pm--------------------
{"payment_method":"razorpay","all_shiiping_dtl":{"postState":"29","showexp":0,"total_shipping_cost":0,"totalWeight":0.3},"total_courier_charges":0,"total_amount":"2090","customer_id":"b39ed62c3647d8e83955007758b5492d2c85c8a1e868c99081552862bfb94b74e6df53584fb376efd753019f232d52582b2f43b4c037b790944d745aeb1321f6rwtzAu\/nonw71hrDmTx94bZWddQvHB6acLa9x7hjtgs=","usrid":"b39ed62c3647d8e83955007758b5492d2c85c8a1e868c99081552862bfb94b74e6df53584fb376efd753019f232d52582b2f43b4c037b790944d745aeb1321f6rwtzAu\/nonw71hrDmTx94bZWddQvHB6acLa9x7hjtgs=","orderinvoice_no":234444,"final_amount_to_pay":2090}
------------------FileName: Liborder.php - Function Name: before hitting razor api-----June 13, 2022, 12:25 pm--------------------
{"payment_method":"razorpay","orderinvoice_no":234445,"total_amount":"712","total_courier_charges":95,"finalamount":807,"customer_id":"5760cd02841efd84aab804a79df8b8315e34e6a55cb02a034b0a4b8ac610574887daf4f488dd06e9478c22dc006a2b24bd777945f4f1cec2fab302e2892f42928Fr+7MRkutdghpeoKiZfVMZuk20cyfd5c1UWh8h4z+8="}
------------------FileName: Liborder.php - Function Name: after hitting razor api-----June 13, 2022, 12:25 pm--------------------
{"payment_method":"razorpay","orderinvoice_no":234445,"total_amount":"712","total_courier_charges":95,"finalamount":807,"customer_id":"5760cd02841efd84aab804a79df8b8315e34e6a55cb02a034b0a4b8ac610574887daf4f488dd06e9478c22dc006a2b24bd777945f4f1cec2fab302e2892f42928Fr+7MRkutdghpeoKiZfVMZuk20cyfd5c1UWh8h4z+8=","razorpay_response":{}}
------------------FileName: Liborder.php - Function Name: updatepayment-----June 13, 2022, 12:25 pm--------------------
{"payment_method":"razorpay","all_shiiping_dtl":{"postState":"33","showexp":0,"totalWeight":0.5,"total_shipping_cost":95},"total_courier_charges":95,"total_amount":"712","customer_id":"5760cd02841efd84aab804a79df8b8315e34e6a55cb02a034b0a4b8ac610574887daf4f488dd06e9478c22dc006a2b24bd777945f4f1cec2fab302e2892f42928Fr+7MRkutdghpeoKiZfVMZuk20cyfd5c1UWh8h4z+8=","usrid":"5760cd02841efd84aab804a79df8b8315e34e6a55cb02a034b0a4b8ac610574887daf4f488dd06e9478c22dc006a2b24bd777945f4f1cec2fab302e2892f42928Fr+7MRkutdghpeoKiZfVMZuk20cyfd5c1UWh8h4z+8=","orderinvoice_no":234445,"final_amount_to_pay":807}
------------------FileName: Liborder.php - Function Name: updatefinalorderdetails-----June 13, 2022, 12:27 pm--------------------
{"order_pay_status":1,"payment_gateway_response":"{\"result\":\"success\",\"attributes\":{\"razorpay_order_id\":\"order_Jgt51DuXn9w4Ca\",\"razorpay_payment_id\":\"pay_Jgt7D4lAbjVEAy\",\"razorpay_signature\":\"7fdd290673c6149f9504154d836891e7d951bbb140e2d80149201c56ce73ed64\"}}","orderinvoice_no":234445}
------------------FileName: Liborder.php - Function Name: before hitting razor api-----June 13, 2022, 12:33 pm--------------------
{"payment_method":"razorpay","orderinvoice_no":234446,"total_amount":"3700","total_courier_charges":0,"finalamount":3700,"customer_id":"d0aa7c72725c14c778dd60b783137283fc64cbb1b2414ce7c16c60ae5af24ccf7b5e97d7a3fdd1d0110c48ebd00a9db82fb4e974fb0a551c771a8a2b0231ce50xakBvN9n5fqEoehIQZwpM+u9sFucIPVGFVWSBwUNqWY="}
------------------FileName: Liborder.php - Function Name: after hitting razor api-----June 13, 2022, 12:33 pm--------------------
{"payment_method":"razorpay","orderinvoice_no":234446,"total_amount":"3700","total_courier_charges":0,"finalamount":3700,"customer_id":"d0aa7c72725c14c778dd60b783137283fc64cbb1b2414ce7c16c60ae5af24ccf7b5e97d7a3fdd1d0110c48ebd00a9db82fb4e974fb0a551c771a8a2b0231ce50xakBvN9n5fqEoehIQZwpM+u9sFucIPVGFVWSBwUNqWY=","razorpay_response":{}}
------------------FileName: Liborder.php - Function Name: updatepayment-----June 13, 2022, 12:33 pm--------------------
{"payment_method":"razorpay","all_shiiping_dtl":{"postState":"20","showexp":0,"total_shipping_cost":0,"totalWeight":1.3},"total_courier_charges":0,"total_amount":"3700","customer_id":"d0aa7c72725c14c778dd60b783137283fc64cbb1b2414ce7c16c60ae5af24ccf7b5e97d7a3fdd1d0110c48ebd00a9db82fb4e974fb0a551c771a8a2b0231ce50xakBvN9n5fqEoehIQZwpM+u9sFucIPVGFVWSBwUNqWY=","usrid":"d0aa7c72725c14c778dd60b783137283fc64cbb1b2414ce7c16c60ae5af24ccf7b5e97d7a3fdd1d0110c48ebd00a9db82fb4e974fb0a551c771a8a2b0231ce50xakBvN9n5fqEoehIQZwpM+u9sFucIPVGFVWSBwUNqWY=","orderinvoice_no":234446,"final_amount_to_pay":3700}
------------------FileName: Liborder.php - Function Name: updatefinalorderdetails-----June 13, 2022, 12:34 pm--------------------
{"order_pay_status":1,"payment_gateway_response":"{\"result\":\"success\",\"attributes\":{\"razorpay_order_id\":\"order_JgtDlGtdx3G1ro\",\"razorpay_payment_id\":\"pay_JgtECo90MzWUX2\",\"razorpay_signature\":\"8496b06b31123243e9250d2c53d056e1016c376e8707b85281052793820966b7\"}}","orderinvoice_no":234446}
------------------FileName: Liborder.php - Function Name: before hitting razor api-----June 13, 2022, 2:00 pm--------------------
{"payment_method":"razorpay","orderinvoice_no":234448,"total_amount":"770","total_courier_charges":95,"finalamount":865,"customer_id":"75718c2d3cda0ada15a5ae391548dc63da3622f5e6b0ab7b70589830bbbe785fdaafec223c342d5e8b47e6f3c43db8af9ff23b6eb2f529dd8116faed12c73ee5MJ0ebeteNu\/\/O4o9ePykMEtCZ\/HehJHBRPwnNRNxajg="}
------------------FileName: Liborder.php - Function Name: after hitting razor api-----June 13, 2022, 2:00 pm--------------------
{"payment_method":"razorpay","orderinvoice_no":234448,"total_amount":"770","total_courier_charges":95,"finalamount":865,"customer_id":"75718c2d3cda0ada15a5ae391548dc63da3622f5e6b0ab7b70589830bbbe785fdaafec223c342d5e8b47e6f3c43db8af9ff23b6eb2f529dd8116faed12c73ee5MJ0ebeteNu\/\/O4o9ePykMEtCZ\/HehJHBRPwnNRNxajg=","razorpay_response":{}}
------------------FileName: Liborder.php - Function Name: updatepayment-----June 13, 2022, 2:00 pm--------------------
{"payment_method":"razorpay","all_shiiping_dtl":{"postState":"20","showexp":0,"totalWeight":0.5,"total_shipping_cost":95},"total_courier_charges":95,"total_amount":"770","customer_id":"75718c2d3cda0ada15a5ae391548dc63da3622f5e6b0ab7b70589830bbbe785fdaafec223c342d5e8b47e6f3c43db8af9ff23b6eb2f529dd8116faed12c73ee5MJ0ebeteNu\/\/O4o9ePykMEtCZ\/HehJHBRPwnNRNxajg=","usrid":"75718c2d3cda0ada15a5ae391548dc63da3622f5e6b0ab7b70589830bbbe785fdaafec223c342d5e8b47e6f3c43db8af9ff23b6eb2f529dd8116faed12c73ee5MJ0ebeteNu\/\/O4o9ePykMEtCZ\/HehJHBRPwnNRNxajg=","orderinvoice_no":234448,"final_amount_to_pay":865}
------------------FileName: Liborder.php - Function Name: updatefinalorderdetails-----June 13, 2022, 2:03 pm--------------------
{"order_pay_status":1,"payment_gateway_response":"{\"result\":\"success\",\"attributes\":{\"razorpay_order_id\":\"order_Jguhccu2dPHtnE\",\"razorpay_payment_id\":\"pay_JgukCLTI2uAVvD\",\"razorpay_signature\":\"595a4bd4e7a296a6911051c2677dc83cd9032382d46b95bab47214ff29df8cec\"}}","orderinvoice_no":234448}
------------------FileName: Liborder.php - Function Name: before hitting razor api-----June 13, 2022, 3:56 pm--------------------
{"payment_method":"razorpay","orderinvoice_no":234450,"total_amount":"9650","total_courier_charges":0,"finalamount":9650,"customer_id":"70eb8ac4bb90c4ee63483ae9dd36478656f4571edc01f95357b4451d6131dd3ec9e2183a4af779ae6ca5d909001e770379c1e17d9984558b679ecce083eb282bV6AkLZxwJuAEBKWVCzWUfvMOdGd\/f+LF59h\/oY5+J2k="}
------------------FileName: Liborder.php - Function Name: after hitting razor api-----June 13, 2022, 3:56 pm--------------------
{"payment_method":"razorpay","orderinvoice_no":234450,"total_amount":"9650","total_courier_charges":0,"finalamount":9650,"customer_id":"70eb8ac4bb90c4ee63483ae9dd36478656f4571edc01f95357b4451d6131dd3ec9e2183a4af779ae6ca5d909001e770379c1e17d9984558b679ecce083eb282bV6AkLZxwJuAEBKWVCzWUfvMOdGd\/f+LF59h\/oY5+J2k=","razorpay_response":{}}
------------------FileName: Liborder.php - Function Name: updatepayment-----June 13, 2022, 3:56 pm--------------------
{"payment_method":"razorpay","all_shiiping_dtl":{"postState":"33","showexp":0,"total_shipping_cost":0,"totalWeight":0.1},"total_courier_charges":0,"total_amount":"9650","customer_id":"70eb8ac4bb90c4ee63483ae9dd36478656f4571edc01f95357b4451d6131dd3ec9e2183a4af779ae6ca5d909001e770379c1e17d9984558b679ecce083eb282bV6AkLZxwJuAEBKWVCzWUfvMOdGd\/f+LF59h\/oY5+J2k=","usrid":"70eb8ac4bb90c4ee63483ae9dd36478656f4571edc01f95357b4451d6131dd3ec9e2183a4af779ae6ca5d909001e770379c1e17d9984558b679ecce083eb282bV6AkLZxwJuAEBKWVCzWUfvMOdGd\/f+LF59h\/oY5+J2k=","orderinvoice_no":234450,"final_amount_to_pay":9650}
------------------FileName: Liborder.php - Function Name: updatefinalorderdetails-----June 13, 2022, 3:59 pm--------------------
{"order_pay_status":1,"payment_gateway_response":"{\"result\":\"success\",\"attributes\":{\"razorpay_order_id\":\"order_Jgwg4fe7ZmGaR8\",\"razorpay_payment_id\":\"pay_Jgwiw8IVOVAZmC\",\"razorpay_signature\":\"bb9c1318453056bdbbce67b4b90b14f4ed1413950e6b9dd7472722dd539a3057\"}}","orderinvoice_no":234450}
------------------FileName: Liborder.php - Function Name: before hitting razor api-----June 13, 2022, 4:37 pm--------------------
{"payment_method":"razorpay","orderinvoice_no":234451,"total_amount":"1850","total_courier_charges":192,"finalamount":2042,"customer_id":"7a9f8cc1010c5db50fbabbe01bc1f6cf81e870b41100603ba5b6b3588530f0f6a4d7400b703b3fb8a03f4dfca9adbf52360b59559f1204dfeeb71a98a9b8eb35h4EIDrHCo70+iO5dlbRARqFc2w2B1EyHUMiJtxJAQsQ="}
------------------FileName: Liborder.php - Function Name: after hitting razor api-----June 13, 2022, 4:37 pm--------------------
{"payment_method":"razorpay","orderinvoice_no":234451,"total_amount":"1850","total_courier_charges":192,"finalamount":2042,"customer_id":"7a9f8cc1010c5db50fbabbe01bc1f6cf81e870b41100603ba5b6b3588530f0f6a4d7400b703b3fb8a03f4dfca9adbf52360b59559f1204dfeeb71a98a9b8eb35h4EIDrHCo70+iO5dlbRARqFc2w2B1EyHUMiJtxJAQsQ=","razorpay_response":{}}
------------------FileName: Liborder.php - Function Name: updatepayment-----June 13, 2022, 4:37 pm--------------------
{"payment_method":"razorpay","all_shiiping_dtl":{"postState":"20","showexp":0,"totalWeight":1,"total_shipping_cost":192},"total_courier_charges":192,"total_amount":"1850","customer_id":"7a9f8cc1010c5db50fbabbe01bc1f6cf81e870b41100603ba5b6b3588530f0f6a4d7400b703b3fb8a03f4dfca9adbf52360b59559f1204dfeeb71a98a9b8eb35h4EIDrHCo70+iO5dlbRARqFc2w2B1EyHUMiJtxJAQsQ=","usrid":"7a9f8cc1010c5db50fbabbe01bc1f6cf81e870b41100603ba5b6b3588530f0f6a4d7400b703b3fb8a03f4dfca9adbf52360b59559f1204dfeeb71a98a9b8eb35h4EIDrHCo70+iO5dlbRARqFc2w2B1EyHUMiJtxJAQsQ=","orderinvoice_no":234451,"final_amount_to_pay":2042}
------------------FileName: Liborder.php - Function Name: before hitting razor api-----June 13, 2022, 4:38 pm--------------------
{"payment_method":"razorpay","orderinvoice_no":234452,"total_amount":"13440","total_courier_charges":0,"finalamount":13440,"customer_id":"834264dc0dd8b53b0b85a8ef73dc6b8ce161f9912f40a33ef14abbacb7046d2ef6a2516b915c990f42da671d8863b69af8d5f43fc57b1eb237db036d58570d28q2R1uKgPnVHu01CWlSMeGXcz\/Fezg03kjKIuMvDtTvw="}
------------------FileName: Liborder.php - Function Name: after hitting razor api-----June 13, 2022, 4:38 pm--------------------
{"payment_method":"razorpay","orderinvoice_no":234452,"total_amount":"13440","total_courier_charges":0,"finalamount":13440,"customer_id":"834264dc0dd8b53b0b85a8ef73dc6b8ce161f9912f40a33ef14abbacb7046d2ef6a2516b915c990f42da671d8863b69af8d5f43fc57b1eb237db036d58570d28q2R1uKgPnVHu01CWlSMeGXcz\/Fezg03kjKIuMvDtTvw=","razorpay_response":{}}
------------------FileName: Liborder.php - Function Name: updatepayment-----June 13, 2022, 4:38 pm--------------------
{"payment_method":"razorpay","all_shiiping_dtl":{"postState":"15","showexp":1,"total_shipping_cost":0,"totalWeight":18},"total_courier_charges":0,"total_amount":"13440","customer_id":"834264dc0dd8b53b0b85a8ef73dc6b8ce161f9912f40a33ef14abbacb7046d2ef6a2516b915c990f42da671d8863b69af8d5f43fc57b1eb237db036d58570d28q2R1uKgPnVHu01CWlSMeGXcz\/Fezg03kjKIuMvDtTvw=","usrid":"834264dc0dd8b53b0b85a8ef73dc6b8ce161f9912f40a33ef14abbacb7046d2ef6a2516b915c990f42da671d8863b69af8d5f43fc57b1eb237db036d58570d28q2R1uKgPnVHu01CWlSMeGXcz\/Fezg03kjKIuMvDtTvw=","orderinvoice_no":234452,"final_amount_to_pay":13440}
------------------FileName: Liborder.php - Function Name: updatefinalorderdetails-----June 13, 2022, 4:38 pm--------------------
{"order_pay_status":1,"payment_gateway_response":"{\"result\":\"success\",\"attributes\":{\"razorpay_order_id\":\"order_JgxNMhQj4qbghq\",\"razorpay_payment_id\":\"pay_JgxNyEND83HgQd\",\"razorpay_signature\":\"ebb74f1306b28335b828e06ee624158aefdb14d4eae2bcd1964d3d87b29f75a4\"}}","orderinvoice_no":234451}
------------------FileName: Liborder.php - Function Name: updatefinalorderdetails-----June 13, 2022, 4:48 pm--------------------
{"order_pay_status":1,"payment_gateway_response":"{\"result\":\"success\",\"attributes\":{\"razorpay_order_id\":\"order_JgxOp85fm3JztS\",\"razorpay_payment_id\":\"pay_JgxWBW7sthL5Ce\",\"razorpay_signature\":\"c310d3962185a52b775457f3285f86df06cbb3a757c098beb040a0f10e4ab09c\"}}","orderinvoice_no":234452}
------------------FileName: Liborder.php - Function Name: before hitting razor api-----June 13, 2022, 4:57 pm--------------------
{"payment_method":"razorpay","orderinvoice_no":234453,"total_amount":"385","total_courier_charges":95,"finalamount":480,"customer_id":"e9df66c3c35563e262f36cba0b97d1721ae2757e848c241d29e15d9f9cc8082b1170d6c8ace1bcbea6ca0e6f774897786ba0188bff1aaec527b51ae2196e9920LRJTqn+\/RvAvI1FTEoAjyD7vSMSKgxYA1vOepaEqnds="}
------------------FileName: Liborder.php - Function Name: after hitting razor api-----June 13, 2022, 4:57 pm--------------------
{"payment_method":"razorpay","orderinvoice_no":234453,"total_amount":"385","total_courier_charges":95,"finalamount":480,"customer_id":"e9df66c3c35563e262f36cba0b97d1721ae2757e848c241d29e15d9f9cc8082b1170d6c8ace1bcbea6ca0e6f774897786ba0188bff1aaec527b51ae2196e9920LRJTqn+\/RvAvI1FTEoAjyD7vSMSKgxYA1vOepaEqnds=","razorpay_response":{}}
------------------FileName: Liborder.php - Function Name: updatepayment-----June 13, 2022, 4:57 pm--------------------
{"payment_method":"razorpay","all_shiiping_dtl":{"postState":"33","showexp":0,"totalWeight":1,"total_shipping_cost":95},"total_courier_charges":95,"total_amount":"385","customer_id":"e9df66c3c35563e262f36cba0b97d1721ae2757e848c241d29e15d9f9cc8082b1170d6c8ace1bcbea6ca0e6f774897786ba0188bff1aaec527b51ae2196e9920LRJTqn+\/RvAvI1FTEoAjyD7vSMSKgxYA1vOepaEqnds=","usrid":"e9df66c3c35563e262f36cba0b97d1721ae2757e848c241d29e15d9f9cc8082b1170d6c8ace1bcbea6ca0e6f774897786ba0188bff1aaec527b51ae2196e9920LRJTqn+\/RvAvI1FTEoAjyD7vSMSKgxYA1vOepaEqnds=","orderinvoice_no":234453,"final_amount_to_pay":480}
------------------FileName: Liborder.php - Function Name: before hitting razor api-----June 13, 2022, 4:58 pm--------------------
{"payment_method":"razorpay","orderinvoice_no":234449,"total_amount":"520","total_courier_charges":95,"finalamount":615,"customer_id":"5cd50f6e562c8d8a35a8d4daa49609d2b06f743bfaf7ce33d7207936448ace51fd66f86bd1e982760af1b07d79804c5e01cf43c00978d8543b2e487d7cb7ddacvuwdlA0b\/pe6YMVUS6UyOZ0buHv5elY86FUC1W0m4r0="}
------------------FileName: Liborder.php - Function Name: after hitting razor api-----June 13, 2022, 4:58 pm--------------------
{"payment_method":"razorpay","orderinvoice_no":234449,"total_amount":"520","total_courier_charges":95,"finalamount":615,"customer_id":"5cd50f6e562c8d8a35a8d4daa49609d2b06f743bfaf7ce33d7207936448ace51fd66f86bd1e982760af1b07d79804c5e01cf43c00978d8543b2e487d7cb7ddacvuwdlA0b\/pe6YMVUS6UyOZ0buHv5elY86FUC1W0m4r0=","razorpay_response":{}}
------------------FileName: Liborder.php - Function Name: updatepayment-----June 13, 2022, 4:58 pm--------------------
{"payment_method":"razorpay","all_shiiping_dtl":{"postState":"20","showexp":0,"totalWeight":1,"total_shipping_cost":95},"total_courier_charges":95,"total_amount":"520","customer_id":"5cd50f6e562c8d8a35a8d4daa49609d2b06f743bfaf7ce33d7207936448ace51fd66f86bd1e982760af1b07d79804c5e01cf43c00978d8543b2e487d7cb7ddacvuwdlA0b\/pe6YMVUS6UyOZ0buHv5elY86FUC1W0m4r0=","usrid":"5cd50f6e562c8d8a35a8d4daa49609d2b06f743bfaf7ce33d7207936448ace51fd66f86bd1e982760af1b07d79804c5e01cf43c00978d8543b2e487d7cb7ddacvuwdlA0b\/pe6YMVUS6UyOZ0buHv5elY86FUC1W0m4r0=","orderinvoice_no":234449,"final_amount_to_pay":615}
------------------FileName: Liborder.php - Function Name: updatefinalorderdetails-----June 13, 2022, 4:59 pm--------------------
{"order_pay_status":1,"payment_gateway_response":"{\"result\":\"success\",\"attributes\":{\"razorpay_order_id\":\"order_JgxiUwnIhuwLpF\",\"razorpay_payment_id\":\"pay_Jgxk6IDVALM44R\",\"razorpay_signature\":\"a87fbe204e8475789fe1cfd2663e057a0512d932fb02963d67192a2fc2b47ef8\"}}","orderinvoice_no":234453}
------------------FileName: Liborder.php - Function Name: updatefinalorderdetails-----June 13, 2022, 4:59 pm--------------------
{"order_pay_status":1,"payment_gateway_response":"{\"result\":\"success\",\"attributes\":{\"razorpay_order_id\":\"order_JgxjxuI5ACpMrw\",\"razorpay_payment_id\":\"pay_JgxkeMUioCnVEh\",\"razorpay_signature\":\"a32321e385ebb8b6e9cf417017939296d53a0c628f912813ac9553abd24dc098\"}}","orderinvoice_no":234449}
------------------FileName: Liborder.php - Function Name: before hitting razor api-----June 13, 2022, 5:05 pm--------------------
{"payment_method":"razorpay","orderinvoice_no":234454,"total_amount":"550","total_courier_charges":95,"finalamount":645,"customer_id":"3552985312a601c07735261c88a2b809e584501f149cda21a80f22d242b1f235cbea0245f3bb4284756bf51f33f0944d75cc0f1cc7c5b456d820cb987106ba44l2puMKPxU1VYG5a5p0CxuEpBfKJkHNPRAvR\/j8Gx2do="}
------------------FileName: Liborder.php - Function Name: after hitting razor api-----June 13, 2022, 5:05 pm--------------------
{"payment_method":"razorpay","orderinvoice_no":234454,"total_amount":"550","total_courier_charges":95,"finalamount":645,"customer_id":"3552985312a601c07735261c88a2b809e584501f149cda21a80f22d242b1f235cbea0245f3bb4284756bf51f33f0944d75cc0f1cc7c5b456d820cb987106ba44l2puMKPxU1VYG5a5p0CxuEpBfKJkHNPRAvR\/j8Gx2do=","razorpay_response":{}}
------------------FileName: Liborder.php - Function Name: updatepayment-----June 13, 2022, 5:05 pm--------------------
{"payment_method":"razorpay","all_shiiping_dtl":{"postState":"20","showexp":0,"totalWeight":0.5,"total_shipping_cost":95},"total_courier_charges":95,"total_amount":"550","customer_id":"3552985312a601c07735261c88a2b809e584501f149cda21a80f22d242b1f235cbea0245f3bb4284756bf51f33f0944d75cc0f1cc7c5b456d820cb987106ba44l2puMKPxU1VYG5a5p0CxuEpBfKJkHNPRAvR\/j8Gx2do=","usrid":"3552985312a601c07735261c88a2b809e584501f149cda21a80f22d242b1f235cbea0245f3bb4284756bf51f33f0944d75cc0f1cc7c5b456d820cb987106ba44l2puMKPxU1VYG5a5p0CxuEpBfKJkHNPRAvR\/j8Gx2do=","orderinvoice_no":234454,"final_amount_to_pay":645}
------------------FileName: Liborder.php - Function Name: updatefinalorderdetails-----June 13, 2022, 5:06 pm--------------------
{"order_pay_status":1,"payment_gateway_response":"{\"result\":\"success\",\"attributes\":{\"razorpay_order_id\":\"order_JgxrYFzoySEo1o\",\"razorpay_payment_id\":\"pay_JgxsEEB1OdATnh\",\"razorpay_signature\":\"7c196ffec2a9d4413eecb90f633309254463dc47654e9a978ee3612c5557d806\"}}","orderinvoice_no":234454}
------------------FileName: Liborder.php - Function Name: before hitting razor api-----June 13, 2022, 5:26 pm--------------------
{"payment_method":"razorpay","orderinvoice_no":234455,"total_amount":"650","total_courier_charges":95,"finalamount":745,"customer_id":"5a285692e58b368bbb5e7766a3c20e8127f6e882c3236da7acfa470ea7bfdc60ecee5cdcc1756034b795bbd79d5e05952c4235c7a38823a338907885fec2bcc01c6Ewj\/YVWUgvhSmjn97pAc6G88umuci6j5ApTFG+C0="}
------------------FileName: Liborder.php - Function Name: after hitting razor api-----June 13, 2022, 5:26 pm--------------------
{"payment_method":"razorpay","orderinvoice_no":234455,"total_amount":"650","total_courier_charges":95,"finalamount":745,"customer_id":"5a285692e58b368bbb5e7766a3c20e8127f6e882c3236da7acfa470ea7bfdc60ecee5cdcc1756034b795bbd79d5e05952c4235c7a38823a338907885fec2bcc01c6Ewj\/YVWUgvhSmjn97pAc6G88umuci6j5ApTFG+C0=","razorpay_response":{}}
------------------FileName: Liborder.php - Function Name: updatepayment-----June 13, 2022, 5:26 pm--------------------
{"payment_method":"razorpay","all_shiiping_dtl":{"postState":"29","showexp":0,"totalWeight":0.5,"total_shipping_cost":95},"total_courier_charges":95,"total_amount":"650","customer_id":"5a285692e58b368bbb5e7766a3c20e8127f6e882c3236da7acfa470ea7bfdc60ecee5cdcc1756034b795bbd79d5e05952c4235c7a38823a338907885fec2bcc01c6Ewj\/YVWUgvhSmjn97pAc6G88umuci6j5ApTFG+C0=","usrid":"5a285692e58b368bbb5e7766a3c20e8127f6e882c3236da7acfa470ea7bfdc60ecee5cdcc1756034b795bbd79d5e05952c4235c7a38823a338907885fec2bcc01c6Ewj\/YVWUgvhSmjn97pAc6G88umuci6j5ApTFG+C0=","orderinvoice_no":234455,"final_amount_to_pay":745}
------------------FileName: Liborder.php - Function Name: updatefinalorderdetails-----June 13, 2022, 5:27 pm--------------------
{"order_pay_status":1,"payment_gateway_response":"{\"result\":\"success\",\"attributes\":{\"razorpay_order_id\":\"order_JgyDLwugaThBqx\",\"razorpay_payment_id\":\"pay_JgyDclBOoxAuTs\",\"razorpay_signature\":\"4b397ad1e1fe5ce32e2514cf299c719a3a8af8ab2b4bc625dd35c09b68eaa773\"}}","orderinvoice_no":234455}
------------------FileName: Liborder.php - Function Name: before hitting razor api-----June 13, 2022, 7:06 pm--------------------
{"payment_method":"razorpay","orderinvoice_no":234457,"total_amount":"165","total_courier_charges":95,"finalamount":260,"customer_id":"4a3d8e4ff09648f10a4e4d73d6ce8cfc97938f9397f54b1241554de9c4bec00d99b4f7efb842b08a6ffc9c01c0989d4cf4c73a512846e5c4d5289ed77fe25fcbkcsaQAI6Qc9mLMnW4Mv7bsArbAgHmA\/YZo+kNoof4mQ="}
------------------FileName: Liborder.php - Function Name: after hitting razor api-----June 13, 2022, 7:06 pm--------------------
{"payment_method":"razorpay","orderinvoice_no":234457,"total_amount":"165","total_courier_charges":95,"finalamount":260,"customer_id":"4a3d8e4ff09648f10a4e4d73d6ce8cfc97938f9397f54b1241554de9c4bec00d99b4f7efb842b08a6ffc9c01c0989d4cf4c73a512846e5c4d5289ed77fe25fcbkcsaQAI6Qc9mLMnW4Mv7bsArbAgHmA\/YZo+kNoof4mQ=","razorpay_response":{}}
------------------FileName: Liborder.php - Function Name: updatepayment-----June 13, 2022, 7:06 pm--------------------
{"payment_method":"razorpay","all_shiiping_dtl":{"postState":"29","showexp":0,"totalWeight":0.5,"total_shipping_cost":95},"total_courier_charges":95,"total_amount":"165","customer_id":"4a3d8e4ff09648f10a4e4d73d6ce8cfc97938f9397f54b1241554de9c4bec00d99b4f7efb842b08a6ffc9c01c0989d4cf4c73a512846e5c4d5289ed77fe25fcbkcsaQAI6Qc9mLMnW4Mv7bsArbAgHmA\/YZo+kNoof4mQ=","usrid":"4a3d8e4ff09648f10a4e4d73d6ce8cfc97938f9397f54b1241554de9c4bec00d99b4f7efb842b08a6ffc9c01c0989d4cf4c73a512846e5c4d5289ed77fe25fcbkcsaQAI6Qc9mLMnW4Mv7bsArbAgHmA\/YZo+kNoof4mQ=","orderinvoice_no":234457,"final_amount_to_pay":260}
------------------FileName: Liborder.php - Function Name: updatefinalorderdetails-----June 13, 2022, 7:07 pm--------------------
{"order_pay_status":1,"payment_gateway_response":"{\"result\":\"success\",\"attributes\":{\"razorpay_order_id\":\"order_JgzupAzv3hNotz\",\"razorpay_payment_id\":\"pay_Jgzv8zkQtIxo7t\",\"razorpay_signature\":\"07e7b0938ebac63dbac914167a907689f48d7fdb6a1364fa410e8dbf6430bc02\"}}","orderinvoice_no":234457}
------------------FileName: Liborder.php - Function Name: before hitting razor api-----June 13, 2022, 9:50 pm--------------------
{"payment_method":"razorpay","orderinvoice_no":234459,"total_amount":"1120","total_courier_charges":95,"finalamount":1215,"customer_id":"1dc00376ac6c728aa37835621607a2456b6e08bf4c905f8c090e7247f3e1ff3b82dc01e033d395e8fa4d1bfc8e523e4abbd9ed06fe383d589056906ff99b12f93Dli3SLInCDC1oEnON+7BSaWAnhNgCn1q1XxlI7QvwU="}
------------------FileName: Liborder.php - Function Name: after hitting razor api-----June 13, 2022, 9:50 pm--------------------
{"payment_method":"razorpay","orderinvoice_no":234459,"total_amount":"1120","total_courier_charges":95,"finalamount":1215,"customer_id":"1dc00376ac6c728aa37835621607a2456b6e08bf4c905f8c090e7247f3e1ff3b82dc01e033d395e8fa4d1bfc8e523e4abbd9ed06fe383d589056906ff99b12f93Dli3SLInCDC1oEnON+7BSaWAnhNgCn1q1XxlI7QvwU=","razorpay_response":{}}
------------------FileName: Liborder.php - Function Name: updatepayment-----June 13, 2022, 9:50 pm--------------------
{"payment_method":"razorpay","all_shiiping_dtl":{"postState":"64","showexp":0,"totalWeight":0.5,"total_shipping_cost":95},"total_courier_charges":95,"total_amount":"1120","customer_id":"1dc00376ac6c728aa37835621607a2456b6e08bf4c905f8c090e7247f3e1ff3b82dc01e033d395e8fa4d1bfc8e523e4abbd9ed06fe383d589056906ff99b12f93Dli3SLInCDC1oEnON+7BSaWAnhNgCn1q1XxlI7QvwU=","usrid":"1dc00376ac6c728aa37835621607a2456b6e08bf4c905f8c090e7247f3e1ff3b82dc01e033d395e8fa4d1bfc8e523e4abbd9ed06fe383d589056906ff99b12f93Dli3SLInCDC1oEnON+7BSaWAnhNgCn1q1XxlI7QvwU=","orderinvoice_no":234459,"final_amount_to_pay":1215}
------------------FileName: Liborder.php - Function Name: updatefinalorderdetails-----June 13, 2022, 9:51 pm--------------------
{"order_pay_status":1,"payment_gateway_response":"{\"result\":\"success\",\"attributes\":{\"razorpay_order_id\":\"order_Jh2i2DHCUuGpWW\",\"razorpay_payment_id\":\"pay_Jh2iMNBcj06EVr\",\"razorpay_signature\":\"d80b8fde44331fd8f05877a209dad49b9e3ded50dc02cc9b800dd33461648c23\"}}","orderinvoice_no":234459}
