------------------FileName: Do_shipcost.php - Function Name: getstate-----May 18, 2022, 3:09 am--------------------
"SELECT state, postcode FROM `customer_shipping_address` where customer_id='287122' order by address_id desc limit 1"
------------------FileName: Do_shipcost.php - Function Name: getzone-----May 18, 2022, 3:09 am--------------------
"SELECT DISTINCT(zoneId), pincode FROM pincodeMaster WHERE cityCode = (SELECT cityCode FROM cityMaster WHERE stateId = 16 LIMIT 1) LIMIT 1"
------------------FileName: Do_shipcost.php - Function Name: getprodetail-----May 18, 2022, 3:09 am--------------------
"SELECT promotionId, clearanceId FROM product_master WHERE proid = 209549 LIMIT 1"
------------------FileName: Do_shipcost.php - Function Name: getproductprice-----May 18, 2022, 3:09 am--------------------
"SELECT onlinePrice,discountPrice,proweight FROM `product_master` where proid=209549"
------------------FileName: Do_shipcost.php - Function Name: getpromotiondtl-----May 18, 2022, 3:09 am--------------------
"SELECT shippingstatus, startDate, endDate FROM promotionMaster WHERE id = 1217 AND endDate >= '2022-05-18' AND startDate <= '2022-05-18' AND status = 1"
------------------FileName: Libshippingcost.php - Function Name: calculateshippingcost-final_response-----May 18, 2022, 3:09 am--------------------
{"postState":"16","showexp":1,"total_shipping_cost":0,"totalWeight":10}
------------------FileName: Do_shipcost.php - Function Name: getstate-----May 18, 2022, 3:09 am--------------------
"SELECT state, postcode FROM `customer_shipping_address` where customer_id='287122' order by address_id desc limit 1"
------------------FileName: Do_shipcost.php - Function Name: getzone-----May 18, 2022, 3:09 am--------------------
"SELECT DISTINCT(zoneId), pincode FROM pincodeMaster WHERE cityCode = (SELECT cityCode FROM cityMaster WHERE stateId = 16 LIMIT 1) LIMIT 1"
------------------FileName: Do_shipcost.php - Function Name: getprodetail-----May 18, 2022, 3:09 am--------------------
"SELECT promotionId, clearanceId FROM product_master WHERE proid = 209549 LIMIT 1"
------------------FileName: Do_shipcost.php - Function Name: getproductprice-----May 18, 2022, 3:09 am--------------------
"SELECT onlinePrice,discountPrice,proweight FROM `product_master` where proid=209549"
------------------FileName: Do_shipcost.php - Function Name: getpromotiondtl-----May 18, 2022, 3:09 am--------------------
"SELECT shippingstatus, startDate, endDate FROM promotionMaster WHERE id = 1217 AND endDate >= '2022-05-18' AND startDate <= '2022-05-18' AND status = 1"
------------------FileName: Libshippingcost.php - Function Name: calculateshippingcost-final_response-----May 18, 2022, 3:09 am--------------------
{"postState":"16","showexp":1,"total_shipping_cost":0,"totalWeight":10}
------------------FileName: Do_shipcost.php - Function Name: getstate-----May 18, 2022, 7:58 am--------------------
"SELECT state, postcode FROM `customer_shipping_address` where customer_id='286835' order by address_id desc limit 1"
------------------FileName: Do_shipcost.php - Function Name: getzone-----May 18, 2022, 7:58 am--------------------
"SELECT DISTINCT(zoneId), pincode FROM pincodeMaster WHERE cityCode = (SELECT cityCode FROM cityMaster WHERE stateId = 20 LIMIT 1) LIMIT 1"
------------------FileName: Do_shipcost.php - Function Name: getprodetail-----May 18, 2022, 7:58 am--------------------
"SELECT promotionId, clearanceId FROM product_master WHERE proid = 213998 LIMIT 1"
------------------FileName: Do_shipcost.php - Function Name: getproductprice-----May 18, 2022, 7:58 am--------------------
"SELECT onlinePrice,discountPrice,proweight FROM `product_master` where proid=213998"
------------------FileName: Do_shipcost.php - Function Name: getpromotiondtl-----May 18, 2022, 7:58 am--------------------
"SELECT shippingstatus, startDate, endDate FROM promotionMaster WHERE id = 1237 AND endDate >= '2022-05-18' AND startDate <= '2022-05-18' AND status = 1"
------------------FileName: Libshippingcost.php - Function Name: calculateshippingcost-final_response-----May 18, 2022, 7:58 am--------------------
{"postState":"20","showexp":0,"totalWeight":0.5,"total_shipping_cost":95}
------------------FileName: Do_shipcost.php - Function Name: getstate-----May 18, 2022, 7:58 am--------------------
"SELECT state, postcode FROM `customer_shipping_address` where customer_id='286835' order by address_id desc limit 1"
------------------FileName: Do_shipcost.php - Function Name: getzone-----May 18, 2022, 7:58 am--------------------
"SELECT DISTINCT(zoneId), pincode FROM pincodeMaster WHERE cityCode = (SELECT cityCode FROM cityMaster WHERE stateId = 20 LIMIT 1) LIMIT 1"
------------------FileName: Do_shipcost.php - Function Name: getprodetail-----May 18, 2022, 7:58 am--------------------
"SELECT promotionId, clearanceId FROM product_master WHERE proid = 213998 LIMIT 1"
------------------FileName: Do_shipcost.php - Function Name: getproductprice-----May 18, 2022, 7:58 am--------------------
"SELECT onlinePrice,discountPrice,proweight FROM `product_master` where proid=213998"
------------------FileName: Do_shipcost.php - Function Name: getpromotiondtl-----May 18, 2022, 7:58 am--------------------
"SELECT shippingstatus, startDate, endDate FROM promotionMaster WHERE id = 1237 AND endDate >= '2022-05-18' AND startDate <= '2022-05-18' AND status = 1"
------------------FileName: Libshippingcost.php - Function Name: calculateshippingcost-final_response-----May 18, 2022, 7:58 am--------------------
{"postState":"20","showexp":0,"totalWeight":0.5,"total_shipping_cost":95}
------------------FileName: Do_shipcost.php - Function Name: getstate-----May 18, 2022, 8:38 am--------------------
"SELECT state, postcode FROM `customer_shipping_address` where customer_id='287155' order by address_id desc limit 1"
------------------FileName: Do_shipcost.php - Function Name: getzone-----May 18, 2022, 8:38 am--------------------
"SELECT DISTINCT(zoneId), pincode FROM pincodeMaster WHERE cityCode = (SELECT cityCode FROM cityMaster WHERE stateId = 15 LIMIT 1) LIMIT 1"
------------------FileName: Do_shipcost.php - Function Name: getprodetail-----May 18, 2022, 8:38 am--------------------
"SELECT promotionId, clearanceId FROM product_master WHERE proid = 148201 LIMIT 1"
------------------FileName: Do_shipcost.php - Function Name: getproductprice-----May 18, 2022, 8:38 am--------------------
"SELECT onlinePrice,discountPrice,proweight FROM `product_master` where proid=148201"
------------------FileName: Libshippingcost.php - Function Name: calculateshippingcost-final_response-----May 18, 2022, 8:38 am--------------------
{"postState":"15","showexp":0,"totalWeight":0.5,"total_shipping_cost":95}
------------------FileName: Do_shipcost.php - Function Name: getstate-----May 18, 2022, 8:38 am--------------------
"SELECT state, postcode FROM `customer_shipping_address` where customer_id='287155' order by address_id desc limit 1"
------------------FileName: Do_shipcost.php - Function Name: getzone-----May 18, 2022, 8:38 am--------------------
"SELECT DISTINCT(zoneId), pincode FROM pincodeMaster WHERE cityCode = (SELECT cityCode FROM cityMaster WHERE stateId = 15 LIMIT 1) LIMIT 1"
------------------FileName: Do_shipcost.php - Function Name: getprodetail-----May 18, 2022, 8:38 am--------------------
"SELECT promotionId, clearanceId FROM product_master WHERE proid = 148201 LIMIT 1"
------------------FileName: Do_shipcost.php - Function Name: getproductprice-----May 18, 2022, 8:38 am--------------------
"SELECT onlinePrice,discountPrice,proweight FROM `product_master` where proid=148201"
------------------FileName: Libshippingcost.php - Function Name: calculateshippingcost-final_response-----May 18, 2022, 8:38 am--------------------
{"postState":"15","showexp":0,"totalWeight":0.5,"total_shipping_cost":95}
------------------FileName: Do_shipcost.php - Function Name: getstate-----May 18, 2022, 8:54 am--------------------
"SELECT state, postcode FROM `customer_shipping_address` where customer_id='287156' order by address_id desc limit 1"
------------------FileName: Do_shipcost.php - Function Name: getzone-----May 18, 2022, 8:54 am--------------------
"SELECT DISTINCT(zoneId), pincode FROM pincodeMaster WHERE cityCode = (SELECT cityCode FROM cityMaster WHERE stateId = 9 LIMIT 1) LIMIT 1"
------------------FileName: Do_shipcost.php - Function Name: getprodetail-----May 18, 2022, 8:54 am--------------------
"SELECT promotionId, clearanceId FROM product_master WHERE proid = 205347 LIMIT 1"
------------------FileName: Do_shipcost.php - Function Name: getproductprice-----May 18, 2022, 8:54 am--------------------
"SELECT onlinePrice,discountPrice,proweight FROM `product_master` where proid=205347"
------------------FileName: Do_shipcost.php - Function Name: getpromotiondtl-----May 18, 2022, 8:54 am--------------------
"SELECT shippingstatus, startDate, endDate FROM promotionMaster WHERE id = 1213 AND endDate >= '2022-05-18' AND startDate <= '2022-05-18' AND status = 1"
------------------FileName: Libshippingcost.php - Function Name: calculateshippingcost-final_response-----May 18, 2022, 8:54 am--------------------
{"postState":"9","showexp":1,"total_shipping_cost":0,"totalWeight":11.42}
------------------FileName: Do_shipcost.php - Function Name: getstate-----May 18, 2022, 8:54 am--------------------
"SELECT state, postcode FROM `customer_shipping_address` where customer_id='287156' order by address_id desc limit 1"
------------------FileName: Do_shipcost.php - Function Name: getzone-----May 18, 2022, 8:54 am--------------------
"SELECT DISTINCT(zoneId), pincode FROM pincodeMaster WHERE cityCode = (SELECT cityCode FROM cityMaster WHERE stateId = 9 LIMIT 1) LIMIT 1"
------------------FileName: Do_shipcost.php - Function Name: getprodetail-----May 18, 2022, 8:54 am--------------------
"SELECT promotionId, clearanceId FROM product_master WHERE proid = 205347 LIMIT 1"
------------------FileName: Do_shipcost.php - Function Name: getproductprice-----May 18, 2022, 8:54 am--------------------
"SELECT onlinePrice,discountPrice,proweight FROM `product_master` where proid=205347"
------------------FileName: Do_shipcost.php - Function Name: getpromotiondtl-----May 18, 2022, 8:54 am--------------------
"SELECT shippingstatus, startDate, endDate FROM promotionMaster WHERE id = 1213 AND endDate >= '2022-05-18' AND startDate <= '2022-05-18' AND status = 1"
------------------FileName: Libshippingcost.php - Function Name: calculateshippingcost-final_response-----May 18, 2022, 8:54 am--------------------
{"postState":"9","showexp":1,"total_shipping_cost":0,"totalWeight":11.42}
------------------FileName: Do_shipcost.php - Function Name: getstate-----May 18, 2022, 9:02 am--------------------
"SELECT state, postcode FROM `customer_shipping_address` where customer_id='287156' order by address_id desc limit 1"
------------------FileName: Do_shipcost.php - Function Name: getzone-----May 18, 2022, 9:02 am--------------------
"SELECT DISTINCT(zoneId), pincode FROM pincodeMaster WHERE cityCode = (SELECT cityCode FROM cityMaster WHERE stateId = 9 LIMIT 1) LIMIT 1"
------------------FileName: Do_shipcost.php - Function Name: getprodetail-----May 18, 2022, 9:02 am--------------------
"SELECT promotionId, clearanceId FROM product_master WHERE proid = 205347 LIMIT 1"
------------------FileName: Do_shipcost.php - Function Name: getproductprice-----May 18, 2022, 9:02 am--------------------
"SELECT onlinePrice,discountPrice,proweight FROM `product_master` where proid=205347"
------------------FileName: Do_shipcost.php - Function Name: getpromotiondtl-----May 18, 2022, 9:02 am--------------------
"SELECT shippingstatus, startDate, endDate FROM promotionMaster WHERE id = 1213 AND endDate >= '2022-05-18' AND startDate <= '2022-05-18' AND status = 1"
------------------FileName: Libshippingcost.php - Function Name: calculateshippingcost-final_response-----May 18, 2022, 9:02 am--------------------
{"postState":"9","showexp":1,"total_shipping_cost":0,"totalWeight":11.42}
------------------FileName: Do_shipcost.php - Function Name: getstate-----May 18, 2022, 9:29 am--------------------
"SELECT state, postcode FROM `customer_shipping_address` where customer_id='234765' order by address_id desc limit 1"
------------------FileName: Do_shipcost.php - Function Name: getzone-----May 18, 2022, 9:29 am--------------------
"SELECT DISTINCT(zoneId), pincode FROM pincodeMaster WHERE cityCode = (SELECT cityCode FROM cityMaster WHERE stateId = 64 LIMIT 1) LIMIT 1"
------------------FileName: Do_shipcost.php - Function Name: getprodetail-----May 18, 2022, 9:29 am--------------------
"SELECT promotionId, clearanceId FROM product_master WHERE proid = 147545 LIMIT 1"
------------------FileName: Do_shipcost.php - Function Name: getproductprice-----May 18, 2022, 9:29 am--------------------
"SELECT onlinePrice,discountPrice,proweight FROM `product_master` where proid=147545"
------------------FileName: Do_shipcost.php - Function Name: getprodetail-----May 18, 2022, 9:29 am--------------------
"SELECT promotionId, clearanceId FROM product_master WHERE proid = 148145 LIMIT 1"
------------------FileName: Do_shipcost.php - Function Name: getproductprice-----May 18, 2022, 9:29 am--------------------
"SELECT onlinePrice,discountPrice,proweight FROM `product_master` where proid=148145"
------------------FileName: Libshippingcost.php - Function Name: calculateshippingcost-final_response-----May 18, 2022, 9:29 am--------------------
{"postState":"64","showexp":0,"totalWeight":0.5,"total_shipping_cost":95}
------------------FileName: Do_shipcost.php - Function Name: getstate-----May 18, 2022, 9:29 am--------------------
"SELECT state, postcode FROM `customer_shipping_address` where customer_id='234765' order by address_id desc limit 1"
------------------FileName: Do_shipcost.php - Function Name: getzone-----May 18, 2022, 9:29 am--------------------
"SELECT DISTINCT(zoneId), pincode FROM pincodeMaster WHERE cityCode = (SELECT cityCode FROM cityMaster WHERE stateId = 64 LIMIT 1) LIMIT 1"
------------------FileName: Do_shipcost.php - Function Name: getprodetail-----May 18, 2022, 9:29 am--------------------
"SELECT promotionId, clearanceId FROM product_master WHERE proid = 147545 LIMIT 1"
------------------FileName: Do_shipcost.php - Function Name: getproductprice-----May 18, 2022, 9:29 am--------------------
"SELECT onlinePrice,discountPrice,proweight FROM `product_master` where proid=147545"
------------------FileName: Do_shipcost.php - Function Name: getprodetail-----May 18, 2022, 9:29 am--------------------
"SELECT promotionId, clearanceId FROM product_master WHERE proid = 148145 LIMIT 1"
------------------FileName: Do_shipcost.php - Function Name: getproductprice-----May 18, 2022, 9:29 am--------------------
"SELECT onlinePrice,discountPrice,proweight FROM `product_master` where proid=148145"
------------------FileName: Libshippingcost.php - Function Name: calculateshippingcost-final_response-----May 18, 2022, 9:29 am--------------------
{"postState":"64","showexp":0,"totalWeight":0.5,"total_shipping_cost":95}
------------------FileName: Do_shipcost.php - Function Name: getstate-----May 18, 2022, 9:31 am--------------------
"SELECT state, postcode FROM `customer_shipping_address` where customer_id='234765' order by address_id desc limit 1"
------------------FileName: Do_shipcost.php - Function Name: getzone-----May 18, 2022, 9:31 am--------------------
"SELECT DISTINCT(zoneId), pincode FROM pincodeMaster WHERE cityCode = (SELECT cityCode FROM cityMaster WHERE stateId = 64 LIMIT 1) LIMIT 1"
------------------FileName: Do_shipcost.php - Function Name: getprodetail-----May 18, 2022, 9:31 am--------------------
"SELECT promotionId, clearanceId FROM product_master WHERE proid = 147545 LIMIT 1"
------------------FileName: Do_shipcost.php - Function Name: getproductprice-----May 18, 2022, 9:31 am--------------------
"SELECT onlinePrice,discountPrice,proweight FROM `product_master` where proid=147545"
------------------FileName: Do_shipcost.php - Function Name: getprodetail-----May 18, 2022, 9:31 am--------------------
"SELECT promotionId, clearanceId FROM product_master WHERE proid = 148145 LIMIT 1"
------------------FileName: Do_shipcost.php - Function Name: getproductprice-----May 18, 2022, 9:31 am--------------------
"SELECT onlinePrice,discountPrice,proweight FROM `product_master` where proid=148145"
------------------FileName: Do_shipcost.php - Function Name: getprodetail-----May 18, 2022, 9:31 am--------------------
"SELECT promotionId, clearanceId FROM product_master WHERE proid = 148146 LIMIT 1"
------------------FileName: Do_shipcost.php - Function Name: getproductprice-----May 18, 2022, 9:31 am--------------------
"SELECT onlinePrice,discountPrice,proweight FROM `product_master` where proid=148146"
------------------FileName: Libshippingcost.php - Function Name: calculateshippingcost-final_response-----May 18, 2022, 9:31 am--------------------
{"postState":"64","showexp":0,"totalWeight":1,"total_shipping_cost":95}
------------------FileName: Do_shipcost.php - Function Name: getstate-----May 18, 2022, 9:31 am--------------------
"SELECT state, postcode FROM `customer_shipping_address` where customer_id='234765' order by address_id desc limit 1"
------------------FileName: Do_shipcost.php - Function Name: getzone-----May 18, 2022, 9:31 am--------------------
"SELECT DISTINCT(zoneId), pincode FROM pincodeMaster WHERE cityCode = (SELECT cityCode FROM cityMaster WHERE stateId = 64 LIMIT 1) LIMIT 1"
------------------FileName: Do_shipcost.php - Function Name: getprodetail-----May 18, 2022, 9:31 am--------------------
"SELECT promotionId, clearanceId FROM product_master WHERE proid = 147545 LIMIT 1"
------------------FileName: Do_shipcost.php - Function Name: getproductprice-----May 18, 2022, 9:31 am--------------------
"SELECT onlinePrice,discountPrice,proweight FROM `product_master` where proid=147545"
------------------FileName: Do_shipcost.php - Function Name: getprodetail-----May 18, 2022, 9:31 am--------------------
"SELECT promotionId, clearanceId FROM product_master WHERE proid = 148145 LIMIT 1"
------------------FileName: Do_shipcost.php - Function Name: getproductprice-----May 18, 2022, 9:31 am--------------------
"SELECT onlinePrice,discountPrice,proweight FROM `product_master` where proid=148145"
------------------FileName: Do_shipcost.php - Function Name: getprodetail-----May 18, 2022, 9:31 am--------------------
"SELECT promotionId, clearanceId FROM product_master WHERE proid = 148146 LIMIT 1"
------------------FileName: Do_shipcost.php - Function Name: getproductprice-----May 18, 2022, 9:31 am--------------------
"SELECT onlinePrice,discountPrice,proweight FROM `product_master` where proid=148146"
------------------FileName: Libshippingcost.php - Function Name: calculateshippingcost-final_response-----May 18, 2022, 9:31 am--------------------
{"postState":"64","showexp":0,"totalWeight":1,"total_shipping_cost":95}
------------------FileName: Do_shipcost.php - Function Name: getstate-----May 18, 2022, 10:14 am--------------------
"SELECT state, postcode FROM `customer_shipping_address` where customer_id='' order by address_id desc limit 1"
------------------FileName: Do_shipcost.php - Function Name: getzone-----May 18, 2022, 10:14 am--------------------
"SELECT DISTINCT(zoneId), pincode FROM pincodeMaster WHERE cityCode = (SELECT cityCode FROM cityMaster WHERE stateId = 20 LIMIT 1) LIMIT 1"
------------------FileName: Do_shipcost.php - Function Name: getprodetail-----May 18, 2022, 10:14 am--------------------
"SELECT promotionId, clearanceId FROM product_master WHERE proid = 140248 LIMIT 1"
------------------FileName: Do_shipcost.php - Function Name: getproductprice-----May 18, 2022, 10:14 am--------------------
"SELECT onlinePrice,discountPrice,proweight FROM `product_master` where proid=140248"
------------------FileName: Libshippingcost.php - Function Name: calculateshippingcost-final_response-----May 18, 2022, 10:14 am--------------------
{"postState":"20","showexp":0,"totalWeight":0.5,"total_shipping_cost":95}
------------------FileName: Do_shipcost.php - Function Name: getstate-----May 18, 2022, 10:14 am--------------------
"SELECT state, postcode FROM `customer_shipping_address` where customer_id='' order by address_id desc limit 1"
------------------FileName: Do_shipcost.php - Function Name: getzone-----May 18, 2022, 10:14 am--------------------
"SELECT DISTINCT(zoneId), pincode FROM pincodeMaster WHERE cityCode = (SELECT cityCode FROM cityMaster WHERE stateId = 20 LIMIT 1) LIMIT 1"
------------------FileName: Do_shipcost.php - Function Name: getprodetail-----May 18, 2022, 10:14 am--------------------
"SELECT promotionId, clearanceId FROM product_master WHERE proid = 140248 LIMIT 1"
------------------FileName: Do_shipcost.php - Function Name: getproductprice-----May 18, 2022, 10:14 am--------------------
"SELECT onlinePrice,discountPrice,proweight FROM `product_master` where proid=140248"
------------------FileName: Libshippingcost.php - Function Name: calculateshippingcost-final_response-----May 18, 2022, 10:14 am--------------------
{"postState":"20","showexp":0,"totalWeight":0.5,"total_shipping_cost":95}
------------------FileName: Do_shipcost.php - Function Name: getstate-----May 18, 2022, 10:14 am--------------------
"SELECT state, postcode FROM `customer_shipping_address` where customer_id='' order by address_id desc limit 1"
------------------FileName: Do_shipcost.php - Function Name: getzone-----May 18, 2022, 10:14 am--------------------
"SELECT DISTINCT(zoneId), pincode FROM pincodeMaster WHERE cityCode = (SELECT cityCode FROM cityMaster WHERE stateId = 20 LIMIT 1) LIMIT 1"
------------------FileName: Do_shipcost.php - Function Name: getprodetail-----May 18, 2022, 10:14 am--------------------
"SELECT promotionId, clearanceId FROM product_master WHERE proid = 140248 LIMIT 1"
------------------FileName: Do_shipcost.php - Function Name: getproductprice-----May 18, 2022, 10:14 am--------------------
"SELECT onlinePrice,discountPrice,proweight FROM `product_master` where proid=140248"
------------------FileName: Libshippingcost.php - Function Name: calculateshippingcost-final_response-----May 18, 2022, 10:14 am--------------------
{"postState":"20","showexp":0,"totalWeight":0.5,"total_shipping_cost":95}
------------------FileName: Do_shipcost.php - Function Name: getstate-----May 18, 2022, 11:34 am--------------------
"SELECT state, postcode FROM `customer_shipping_address` where customer_id='286129' order by address_id desc limit 1"
------------------FileName: Do_shipcost.php - Function Name: getzone-----May 18, 2022, 11:34 am--------------------
"SELECT DISTINCT(zoneId), pincode FROM pincodeMaster WHERE cityCode = (SELECT cityCode FROM cityMaster WHERE stateId = 20 LIMIT 1) LIMIT 1"
------------------FileName: Do_shipcost.php - Function Name: getprodetail-----May 18, 2022, 11:34 am--------------------
"SELECT promotionId, clearanceId FROM product_master WHERE proid = 148200 LIMIT 1"
------------------FileName: Do_shipcost.php - Function Name: getproductprice-----May 18, 2022, 11:34 am--------------------
"SELECT onlinePrice,discountPrice,proweight FROM `product_master` where proid=148200"
------------------FileName: Libshippingcost.php - Function Name: calculateshippingcost-final_response-----May 18, 2022, 11:34 am--------------------
{"postState":"20","showexp":0,"totalWeight":0.5,"total_shipping_cost":95}
------------------FileName: Do_shipcost.php - Function Name: getstate-----May 18, 2022, 11:34 am--------------------
"SELECT state, postcode FROM `customer_shipping_address` where customer_id='286129' order by address_id desc limit 1"
------------------FileName: Do_shipcost.php - Function Name: getzone-----May 18, 2022, 11:34 am--------------------
"SELECT DISTINCT(zoneId), pincode FROM pincodeMaster WHERE cityCode = (SELECT cityCode FROM cityMaster WHERE stateId = 20 LIMIT 1) LIMIT 1"
------------------FileName: Do_shipcost.php - Function Name: getprodetail-----May 18, 2022, 11:34 am--------------------
"SELECT promotionId, clearanceId FROM product_master WHERE proid = 148200 LIMIT 1"
------------------FileName: Do_shipcost.php - Function Name: getproductprice-----May 18, 2022, 11:34 am--------------------
"SELECT onlinePrice,discountPrice,proweight FROM `product_master` where proid=148200"
------------------FileName: Libshippingcost.php - Function Name: calculateshippingcost-final_response-----May 18, 2022, 11:34 am--------------------
{"postState":"20","showexp":0,"totalWeight":0.5,"total_shipping_cost":95}
------------------FileName: Do_shipcost.php - Function Name: getstate-----May 18, 2022, 11:42 am--------------------
"SELECT state, postcode FROM `customer_shipping_address` where customer_id='286129' order by address_id desc limit 1"
------------------FileName: Do_shipcost.php - Function Name: getzone-----May 18, 2022, 11:42 am--------------------
"SELECT DISTINCT(zoneId), pincode FROM pincodeMaster WHERE cityCode = (SELECT cityCode FROM cityMaster WHERE stateId = 20 LIMIT 1) LIMIT 1"
------------------FileName: Do_shipcost.php - Function Name: getprodetail-----May 18, 2022, 11:42 am--------------------
"SELECT promotionId, clearanceId FROM product_master WHERE proid = 132700 LIMIT 1"
------------------FileName: Do_shipcost.php - Function Name: getproductprice-----May 18, 2022, 11:42 am--------------------
"SELECT onlinePrice,discountPrice,proweight FROM `product_master` where proid=132700"
------------------FileName: Do_shipcost.php - Function Name: getpromotiondtl-----May 18, 2022, 11:42 am--------------------
"SELECT shippingstatus, startDate, endDate FROM promotionMaster WHERE id = 535 AND endDate >= '2022-05-18' AND startDate <= '2022-05-18' AND status = 1"
------------------FileName: Libshippingcost.php - Function Name: calculateshippingcost-final_response-----May 18, 2022, 11:42 am--------------------
{"postState":"20","showexp":0,"totalWeight":0.5,"total_shipping_cost":95}
------------------FileName: Do_shipcost.php - Function Name: getstate-----May 18, 2022, 11:42 am--------------------
"SELECT state, postcode FROM `customer_shipping_address` where customer_id='286129' order by address_id desc limit 1"
------------------FileName: Do_shipcost.php - Function Name: getzone-----May 18, 2022, 11:42 am--------------------
"SELECT DISTINCT(zoneId), pincode FROM pincodeMaster WHERE cityCode = (SELECT cityCode FROM cityMaster WHERE stateId = 20 LIMIT 1) LIMIT 1"
------------------FileName: Do_shipcost.php - Function Name: getprodetail-----May 18, 2022, 11:42 am--------------------
"SELECT promotionId, clearanceId FROM product_master WHERE proid = 132700 LIMIT 1"
------------------FileName: Do_shipcost.php - Function Name: getproductprice-----May 18, 2022, 11:42 am--------------------
"SELECT onlinePrice,discountPrice,proweight FROM `product_master` where proid=132700"
------------------FileName: Do_shipcost.php - Function Name: getpromotiondtl-----May 18, 2022, 11:42 am--------------------
"SELECT shippingstatus, startDate, endDate FROM promotionMaster WHERE id = 535 AND endDate >= '2022-05-18' AND startDate <= '2022-05-18' AND status = 1"
------------------FileName: Libshippingcost.php - Function Name: calculateshippingcost-final_response-----May 18, 2022, 11:42 am--------------------
{"postState":"20","showexp":0,"totalWeight":0.5,"total_shipping_cost":95}
------------------FileName: Do_shipcost.php - Function Name: getstate-----May 18, 2022, 11:59 am--------------------
"SELECT state, postcode FROM `customer_shipping_address` where customer_id='287133' order by address_id desc limit 1"
------------------FileName: Do_shipcost.php - Function Name: getzone-----May 18, 2022, 11:59 am--------------------
"SELECT DISTINCT(zoneId), pincode FROM pincodeMaster WHERE cityCode = (SELECT cityCode FROM cityMaster WHERE stateId = 20 LIMIT 1) LIMIT 1"
------------------FileName: Do_shipcost.php - Function Name: getprodetail-----May 18, 2022, 11:59 am--------------------
"SELECT promotionId, clearanceId FROM product_master WHERE proid = 119376 LIMIT 1"
------------------FileName: Do_shipcost.php - Function Name: getproductprice-----May 18, 2022, 11:59 am--------------------
"SELECT onlinePrice,discountPrice,proweight FROM `product_master` where proid=119376"
------------------FileName: Do_shipcost.php - Function Name: getpromotiondtl-----May 18, 2022, 11:59 am--------------------
"SELECT shippingstatus, startDate, endDate FROM promotionMaster WHERE id = 1241 AND endDate >= '2022-05-18' AND startDate <= '2022-05-18' AND status = 1"
------------------FileName: Libshippingcost.php - Function Name: calculateshippingcost-final_response-----May 18, 2022, 11:59 am--------------------
{"postState":"20","showexp":0,"totalWeight":0.5,"total_shipping_cost":95}
------------------FileName: Do_shipcost.php - Function Name: getstate-----May 18, 2022, 11:59 am--------------------
"SELECT state, postcode FROM `customer_shipping_address` where customer_id='287133' order by address_id desc limit 1"
------------------FileName: Do_shipcost.php - Function Name: getzone-----May 18, 2022, 11:59 am--------------------
"SELECT DISTINCT(zoneId), pincode FROM pincodeMaster WHERE cityCode = (SELECT cityCode FROM cityMaster WHERE stateId = 20 LIMIT 1) LIMIT 1"
------------------FileName: Do_shipcost.php - Function Name: getprodetail-----May 18, 2022, 11:59 am--------------------
"SELECT promotionId, clearanceId FROM product_master WHERE proid = 119376 LIMIT 1"
------------------FileName: Do_shipcost.php - Function Name: getproductprice-----May 18, 2022, 11:59 am--------------------
"SELECT onlinePrice,discountPrice,proweight FROM `product_master` where proid=119376"
------------------FileName: Do_shipcost.php - Function Name: getpromotiondtl-----May 18, 2022, 11:59 am--------------------
"SELECT shippingstatus, startDate, endDate FROM promotionMaster WHERE id = 1241 AND endDate >= '2022-05-18' AND startDate <= '2022-05-18' AND status = 1"
------------------FileName: Libshippingcost.php - Function Name: calculateshippingcost-final_response-----May 18, 2022, 11:59 am--------------------
{"postState":"20","showexp":0,"totalWeight":0.5,"total_shipping_cost":95}
------------------FileName: Do_shipcost.php - Function Name: getstate-----May 18, 2022, 2:17 pm--------------------
"SELECT state, postcode FROM `customer_shipping_address` where customer_id='287158' order by address_id desc limit 1"
------------------FileName: Do_shipcost.php - Function Name: getzone-----May 18, 2022, 2:17 pm--------------------
"SELECT DISTINCT(zoneId), pincode FROM pincodeMaster WHERE cityCode = (SELECT cityCode FROM cityMaster WHERE stateId = 7 LIMIT 1) LIMIT 1"
------------------FileName: Do_shipcost.php - Function Name: getprodetail-----May 18, 2022, 2:17 pm--------------------
"SELECT promotionId, clearanceId FROM product_master WHERE proid = 102926 LIMIT 1"
------------------FileName: Do_shipcost.php - Function Name: getproductprice-----May 18, 2022, 2:17 pm--------------------
"SELECT onlinePrice,discountPrice,proweight FROM `product_master` where proid=102926"
------------------FileName: Libshippingcost.php - Function Name: calculateshippingcost-final_response-----May 18, 2022, 2:17 pm--------------------
{"postState":"7","showexp":0,"totalWeight":0.5,"total_shipping_cost":95}
------------------FileName: Do_shipcost.php - Function Name: getstate-----May 18, 2022, 2:17 pm--------------------
"SELECT state, postcode FROM `customer_shipping_address` where customer_id='287158' order by address_id desc limit 1"
------------------FileName: Do_shipcost.php - Function Name: getzone-----May 18, 2022, 2:17 pm--------------------
"SELECT DISTINCT(zoneId), pincode FROM pincodeMaster WHERE cityCode = (SELECT cityCode FROM cityMaster WHERE stateId = 7 LIMIT 1) LIMIT 1"
------------------FileName: Do_shipcost.php - Function Name: getprodetail-----May 18, 2022, 2:17 pm--------------------
"SELECT promotionId, clearanceId FROM product_master WHERE proid = 102926 LIMIT 1"
------------------FileName: Do_shipcost.php - Function Name: getproductprice-----May 18, 2022, 2:17 pm--------------------
"SELECT onlinePrice,discountPrice,proweight FROM `product_master` where proid=102926"
------------------FileName: Libshippingcost.php - Function Name: calculateshippingcost-final_response-----May 18, 2022, 2:17 pm--------------------
{"postState":"7","showexp":0,"totalWeight":0.5,"total_shipping_cost":95}
------------------FileName: Do_shipcost.php - Function Name: getstate-----May 18, 2022, 3:19 pm--------------------
"SELECT state, postcode FROM `customer_shipping_address` where customer_id='287159' order by address_id desc limit 1"
------------------FileName: Do_shipcost.php - Function Name: getzone-----May 18, 2022, 3:19 pm--------------------
"SELECT DISTINCT(zoneId), pincode FROM pincodeMaster WHERE cityCode = (SELECT cityCode FROM cityMaster WHERE stateId = 15 LIMIT 1) LIMIT 1"
------------------FileName: Do_shipcost.php - Function Name: getprodetail-----May 18, 2022, 3:19 pm--------------------
"SELECT promotionId, clearanceId FROM product_master WHERE proid = 134804 LIMIT 1"
------------------FileName: Do_shipcost.php - Function Name: getproductprice-----May 18, 2022, 3:19 pm--------------------
"SELECT onlinePrice,discountPrice,proweight FROM `product_master` where proid=134804"
------------------FileName: Do_shipcost.php - Function Name: getpromotiondtl-----May 18, 2022, 3:19 pm--------------------
"SELECT shippingstatus, startDate, endDate FROM promotionMaster WHERE id = 577 AND endDate >= '2022-05-18' AND startDate <= '2022-05-18' AND status = 1"
------------------FileName: Do_shipcost.php - Function Name: getprodetail-----May 18, 2022, 3:19 pm--------------------
"SELECT promotionId, clearanceId FROM product_master WHERE proid = 132702 LIMIT 1"
------------------FileName: Do_shipcost.php - Function Name: getproductprice-----May 18, 2022, 3:19 pm--------------------
"SELECT onlinePrice,discountPrice,proweight FROM `product_master` where proid=132702"
------------------FileName: Do_shipcost.php - Function Name: getpromotiondtl-----May 18, 2022, 3:19 pm--------------------
"SELECT shippingstatus, startDate, endDate FROM promotionMaster WHERE id = 535 AND endDate >= '2022-05-18' AND startDate <= '2022-05-18' AND status = 1"
------------------FileName: Libshippingcost.php - Function Name: calculateshippingcost-final_response-----May 18, 2022, 3:19 pm--------------------
{"postState":"15","showexp":0,"totalWeight":1,"total_shipping_cost":192}
------------------FileName: Do_shipcost.php - Function Name: getstate-----May 18, 2022, 3:19 pm--------------------
"SELECT state, postcode FROM `customer_shipping_address` where customer_id='287159' order by address_id desc limit 1"
------------------FileName: Do_shipcost.php - Function Name: getzone-----May 18, 2022, 3:19 pm--------------------
"SELECT DISTINCT(zoneId), pincode FROM pincodeMaster WHERE cityCode = (SELECT cityCode FROM cityMaster WHERE stateId = 15 LIMIT 1) LIMIT 1"
------------------FileName: Do_shipcost.php - Function Name: getprodetail-----May 18, 2022, 3:19 pm--------------------
"SELECT promotionId, clearanceId FROM product_master WHERE proid = 134804 LIMIT 1"
------------------FileName: Do_shipcost.php - Function Name: getproductprice-----May 18, 2022, 3:19 pm--------------------
"SELECT onlinePrice,discountPrice,proweight FROM `product_master` where proid=134804"
------------------FileName: Do_shipcost.php - Function Name: getpromotiondtl-----May 18, 2022, 3:19 pm--------------------
"SELECT shippingstatus, startDate, endDate FROM promotionMaster WHERE id = 577 AND endDate >= '2022-05-18' AND startDate <= '2022-05-18' AND status = 1"
------------------FileName: Do_shipcost.php - Function Name: getprodetail-----May 18, 2022, 3:19 pm--------------------
"SELECT promotionId, clearanceId FROM product_master WHERE proid = 132702 LIMIT 1"
------------------FileName: Do_shipcost.php - Function Name: getproductprice-----May 18, 2022, 3:19 pm--------------------
"SELECT onlinePrice,discountPrice,proweight FROM `product_master` where proid=132702"
------------------FileName: Do_shipcost.php - Function Name: getpromotiondtl-----May 18, 2022, 3:19 pm--------------------
"SELECT shippingstatus, startDate, endDate FROM promotionMaster WHERE id = 535 AND endDate >= '2022-05-18' AND startDate <= '2022-05-18' AND status = 1"
------------------FileName: Libshippingcost.php - Function Name: calculateshippingcost-final_response-----May 18, 2022, 3:19 pm--------------------
{"postState":"15","showexp":0,"totalWeight":1,"total_shipping_cost":192}
------------------FileName: Do_shipcost.php - Function Name: getstate-----May 18, 2022, 3:49 pm--------------------
"SELECT state, postcode FROM `customer_shipping_address` where customer_id='287161' order by address_id desc limit 1"
------------------FileName: Do_shipcost.php - Function Name: getzone-----May 18, 2022, 3:49 pm--------------------
"SELECT DISTINCT(zoneId), pincode FROM pincodeMaster WHERE cityCode = (SELECT cityCode FROM cityMaster WHERE stateId = 31 LIMIT 1) LIMIT 1"
------------------FileName: Do_shipcost.php - Function Name: getprodetail-----May 18, 2022, 3:49 pm--------------------
"SELECT promotionId, clearanceId FROM product_master WHERE proid = 148171 LIMIT 1"
------------------FileName: Do_shipcost.php - Function Name: getproductprice-----May 18, 2022, 3:49 pm--------------------
"SELECT onlinePrice,discountPrice,proweight FROM `product_master` where proid=148171"
------------------FileName: Libshippingcost.php - Function Name: calculateshippingcost-final_response-----May 18, 2022, 3:49 pm--------------------
{"postState":"31","showexp":0,"totalWeight":0.5,"total_shipping_cost":95}
------------------FileName: Do_shipcost.php - Function Name: getstate-----May 18, 2022, 3:49 pm--------------------
"SELECT state, postcode FROM `customer_shipping_address` where customer_id='287161' order by address_id desc limit 1"
------------------FileName: Do_shipcost.php - Function Name: getzone-----May 18, 2022, 3:49 pm--------------------
"SELECT DISTINCT(zoneId), pincode FROM pincodeMaster WHERE cityCode = (SELECT cityCode FROM cityMaster WHERE stateId = 31 LIMIT 1) LIMIT 1"
------------------FileName: Do_shipcost.php - Function Name: getprodetail-----May 18, 2022, 3:49 pm--------------------
"SELECT promotionId, clearanceId FROM product_master WHERE proid = 148171 LIMIT 1"
------------------FileName: Do_shipcost.php - Function Name: getproductprice-----May 18, 2022, 3:49 pm--------------------
"SELECT onlinePrice,discountPrice,proweight FROM `product_master` where proid=148171"
------------------FileName: Libshippingcost.php - Function Name: calculateshippingcost-final_response-----May 18, 2022, 3:49 pm--------------------
{"postState":"31","showexp":0,"totalWeight":0.5,"total_shipping_cost":95}
------------------FileName: Do_shipcost.php - Function Name: getstate-----May 18, 2022, 5:21 pm--------------------
"SELECT state, postcode FROM `customer_shipping_address` where customer_id='287163' order by address_id desc limit 1"
------------------FileName: Do_shipcost.php - Function Name: getzone-----May 18, 2022, 5:21 pm--------------------
"SELECT DISTINCT(zoneId), pincode FROM pincodeMaster WHERE cityCode = (SELECT cityCode FROM cityMaster WHERE stateId = 2 LIMIT 1) LIMIT 1"
------------------FileName: Do_shipcost.php - Function Name: getprodetail-----May 18, 2022, 5:21 pm--------------------
"SELECT promotionId, clearanceId FROM product_master WHERE proid = 213283 LIMIT 1"
------------------FileName: Do_shipcost.php - Function Name: getproductprice-----May 18, 2022, 5:21 pm--------------------
"SELECT onlinePrice,discountPrice,proweight FROM `product_master` where proid=213283"
------------------FileName: Do_shipcost.php - Function Name: getpromotiondtl-----May 18, 2022, 5:21 pm--------------------
"SELECT shippingstatus, startDate, endDate FROM promotionMaster WHERE id = 1200 AND endDate >= '2022-05-18' AND startDate <= '2022-05-18' AND status = 1"
------------------FileName: Libshippingcost.php - Function Name: calculateshippingcost-final_response-----May 18, 2022, 5:21 pm--------------------
{"postState":"2","showexp":0,"totalWeight":0.5,"total_shipping_cost":95}
------------------FileName: Do_shipcost.php - Function Name: getstate-----May 18, 2022, 5:21 pm--------------------
"SELECT state, postcode FROM `customer_shipping_address` where customer_id='287163' order by address_id desc limit 1"
------------------FileName: Do_shipcost.php - Function Name: getzone-----May 18, 2022, 5:21 pm--------------------
"SELECT DISTINCT(zoneId), pincode FROM pincodeMaster WHERE cityCode = (SELECT cityCode FROM cityMaster WHERE stateId = 2 LIMIT 1) LIMIT 1"
------------------FileName: Do_shipcost.php - Function Name: getprodetail-----May 18, 2022, 5:21 pm--------------------
"SELECT promotionId, clearanceId FROM product_master WHERE proid = 213283 LIMIT 1"
------------------FileName: Do_shipcost.php - Function Name: getproductprice-----May 18, 2022, 5:21 pm--------------------
"SELECT onlinePrice,discountPrice,proweight FROM `product_master` where proid=213283"
------------------FileName: Do_shipcost.php - Function Name: getpromotiondtl-----May 18, 2022, 5:21 pm--------------------
"SELECT shippingstatus, startDate, endDate FROM promotionMaster WHERE id = 1200 AND endDate >= '2022-05-18' AND startDate <= '2022-05-18' AND status = 1"
------------------FileName: Libshippingcost.php - Function Name: calculateshippingcost-final_response-----May 18, 2022, 5:21 pm--------------------
{"postState":"2","showexp":0,"totalWeight":0.5,"total_shipping_cost":95}
------------------FileName: Do_shipcost.php - Function Name: getstate-----May 18, 2022, 7:05 pm--------------------
"SELECT state, postcode FROM `customer_shipping_address` where customer_id='287165' order by address_id desc limit 1"
------------------FileName: Do_shipcost.php - Function Name: getzone-----May 18, 2022, 7:05 pm--------------------
"SELECT DISTINCT(zoneId), pincode FROM pincodeMaster WHERE cityCode = (SELECT cityCode FROM cityMaster WHERE stateId = 64 LIMIT 1) LIMIT 1"
------------------FileName: Do_shipcost.php - Function Name: getprodetail-----May 18, 2022, 7:05 pm--------------------
"SELECT promotionId, clearanceId FROM product_master WHERE proid = 216922 LIMIT 1"
------------------FileName: Do_shipcost.php - Function Name: getproductprice-----May 18, 2022, 7:05 pm--------------------
"SELECT onlinePrice,discountPrice,proweight FROM `product_master` where proid=216922"
------------------FileName: Libshippingcost.php - Function Name: calculateshippingcost-final_response-----May 18, 2022, 7:05 pm--------------------
{"postState":"64","showexp":1,"total_shipping_cost":0,"totalWeight":18}
------------------FileName: Do_shipcost.php - Function Name: getstate-----May 18, 2022, 7:05 pm--------------------
"SELECT state, postcode FROM `customer_shipping_address` where customer_id='287165' order by address_id desc limit 1"
------------------FileName: Do_shipcost.php - Function Name: getzone-----May 18, 2022, 7:05 pm--------------------
"SELECT DISTINCT(zoneId), pincode FROM pincodeMaster WHERE cityCode = (SELECT cityCode FROM cityMaster WHERE stateId = 64 LIMIT 1) LIMIT 1"
------------------FileName: Do_shipcost.php - Function Name: getprodetail-----May 18, 2022, 7:05 pm--------------------
"SELECT promotionId, clearanceId FROM product_master WHERE proid = 216922 LIMIT 1"
------------------FileName: Do_shipcost.php - Function Name: getproductprice-----May 18, 2022, 7:05 pm--------------------
"SELECT onlinePrice,discountPrice,proweight FROM `product_master` where proid=216922"
------------------FileName: Libshippingcost.php - Function Name: calculateshippingcost-final_response-----May 18, 2022, 7:05 pm--------------------
{"postState":"64","showexp":1,"total_shipping_cost":0,"totalWeight":18}
------------------FileName: Do_shipcost.php - Function Name: getstate-----May 18, 2022, 9:43 pm--------------------
"SELECT state, postcode FROM `customer_shipping_address` where customer_id='287167' order by address_id desc limit 1"
------------------FileName: Do_shipcost.php - Function Name: getzone-----May 18, 2022, 9:43 pm--------------------
"SELECT DISTINCT(zoneId), pincode FROM pincodeMaster WHERE cityCode = (SELECT cityCode FROM cityMaster WHERE stateId = 31 LIMIT 1) LIMIT 1"
------------------FileName: Do_shipcost.php - Function Name: getprodetail-----May 18, 2022, 9:43 pm--------------------
"SELECT promotionId, clearanceId FROM product_master WHERE proid = 148171 LIMIT 1"
------------------FileName: Do_shipcost.php - Function Name: getproductprice-----May 18, 2022, 9:43 pm--------------------
"SELECT onlinePrice,discountPrice,proweight FROM `product_master` where proid=148171"
------------------FileName: Libshippingcost.php - Function Name: calculateshippingcost-final_response-----May 18, 2022, 9:43 pm--------------------
{"postState":"31","showexp":0,"totalWeight":0.5,"total_shipping_cost":95}
------------------FileName: Do_shipcost.php - Function Name: getstate-----May 18, 2022, 9:43 pm--------------------
"SELECT state, postcode FROM `customer_shipping_address` where customer_id='287167' order by address_id desc limit 1"
------------------FileName: Do_shipcost.php - Function Name: getzone-----May 18, 2022, 9:43 pm--------------------
"SELECT DISTINCT(zoneId), pincode FROM pincodeMaster WHERE cityCode = (SELECT cityCode FROM cityMaster WHERE stateId = 31 LIMIT 1) LIMIT 1"
------------------FileName: Do_shipcost.php - Function Name: getprodetail-----May 18, 2022, 9:43 pm--------------------
"SELECT promotionId, clearanceId FROM product_master WHERE proid = 148171 LIMIT 1"
------------------FileName: Do_shipcost.php - Function Name: getproductprice-----May 18, 2022, 9:43 pm--------------------
"SELECT onlinePrice,discountPrice,proweight FROM `product_master` where proid=148171"
------------------FileName: Libshippingcost.php - Function Name: calculateshippingcost-final_response-----May 18, 2022, 9:43 pm--------------------
{"postState":"31","showexp":0,"totalWeight":0.5,"total_shipping_cost":95}
------------------FileName: Do_shipcost.php - Function Name: getstate-----May 18, 2022, 9:44 pm--------------------
"SELECT state, postcode FROM `customer_shipping_address` where customer_id='287167' order by address_id desc limit 1"
------------------FileName: Do_shipcost.php - Function Name: getzone-----May 18, 2022, 9:44 pm--------------------
"SELECT DISTINCT(zoneId), pincode FROM pincodeMaster WHERE cityCode = (SELECT cityCode FROM cityMaster WHERE stateId = 31 LIMIT 1) LIMIT 1"
------------------FileName: Do_shipcost.php - Function Name: getprodetail-----May 18, 2022, 9:44 pm--------------------
"SELECT promotionId, clearanceId FROM product_master WHERE proid = 148171 LIMIT 1"
------------------FileName: Do_shipcost.php - Function Name: getproductprice-----May 18, 2022, 9:44 pm--------------------
"SELECT onlinePrice,discountPrice,proweight FROM `product_master` where proid=148171"
------------------FileName: Libshippingcost.php - Function Name: calculateshippingcost-final_response-----May 18, 2022, 9:44 pm--------------------
{"postState":"31","showexp":0,"totalWeight":0.5,"total_shipping_cost":95}
------------------FileName: Do_shipcost.php - Function Name: getstate-----May 18, 2022, 10:30 pm--------------------
"SELECT state, postcode FROM `customer_shipping_address` where customer_id='287168' order by address_id desc limit 1"
------------------FileName: Do_shipcost.php - Function Name: getzone-----May 18, 2022, 10:30 pm--------------------
"SELECT DISTINCT(zoneId), pincode FROM pincodeMaster WHERE cityCode = (SELECT cityCode FROM cityMaster WHERE stateId = 31 LIMIT 1) LIMIT 1"
------------------FileName: Do_shipcost.php - Function Name: getprodetail-----May 18, 2022, 10:30 pm--------------------
"SELECT promotionId, clearanceId FROM product_master WHERE proid = 148171 LIMIT 1"
------------------FileName: Do_shipcost.php - Function Name: getproductprice-----May 18, 2022, 10:30 pm--------------------
"SELECT onlinePrice,discountPrice,proweight FROM `product_master` where proid=148171"
------------------FileName: Libshippingcost.php - Function Name: calculateshippingcost-final_response-----May 18, 2022, 10:30 pm--------------------
{"postState":"31","showexp":0,"totalWeight":0.5,"total_shipping_cost":95}
------------------FileName: Do_shipcost.php - Function Name: getstate-----May 18, 2022, 10:30 pm--------------------
"SELECT state, postcode FROM `customer_shipping_address` where customer_id='287168' order by address_id desc limit 1"
------------------FileName: Do_shipcost.php - Function Name: getzone-----May 18, 2022, 10:30 pm--------------------
"SELECT DISTINCT(zoneId), pincode FROM pincodeMaster WHERE cityCode = (SELECT cityCode FROM cityMaster WHERE stateId = 31 LIMIT 1) LIMIT 1"
------------------FileName: Do_shipcost.php - Function Name: getprodetail-----May 18, 2022, 10:30 pm--------------------
"SELECT promotionId, clearanceId FROM product_master WHERE proid = 148171 LIMIT 1"
------------------FileName: Do_shipcost.php - Function Name: getproductprice-----May 18, 2022, 10:30 pm--------------------
"SELECT onlinePrice,discountPrice,proweight FROM `product_master` where proid=148171"
------------------FileName: Libshippingcost.php - Function Name: calculateshippingcost-final_response-----May 18, 2022, 10:30 pm--------------------
{"postState":"31","showexp":0,"totalWeight":0.5,"total_shipping_cost":95}
------------------FileName: Do_shipcost.php - Function Name: getstate-----May 18, 2022, 10:30 pm--------------------
"SELECT state, postcode FROM `customer_shipping_address` where customer_id='287168' order by address_id desc limit 1"
------------------FileName: Do_shipcost.php - Function Name: getzone-----May 18, 2022, 10:30 pm--------------------
"SELECT DISTINCT(zoneId), pincode FROM pincodeMaster WHERE cityCode = (SELECT cityCode FROM cityMaster WHERE stateId = 31 LIMIT 1) LIMIT 1"
------------------FileName: Do_shipcost.php - Function Name: getprodetail-----May 18, 2022, 10:30 pm--------------------
"SELECT promotionId, clearanceId FROM product_master WHERE proid = 148171 LIMIT 1"
------------------FileName: Do_shipcost.php - Function Name: getproductprice-----May 18, 2022, 10:30 pm--------------------
"SELECT onlinePrice,discountPrice,proweight FROM `product_master` where proid=148171"
------------------FileName: Libshippingcost.php - Function Name: calculateshippingcost-final_response-----May 18, 2022, 10:30 pm--------------------
{"postState":"31","showexp":0,"totalWeight":0.5,"total_shipping_cost":95}
------------------FileName: Do_shipcost.php - Function Name: getstate-----May 18, 2022, 10:30 pm--------------------
"SELECT state, postcode FROM `customer_shipping_address` where customer_id='287168' order by address_id desc limit 1"
------------------FileName: Do_shipcost.php - Function Name: getzone-----May 18, 2022, 10:30 pm--------------------
"SELECT DISTINCT(zoneId), pincode FROM pincodeMaster WHERE cityCode = (SELECT cityCode FROM cityMaster WHERE stateId = 31 LIMIT 1) LIMIT 1"
------------------FileName: Do_shipcost.php - Function Name: getprodetail-----May 18, 2022, 10:30 pm--------------------
"SELECT promotionId, clearanceId FROM product_master WHERE proid = 148171 LIMIT 1"
------------------FileName: Do_shipcost.php - Function Name: getproductprice-----May 18, 2022, 10:30 pm--------------------
"SELECT onlinePrice,discountPrice,proweight FROM `product_master` where proid=148171"
------------------FileName: Libshippingcost.php - Function Name: calculateshippingcost-final_response-----May 18, 2022, 10:30 pm--------------------
{"postState":"31","showexp":0,"totalWeight":0.5,"total_shipping_cost":95}
------------------FileName: Do_shipcost.php - Function Name: getstate-----May 18, 2022, 10:31 pm--------------------
"SELECT state, postcode FROM `customer_shipping_address` where customer_id='287168' order by address_id desc limit 1"
------------------FileName: Do_shipcost.php - Function Name: getzone-----May 18, 2022, 10:31 pm--------------------
"SELECT DISTINCT(zoneId), pincode FROM pincodeMaster WHERE cityCode = (SELECT cityCode FROM cityMaster WHERE stateId = 31 LIMIT 1) LIMIT 1"
------------------FileName: Do_shipcost.php - Function Name: getprodetail-----May 18, 2022, 10:31 pm--------------------
"SELECT promotionId, clearanceId FROM product_master WHERE proid = 148171 LIMIT 1"
------------------FileName: Do_shipcost.php - Function Name: getproductprice-----May 18, 2022, 10:31 pm--------------------
"SELECT onlinePrice,discountPrice,proweight FROM `product_master` where proid=148171"
------------------FileName: Libshippingcost.php - Function Name: calculateshippingcost-final_response-----May 18, 2022, 10:31 pm--------------------
{"postState":"31","showexp":0,"totalWeight":0.5,"total_shipping_cost":95}
------------------FileName: Do_shipcost.php - Function Name: getstate-----May 18, 2022, 11:40 pm--------------------
"SELECT state, postcode FROM `customer_shipping_address` where customer_id='287169' order by address_id desc limit 1"
------------------FileName: Do_shipcost.php - Function Name: getzone-----May 18, 2022, 11:40 pm--------------------
"SELECT DISTINCT(zoneId), pincode FROM pincodeMaster WHERE cityCode = (SELECT cityCode FROM cityMaster WHERE stateId = 11 LIMIT 1) LIMIT 1"
------------------FileName: Do_shipcost.php - Function Name: getprodetail-----May 18, 2022, 11:40 pm--------------------
"SELECT promotionId, clearanceId FROM product_master WHERE proid = 130759 LIMIT 1"
------------------FileName: Do_shipcost.php - Function Name: getproductprice-----May 18, 2022, 11:40 pm--------------------
"SELECT onlinePrice,discountPrice,proweight FROM `product_master` where proid=130759"
------------------FileName: Libshippingcost.php - Function Name: calculateshippingcost-final_response-----May 18, 2022, 11:40 pm--------------------
{"postState":"11","showexp":0,"totalWeight":0.5,"total_shipping_cost":95}
------------------FileName: Do_shipcost.php - Function Name: getstate-----May 18, 2022, 11:40 pm--------------------
"SELECT state, postcode FROM `customer_shipping_address` where customer_id='287169' order by address_id desc limit 1"
------------------FileName: Do_shipcost.php - Function Name: getzone-----May 18, 2022, 11:40 pm--------------------
"SELECT DISTINCT(zoneId), pincode FROM pincodeMaster WHERE cityCode = (SELECT cityCode FROM cityMaster WHERE stateId = 11 LIMIT 1) LIMIT 1"
------------------FileName: Do_shipcost.php - Function Name: getprodetail-----May 18, 2022, 11:40 pm--------------------
"SELECT promotionId, clearanceId FROM product_master WHERE proid = 130759 LIMIT 1"
------------------FileName: Do_shipcost.php - Function Name: getproductprice-----May 18, 2022, 11:40 pm--------------------
"SELECT onlinePrice,discountPrice,proweight FROM `product_master` where proid=130759"
------------------FileName: Libshippingcost.php - Function Name: calculateshippingcost-final_response-----May 18, 2022, 11:40 pm--------------------
{"postState":"11","showexp":0,"totalWeight":0.5,"total_shipping_cost":95}
------------------FileName: Do_shipcost.php - Function Name: getstate-----May 18, 2022, 11:41 pm--------------------
"SELECT state, postcode FROM `customer_shipping_address` where customer_id='287169' order by address_id desc limit 1"
------------------FileName: Do_shipcost.php - Function Name: getzone-----May 18, 2022, 11:41 pm--------------------
"SELECT DISTINCT(zoneId), pincode FROM pincodeMaster WHERE cityCode = (SELECT cityCode FROM cityMaster WHERE stateId = 11 LIMIT 1) LIMIT 1"
------------------FileName: Do_shipcost.php - Function Name: getprodetail-----May 18, 2022, 11:41 pm--------------------
"SELECT promotionId, clearanceId FROM product_master WHERE proid = 130759 LIMIT 1"
------------------FileName: Do_shipcost.php - Function Name: getproductprice-----May 18, 2022, 11:41 pm--------------------
"SELECT onlinePrice,discountPrice,proweight FROM `product_master` where proid=130759"
------------------FileName: Libshippingcost.php - Function Name: calculateshippingcost-final_response-----May 18, 2022, 11:41 pm--------------------
{"postState":"11","showexp":0,"totalWeight":0.5,"total_shipping_cost":95}
------------------FileName: Do_shipcost.php - Function Name: getstate-----May 18, 2022, 11:42 pm--------------------
"SELECT state, postcode FROM `customer_shipping_address` where customer_id='287169' order by address_id desc limit 1"
------------------FileName: Do_shipcost.php - Function Name: getzone-----May 18, 2022, 11:42 pm--------------------
"SELECT DISTINCT(zoneId), pincode FROM pincodeMaster WHERE cityCode = (SELECT cityCode FROM cityMaster WHERE stateId = 11 LIMIT 1) LIMIT 1"
------------------FileName: Do_shipcost.php - Function Name: getprodetail-----May 18, 2022, 11:42 pm--------------------
"SELECT promotionId, clearanceId FROM product_master WHERE proid = 130759 LIMIT 1"
------------------FileName: Do_shipcost.php - Function Name: getproductprice-----May 18, 2022, 11:42 pm--------------------
"SELECT onlinePrice,discountPrice,proweight FROM `product_master` where proid=130759"
------------------FileName: Libshippingcost.php - Function Name: calculateshippingcost-final_response-----May 18, 2022, 11:42 pm--------------------
{"postState":"11","showexp":0,"totalWeight":0.5,"total_shipping_cost":95}
------------------FileName: Do_shipcost.php - Function Name: getstate-----May 18, 2022, 11:43 pm--------------------
"SELECT state, postcode FROM `customer_shipping_address` where customer_id='287169' order by address_id desc limit 1"
------------------FileName: Do_shipcost.php - Function Name: getzone-----May 18, 2022, 11:43 pm--------------------
"SELECT DISTINCT(zoneId), pincode FROM pincodeMaster WHERE cityCode = (SELECT cityCode FROM cityMaster WHERE stateId = 11 LIMIT 1) LIMIT 1"
------------------FileName: Do_shipcost.php - Function Name: getprodetail-----May 18, 2022, 11:43 pm--------------------
"SELECT promotionId, clearanceId FROM product_master WHERE proid = 130759 LIMIT 1"
------------------FileName: Do_shipcost.php - Function Name: getproductprice-----May 18, 2022, 11:43 pm--------------------
"SELECT onlinePrice,discountPrice,proweight FROM `product_master` where proid=130759"
------------------FileName: Libshippingcost.php - Function Name: calculateshippingcost-final_response-----May 18, 2022, 11:43 pm--------------------
{"postState":"11","showexp":0,"totalWeight":0.5,"total_shipping_cost":95}
------------------FileName: Do_shipcost.php - Function Name: getstate-----May 18, 2022, 11:51 pm--------------------
"SELECT state, postcode FROM `customer_shipping_address` where customer_id='287169' order by address_id desc limit 1"
------------------FileName: Do_shipcost.php - Function Name: getzone-----May 18, 2022, 11:51 pm--------------------
"SELECT DISTINCT(zoneId), pincode FROM pincodeMaster WHERE cityCode = (SELECT cityCode FROM cityMaster WHERE stateId = 11 LIMIT 1) LIMIT 1"
------------------FileName: Do_shipcost.php - Function Name: getprodetail-----May 18, 2022, 11:51 pm--------------------
"SELECT promotionId, clearanceId FROM product_master WHERE proid = 148470 LIMIT 1"
------------------FileName: Do_shipcost.php - Function Name: getproductprice-----May 18, 2022, 11:51 pm--------------------
"SELECT onlinePrice,discountPrice,proweight FROM `product_master` where proid=148470"
------------------FileName: Libshippingcost.php - Function Name: calculateshippingcost-final_response-----May 18, 2022, 11:51 pm--------------------
{"postState":"11","showexp":0,"totalWeight":0.5,"total_shipping_cost":95}
------------------FileName: Do_shipcost.php - Function Name: getstate-----May 18, 2022, 11:51 pm--------------------
"SELECT state, postcode FROM `customer_shipping_address` where customer_id='287169' order by address_id desc limit 1"
------------------FileName: Do_shipcost.php - Function Name: getzone-----May 18, 2022, 11:51 pm--------------------
"SELECT DISTINCT(zoneId), pincode FROM pincodeMaster WHERE cityCode = (SELECT cityCode FROM cityMaster WHERE stateId = 11 LIMIT 1) LIMIT 1"
------------------FileName: Do_shipcost.php - Function Name: getprodetail-----May 18, 2022, 11:51 pm--------------------
"SELECT promotionId, clearanceId FROM product_master WHERE proid = 148470 LIMIT 1"
------------------FileName: Do_shipcost.php - Function Name: getproductprice-----May 18, 2022, 11:51 pm--------------------
"SELECT onlinePrice,discountPrice,proweight FROM `product_master` where proid=148470"
------------------FileName: Libshippingcost.php - Function Name: calculateshippingcost-final_response-----May 18, 2022, 11:51 pm--------------------
{"postState":"11","showexp":0,"totalWeight":0.5,"total_shipping_cost":95}
------------------FileName: Do_shipcost.php - Function Name: getstate-----May 18, 2022, 11:52 pm--------------------
"SELECT state, postcode FROM `customer_shipping_address` where customer_id='287169' order by address_id desc limit 1"
------------------FileName: Do_shipcost.php - Function Name: getzone-----May 18, 2022, 11:52 pm--------------------
"SELECT DISTINCT(zoneId), pincode FROM pincodeMaster WHERE cityCode = (SELECT cityCode FROM cityMaster WHERE stateId = 11 LIMIT 1) LIMIT 1"
------------------FileName: Do_shipcost.php - Function Name: getprodetail-----May 18, 2022, 11:52 pm--------------------
"SELECT promotionId, clearanceId FROM product_master WHERE proid = 148470 LIMIT 1"
------------------FileName: Do_shipcost.php - Function Name: getproductprice-----May 18, 2022, 11:52 pm--------------------
"SELECT onlinePrice,discountPrice,proweight FROM `product_master` where proid=148470"
------------------FileName: Libshippingcost.php - Function Name: calculateshippingcost-final_response-----May 18, 2022, 11:52 pm--------------------
{"postState":"11","showexp":0,"totalWeight":0.5,"total_shipping_cost":95}
------------------FileName: Do_shipcost.php - Function Name: getstate-----May 18, 2022, 11:52 pm--------------------
"SELECT state, postcode FROM `customer_shipping_address` where customer_id='287169' order by address_id desc limit 1"
------------------FileName: Do_shipcost.php - Function Name: getzone-----May 18, 2022, 11:52 pm--------------------
"SELECT DISTINCT(zoneId), pincode FROM pincodeMaster WHERE cityCode = (SELECT cityCode FROM cityMaster WHERE stateId = 11 LIMIT 1) LIMIT 1"
------------------FileName: Do_shipcost.php - Function Name: getprodetail-----May 18, 2022, 11:52 pm--------------------
"SELECT promotionId, clearanceId FROM product_master WHERE proid = 148470 LIMIT 1"
------------------FileName: Do_shipcost.php - Function Name: getproductprice-----May 18, 2022, 11:52 pm--------------------
"SELECT onlinePrice,discountPrice,proweight FROM `product_master` where proid=148470"
------------------FileName: Libshippingcost.php - Function Name: calculateshippingcost-final_response-----May 18, 2022, 11:52 pm--------------------
{"postState":"11","showexp":0,"totalWeight":0.5,"total_shipping_cost":95}
