------------------FileName: Do_shipcost.php - Function Name: getstate-----July 19, 2022, 12:05 am--------------------
"SELECT state, postcode FROM `customer_shipping_address` where customer_id='287793' order by address_id desc limit 1"
------------------FileName: Do_shipcost.php - Function Name: getzone-----July 19, 2022, 12:05 am--------------------
"SELECT DISTINCT(zoneId), pincode FROM pincodeMaster WHERE cityCode = (SELECT cityCode FROM cityMaster WHERE stateId = 9 LIMIT 1) LIMIT 1"
------------------FileName: Do_shipcost.php - Function Name: getprodetail-----July 19, 2022, 12:05 am--------------------
"SELECT promotionId, clearanceId FROM product_master WHERE proid = 211864 LIMIT 1"
------------------FileName: Do_shipcost.php - Function Name: getproductprice-----July 19, 2022, 12:05 am--------------------
"SELECT onlinePrice,discountPrice,proweight FROM `product_master` where proid=211864"
------------------FileName: Do_shipcost.php - Function Name: getpromotiondtl-----July 19, 2022, 12:05 am--------------------
"SELECT shippingstatus, startDate, endDate FROM promotionMaster WHERE id = 1235 AND endDate >= '2022-07-19' AND startDate <= '2022-07-19' AND status = 1"
------------------FileName: Libshippingcost.php - Function Name: calculateshippingcost-final_response-----July 19, 2022, 12:05 am--------------------
{"postState":"9","showexp":0,"totalWeight":1,"total_shipping_cost":95}
------------------FileName: Do_shipcost.php - Function Name: getstate-----July 19, 2022, 12:05 am--------------------
"SELECT state, postcode FROM `customer_shipping_address` where customer_id='287793' order by address_id desc limit 1"
------------------FileName: Do_shipcost.php - Function Name: getzone-----July 19, 2022, 12:05 am--------------------
"SELECT DISTINCT(zoneId), pincode FROM pincodeMaster WHERE cityCode = (SELECT cityCode FROM cityMaster WHERE stateId = 9 LIMIT 1) LIMIT 1"
------------------FileName: Do_shipcost.php - Function Name: getprodetail-----July 19, 2022, 12:05 am--------------------
"SELECT promotionId, clearanceId FROM product_master WHERE proid = 211864 LIMIT 1"
------------------FileName: Do_shipcost.php - Function Name: getproductprice-----July 19, 2022, 12:05 am--------------------
"SELECT onlinePrice,discountPrice,proweight FROM `product_master` where proid=211864"
------------------FileName: Do_shipcost.php - Function Name: getpromotiondtl-----July 19, 2022, 12:05 am--------------------
"SELECT shippingstatus, startDate, endDate FROM promotionMaster WHERE id = 1235 AND endDate >= '2022-07-19' AND startDate <= '2022-07-19' AND status = 1"
------------------FileName: Libshippingcost.php - Function Name: calculateshippingcost-final_response-----July 19, 2022, 12:05 am--------------------
{"postState":"9","showexp":0,"totalWeight":1,"total_shipping_cost":95}
------------------FileName: Do_shipcost.php - Function Name: getstate-----July 19, 2022, 8:13 am--------------------
"SELECT state, postcode FROM `customer_shipping_address` where customer_id='287794' order by address_id desc limit 1"
------------------FileName: Do_shipcost.php - Function Name: getzone-----July 19, 2022, 8:13 am--------------------
"SELECT DISTINCT(zoneId), pincode FROM pincodeMaster WHERE cityCode = (SELECT cityCode FROM cityMaster WHERE stateId = 29 LIMIT 1) LIMIT 1"
------------------FileName: Do_shipcost.php - Function Name: getprodetail-----July 19, 2022, 8:13 am--------------------
"SELECT promotionId, clearanceId FROM product_master WHERE proid = 147223 LIMIT 1"
------------------FileName: Do_shipcost.php - Function Name: getproductprice-----July 19, 2022, 8:13 am--------------------
"SELECT onlinePrice,discountPrice,proweight FROM `product_master` where proid=147223"
------------------FileName: Libshippingcost.php - Function Name: calculateshippingcost-final_response-----July 19, 2022, 8:13 am--------------------
{"postState":"29","showexp":0,"total_shipping_cost":0,"totalWeight":0.3}
------------------FileName: Do_shipcost.php - Function Name: getstate-----July 19, 2022, 8:13 am--------------------
"SELECT state, postcode FROM `customer_shipping_address` where customer_id='287794' order by address_id desc limit 1"
------------------FileName: Do_shipcost.php - Function Name: getzone-----July 19, 2022, 8:13 am--------------------
"SELECT DISTINCT(zoneId), pincode FROM pincodeMaster WHERE cityCode = (SELECT cityCode FROM cityMaster WHERE stateId = 29 LIMIT 1) LIMIT 1"
------------------FileName: Do_shipcost.php - Function Name: getprodetail-----July 19, 2022, 8:13 am--------------------
"SELECT promotionId, clearanceId FROM product_master WHERE proid = 147223 LIMIT 1"
------------------FileName: Do_shipcost.php - Function Name: getproductprice-----July 19, 2022, 8:13 am--------------------
"SELECT onlinePrice,discountPrice,proweight FROM `product_master` where proid=147223"
------------------FileName: Libshippingcost.php - Function Name: calculateshippingcost-final_response-----July 19, 2022, 8:13 am--------------------
{"postState":"29","showexp":0,"total_shipping_cost":0,"totalWeight":0.3}
------------------FileName: Do_shipcost.php - Function Name: getstate-----July 19, 2022, 8:46 am--------------------
"SELECT state, postcode FROM `customer_shipping_address` where customer_id='287795' order by address_id desc limit 1"
------------------FileName: Do_shipcost.php - Function Name: getzone-----July 19, 2022, 8:46 am--------------------
"SELECT DISTINCT(zoneId), pincode FROM pincodeMaster WHERE cityCode = (SELECT cityCode FROM cityMaster WHERE stateId = 9 LIMIT 1) LIMIT 1"
------------------FileName: Do_shipcost.php - Function Name: getprodetail-----July 19, 2022, 8:46 am--------------------
"SELECT promotionId, clearanceId FROM product_master WHERE proid = 216852 LIMIT 1"
------------------FileName: Do_shipcost.php - Function Name: getproductprice-----July 19, 2022, 8:46 am--------------------
"SELECT onlinePrice,discountPrice,proweight FROM `product_master` where proid=216852"
------------------FileName: Libshippingcost.php - Function Name: calculateshippingcost-final_response-----July 19, 2022, 8:46 am--------------------
{"postState":"9","showexp":1,"total_shipping_cost":0,"totalWeight":13}
------------------FileName: Do_shipcost.php - Function Name: getstate-----July 19, 2022, 8:46 am--------------------
"SELECT state, postcode FROM `customer_shipping_address` where customer_id='287795' order by address_id desc limit 1"
------------------FileName: Do_shipcost.php - Function Name: getzone-----July 19, 2022, 8:46 am--------------------
"SELECT DISTINCT(zoneId), pincode FROM pincodeMaster WHERE cityCode = (SELECT cityCode FROM cityMaster WHERE stateId = 9 LIMIT 1) LIMIT 1"
------------------FileName: Do_shipcost.php - Function Name: getprodetail-----July 19, 2022, 8:46 am--------------------
"SELECT promotionId, clearanceId FROM product_master WHERE proid = 216852 LIMIT 1"
------------------FileName: Do_shipcost.php - Function Name: getproductprice-----July 19, 2022, 8:46 am--------------------
"SELECT onlinePrice,discountPrice,proweight FROM `product_master` where proid=216852"
------------------FileName: Libshippingcost.php - Function Name: calculateshippingcost-final_response-----July 19, 2022, 8:46 am--------------------
{"postState":"9","showexp":1,"total_shipping_cost":0,"totalWeight":13}
------------------FileName: Do_shipcost.php - Function Name: getstate-----July 19, 2022, 8:53 am--------------------
"SELECT state, postcode FROM `customer_shipping_address` where customer_id='287795' order by address_id desc limit 1"
------------------FileName: Do_shipcost.php - Function Name: getzone-----July 19, 2022, 8:53 am--------------------
"SELECT DISTINCT(zoneId), pincode FROM pincodeMaster WHERE cityCode = (SELECT cityCode FROM cityMaster WHERE stateId = 9 LIMIT 1) LIMIT 1"
------------------FileName: Do_shipcost.php - Function Name: getprodetail-----July 19, 2022, 8:53 am--------------------
"SELECT promotionId, clearanceId FROM product_master WHERE proid = 216852 LIMIT 1"
------------------FileName: Do_shipcost.php - Function Name: getproductprice-----July 19, 2022, 8:53 am--------------------
"SELECT onlinePrice,discountPrice,proweight FROM `product_master` where proid=216852"
------------------FileName: Libshippingcost.php - Function Name: calculateshippingcost-final_response-----July 19, 2022, 8:53 am--------------------
{"postState":"9","showexp":1,"total_shipping_cost":0,"totalWeight":13}
------------------FileName: Do_shipcost.php - Function Name: getstate-----July 19, 2022, 8:54 am--------------------
"SELECT state, postcode FROM `customer_shipping_address` where customer_id='287795' order by address_id desc limit 1"
------------------FileName: Do_shipcost.php - Function Name: getzone-----July 19, 2022, 8:54 am--------------------
"SELECT DISTINCT(zoneId), pincode FROM pincodeMaster WHERE cityCode = (SELECT cityCode FROM cityMaster WHERE stateId = 9 LIMIT 1) LIMIT 1"
------------------FileName: Do_shipcost.php - Function Name: getprodetail-----July 19, 2022, 8:54 am--------------------
"SELECT promotionId, clearanceId FROM product_master WHERE proid = 216852 LIMIT 1"
------------------FileName: Do_shipcost.php - Function Name: getproductprice-----July 19, 2022, 8:54 am--------------------
"SELECT onlinePrice,discountPrice,proweight FROM `product_master` where proid=216852"
------------------FileName: Libshippingcost.php - Function Name: calculateshippingcost-final_response-----July 19, 2022, 8:54 am--------------------
{"postState":"9","showexp":1,"total_shipping_cost":0,"totalWeight":13}
------------------FileName: Do_shipcost.php - Function Name: getstate-----July 19, 2022, 9:54 am--------------------
"SELECT state, postcode FROM `customer_shipping_address` where customer_id='287796' order by address_id desc limit 1"
------------------FileName: Do_shipcost.php - Function Name: getzone-----July 19, 2022, 9:54 am--------------------
"SELECT DISTINCT(zoneId), pincode FROM pincodeMaster WHERE cityCode = (SELECT cityCode FROM cityMaster WHERE stateId = 15 LIMIT 1) LIMIT 1"
------------------FileName: Do_shipcost.php - Function Name: getprodetail-----July 19, 2022, 9:54 am--------------------
"SELECT promotionId, clearanceId FROM product_master WHERE proid = 138923 LIMIT 1"
------------------FileName: Do_shipcost.php - Function Name: getproductprice-----July 19, 2022, 9:54 am--------------------
"SELECT onlinePrice,discountPrice,proweight FROM `product_master` where proid=138923"
------------------FileName: Libshippingcost.php - Function Name: calculateshippingcost-final_response-----July 19, 2022, 9:54 am--------------------
{"postState":"15","showexp":0,"totalWeight":0.5,"total_shipping_cost":95}
------------------FileName: Do_shipcost.php - Function Name: getstate-----July 19, 2022, 9:54 am--------------------
"SELECT state, postcode FROM `customer_shipping_address` where customer_id='287796' order by address_id desc limit 1"
------------------FileName: Do_shipcost.php - Function Name: getzone-----July 19, 2022, 9:54 am--------------------
"SELECT DISTINCT(zoneId), pincode FROM pincodeMaster WHERE cityCode = (SELECT cityCode FROM cityMaster WHERE stateId = 15 LIMIT 1) LIMIT 1"
------------------FileName: Do_shipcost.php - Function Name: getprodetail-----July 19, 2022, 9:54 am--------------------
"SELECT promotionId, clearanceId FROM product_master WHERE proid = 138923 LIMIT 1"
------------------FileName: Do_shipcost.php - Function Name: getproductprice-----July 19, 2022, 9:54 am--------------------
"SELECT onlinePrice,discountPrice,proweight FROM `product_master` where proid=138923"
------------------FileName: Libshippingcost.php - Function Name: calculateshippingcost-final_response-----July 19, 2022, 9:54 am--------------------
{"postState":"15","showexp":0,"totalWeight":0.5,"total_shipping_cost":95}
------------------FileName: Do_shipcost.php - Function Name: getstate-----July 19, 2022, 9:54 am--------------------
"SELECT state, postcode FROM `customer_shipping_address` where customer_id='287796' order by address_id desc limit 1"
------------------FileName: Do_shipcost.php - Function Name: getzone-----July 19, 2022, 9:54 am--------------------
"SELECT DISTINCT(zoneId), pincode FROM pincodeMaster WHERE cityCode = (SELECT cityCode FROM cityMaster WHERE stateId = 15 LIMIT 1) LIMIT 1"
------------------FileName: Do_shipcost.php - Function Name: getprodetail-----July 19, 2022, 9:54 am--------------------
"SELECT promotionId, clearanceId FROM product_master WHERE proid = 138923 LIMIT 1"
------------------FileName: Do_shipcost.php - Function Name: getproductprice-----July 19, 2022, 9:54 am--------------------
"SELECT onlinePrice,discountPrice,proweight FROM `product_master` where proid=138923"
------------------FileName: Libshippingcost.php - Function Name: calculateshippingcost-final_response-----July 19, 2022, 9:54 am--------------------
{"postState":"15","showexp":0,"totalWeight":0.5,"total_shipping_cost":95}
------------------FileName: Do_shipcost.php - Function Name: getstate-----July 19, 2022, 9:55 am--------------------
"SELECT state, postcode FROM `customer_shipping_address` where customer_id='287796' order by address_id desc limit 1"
------------------FileName: Do_shipcost.php - Function Name: getzone-----July 19, 2022, 9:55 am--------------------
"SELECT DISTINCT(zoneId), pincode FROM pincodeMaster WHERE cityCode = (SELECT cityCode FROM cityMaster WHERE stateId = 15 LIMIT 1) LIMIT 1"
------------------FileName: Do_shipcost.php - Function Name: getprodetail-----July 19, 2022, 9:55 am--------------------
"SELECT promotionId, clearanceId FROM product_master WHERE proid = 138923 LIMIT 1"
------------------FileName: Do_shipcost.php - Function Name: getproductprice-----July 19, 2022, 9:55 am--------------------
"SELECT onlinePrice,discountPrice,proweight FROM `product_master` where proid=138923"
------------------FileName: Libshippingcost.php - Function Name: calculateshippingcost-final_response-----July 19, 2022, 9:55 am--------------------
{"postState":"15","showexp":0,"totalWeight":0.5,"total_shipping_cost":95}
------------------FileName: Do_shipcost.php - Function Name: getstate-----July 19, 2022, 1:03 pm--------------------
"SELECT state, postcode FROM `customer_shipping_address` where customer_id='287797' order by address_id desc limit 1"
------------------FileName: Do_shipcost.php - Function Name: getzone-----July 19, 2022, 1:03 pm--------------------
"SELECT DISTINCT(zoneId), pincode FROM pincodeMaster WHERE cityCode = (SELECT cityCode FROM cityMaster WHERE stateId = 20 LIMIT 1) LIMIT 1"
------------------FileName: Do_shipcost.php - Function Name: getprodetail-----July 19, 2022, 1:03 pm--------------------
"SELECT promotionId, clearanceId FROM product_master WHERE proid = 147511 LIMIT 1"
------------------FileName: Do_shipcost.php - Function Name: getproductprice-----July 19, 2022, 1:03 pm--------------------
"SELECT onlinePrice,discountPrice,proweight FROM `product_master` where proid=147511"
------------------FileName: Do_shipcost.php - Function Name: getpromotiondtl-----July 19, 2022, 1:03 pm--------------------
"SELECT shippingstatus, startDate, endDate FROM promotionMaster WHERE id = 535 AND endDate >= '2022-07-19' AND startDate <= '2022-07-19' AND status = 1"
------------------FileName: Libshippingcost.php - Function Name: calculateshippingcost-final_response-----July 19, 2022, 1:03 pm--------------------
{"postState":"20","showexp":0,"totalWeight":0.5,"total_shipping_cost":95}
------------------FileName: Do_shipcost.php - Function Name: getstate-----July 19, 2022, 1:03 pm--------------------
"SELECT state, postcode FROM `customer_shipping_address` where customer_id='287797' order by address_id desc limit 1"
------------------FileName: Do_shipcost.php - Function Name: getzone-----July 19, 2022, 1:03 pm--------------------
"SELECT DISTINCT(zoneId), pincode FROM pincodeMaster WHERE cityCode = (SELECT cityCode FROM cityMaster WHERE stateId = 20 LIMIT 1) LIMIT 1"
------------------FileName: Do_shipcost.php - Function Name: getprodetail-----July 19, 2022, 1:03 pm--------------------
"SELECT promotionId, clearanceId FROM product_master WHERE proid = 147511 LIMIT 1"
------------------FileName: Do_shipcost.php - Function Name: getproductprice-----July 19, 2022, 1:03 pm--------------------
"SELECT onlinePrice,discountPrice,proweight FROM `product_master` where proid=147511"
------------------FileName: Do_shipcost.php - Function Name: getpromotiondtl-----July 19, 2022, 1:03 pm--------------------
"SELECT shippingstatus, startDate, endDate FROM promotionMaster WHERE id = 535 AND endDate >= '2022-07-19' AND startDate <= '2022-07-19' AND status = 1"
------------------FileName: Libshippingcost.php - Function Name: calculateshippingcost-final_response-----July 19, 2022, 1:03 pm--------------------
{"postState":"20","showexp":0,"totalWeight":0.5,"total_shipping_cost":95}
------------------FileName: Do_shipcost.php - Function Name: getstate-----July 19, 2022, 1:03 pm--------------------
"SELECT state, postcode FROM `customer_shipping_address` where customer_id='287797' order by address_id desc limit 1"
------------------FileName: Do_shipcost.php - Function Name: getzone-----July 19, 2022, 1:03 pm--------------------
"SELECT DISTINCT(zoneId), pincode FROM pincodeMaster WHERE cityCode = (SELECT cityCode FROM cityMaster WHERE stateId = 20 LIMIT 1) LIMIT 1"
------------------FileName: Do_shipcost.php - Function Name: getprodetail-----July 19, 2022, 1:03 pm--------------------
"SELECT promotionId, clearanceId FROM product_master WHERE proid = 147511 LIMIT 1"
------------------FileName: Do_shipcost.php - Function Name: getproductprice-----July 19, 2022, 1:03 pm--------------------
"SELECT onlinePrice,discountPrice,proweight FROM `product_master` where proid=147511"
------------------FileName: Do_shipcost.php - Function Name: getpromotiondtl-----July 19, 2022, 1:03 pm--------------------
"SELECT shippingstatus, startDate, endDate FROM promotionMaster WHERE id = 535 AND endDate >= '2022-07-19' AND startDate <= '2022-07-19' AND status = 1"
------------------FileName: Libshippingcost.php - Function Name: calculateshippingcost-final_response-----July 19, 2022, 1:03 pm--------------------
{"postState":"20","showexp":0,"totalWeight":0.5,"total_shipping_cost":95}
------------------FileName: Do_shipcost.php - Function Name: getstate-----July 19, 2022, 1:03 pm--------------------
"SELECT state, postcode FROM `customer_shipping_address` where customer_id='287797' order by address_id desc limit 1"
------------------FileName: Do_shipcost.php - Function Name: getzone-----July 19, 2022, 1:03 pm--------------------
"SELECT DISTINCT(zoneId), pincode FROM pincodeMaster WHERE cityCode = (SELECT cityCode FROM cityMaster WHERE stateId = 20 LIMIT 1) LIMIT 1"
------------------FileName: Do_shipcost.php - Function Name: getprodetail-----July 19, 2022, 1:03 pm--------------------
"SELECT promotionId, clearanceId FROM product_master WHERE proid = 147511 LIMIT 1"
------------------FileName: Do_shipcost.php - Function Name: getproductprice-----July 19, 2022, 1:03 pm--------------------
"SELECT onlinePrice,discountPrice,proweight FROM `product_master` where proid=147511"
------------------FileName: Do_shipcost.php - Function Name: getpromotiondtl-----July 19, 2022, 1:03 pm--------------------
"SELECT shippingstatus, startDate, endDate FROM promotionMaster WHERE id = 535 AND endDate >= '2022-07-19' AND startDate <= '2022-07-19' AND status = 1"
------------------FileName: Libshippingcost.php - Function Name: calculateshippingcost-final_response-----July 19, 2022, 1:03 pm--------------------
{"postState":"20","showexp":0,"totalWeight":0.5,"total_shipping_cost":95}
------------------FileName: Do_shipcost.php - Function Name: getstate-----July 19, 2022, 1:03 pm--------------------
"SELECT state, postcode FROM `customer_shipping_address` where customer_id='287797' order by address_id desc limit 1"
------------------FileName: Do_shipcost.php - Function Name: getzone-----July 19, 2022, 1:03 pm--------------------
"SELECT DISTINCT(zoneId), pincode FROM pincodeMaster WHERE cityCode = (SELECT cityCode FROM cityMaster WHERE stateId = 20 LIMIT 1) LIMIT 1"
------------------FileName: Do_shipcost.php - Function Name: getprodetail-----July 19, 2022, 1:03 pm--------------------
"SELECT promotionId, clearanceId FROM product_master WHERE proid = 147511 LIMIT 1"
------------------FileName: Do_shipcost.php - Function Name: getproductprice-----July 19, 2022, 1:03 pm--------------------
"SELECT onlinePrice,discountPrice,proweight FROM `product_master` where proid=147511"
------------------FileName: Do_shipcost.php - Function Name: getpromotiondtl-----July 19, 2022, 1:03 pm--------------------
"SELECT shippingstatus, startDate, endDate FROM promotionMaster WHERE id = 535 AND endDate >= '2022-07-19' AND startDate <= '2022-07-19' AND status = 1"
------------------FileName: Libshippingcost.php - Function Name: calculateshippingcost-final_response-----July 19, 2022, 1:03 pm--------------------
{"postState":"20","showexp":0,"totalWeight":0.5,"total_shipping_cost":95}
------------------FileName: Do_shipcost.php - Function Name: getstate-----July 19, 2022, 1:03 pm--------------------
"SELECT state, postcode FROM `customer_shipping_address` where customer_id='287797' order by address_id desc limit 1"
------------------FileName: Do_shipcost.php - Function Name: getzone-----July 19, 2022, 1:03 pm--------------------
"SELECT DISTINCT(zoneId), pincode FROM pincodeMaster WHERE cityCode = (SELECT cityCode FROM cityMaster WHERE stateId = 20 LIMIT 1) LIMIT 1"
------------------FileName: Do_shipcost.php - Function Name: getprodetail-----July 19, 2022, 1:03 pm--------------------
"SELECT promotionId, clearanceId FROM product_master WHERE proid = 147511 LIMIT 1"
------------------FileName: Do_shipcost.php - Function Name: getproductprice-----July 19, 2022, 1:03 pm--------------------
"SELECT onlinePrice,discountPrice,proweight FROM `product_master` where proid=147511"
------------------FileName: Do_shipcost.php - Function Name: getpromotiondtl-----July 19, 2022, 1:03 pm--------------------
"SELECT shippingstatus, startDate, endDate FROM promotionMaster WHERE id = 535 AND endDate >= '2022-07-19' AND startDate <= '2022-07-19' AND status = 1"
------------------FileName: Libshippingcost.php - Function Name: calculateshippingcost-final_response-----July 19, 2022, 1:03 pm--------------------
{"postState":"20","showexp":0,"totalWeight":0.5,"total_shipping_cost":95}
------------------FileName: Do_shipcost.php - Function Name: getstate-----July 19, 2022, 1:04 pm--------------------
"SELECT state, postcode FROM `customer_shipping_address` where customer_id='287797' order by address_id desc limit 1"
------------------FileName: Do_shipcost.php - Function Name: getzone-----July 19, 2022, 1:04 pm--------------------
"SELECT DISTINCT(zoneId), pincode FROM pincodeMaster WHERE cityCode = (SELECT cityCode FROM cityMaster WHERE stateId = 20 LIMIT 1) LIMIT 1"
------------------FileName: Do_shipcost.php - Function Name: getprodetail-----July 19, 2022, 1:04 pm--------------------
"SELECT promotionId, clearanceId FROM product_master WHERE proid = 147511 LIMIT 1"
------------------FileName: Do_shipcost.php - Function Name: getproductprice-----July 19, 2022, 1:04 pm--------------------
"SELECT onlinePrice,discountPrice,proweight FROM `product_master` where proid=147511"
------------------FileName: Do_shipcost.php - Function Name: getpromotiondtl-----July 19, 2022, 1:04 pm--------------------
"SELECT shippingstatus, startDate, endDate FROM promotionMaster WHERE id = 535 AND endDate >= '2022-07-19' AND startDate <= '2022-07-19' AND status = 1"
------------------FileName: Libshippingcost.php - Function Name: calculateshippingcost-final_response-----July 19, 2022, 1:04 pm--------------------
{"postState":"20","showexp":0,"totalWeight":0.5,"total_shipping_cost":95}
------------------FileName: Do_shipcost.php - Function Name: getstate-----July 19, 2022, 1:04 pm--------------------
"SELECT state, postcode FROM `customer_shipping_address` where customer_id='287797' order by address_id desc limit 1"
------------------FileName: Do_shipcost.php - Function Name: getzone-----July 19, 2022, 1:04 pm--------------------
"SELECT DISTINCT(zoneId), pincode FROM pincodeMaster WHERE cityCode = (SELECT cityCode FROM cityMaster WHERE stateId = 20 LIMIT 1) LIMIT 1"
------------------FileName: Do_shipcost.php - Function Name: getprodetail-----July 19, 2022, 1:04 pm--------------------
"SELECT promotionId, clearanceId FROM product_master WHERE proid = 147511 LIMIT 1"
------------------FileName: Do_shipcost.php - Function Name: getproductprice-----July 19, 2022, 1:04 pm--------------------
"SELECT onlinePrice,discountPrice,proweight FROM `product_master` where proid=147511"
------------------FileName: Do_shipcost.php - Function Name: getpromotiondtl-----July 19, 2022, 1:04 pm--------------------
"SELECT shippingstatus, startDate, endDate FROM promotionMaster WHERE id = 535 AND endDate >= '2022-07-19' AND startDate <= '2022-07-19' AND status = 1"
------------------FileName: Libshippingcost.php - Function Name: calculateshippingcost-final_response-----July 19, 2022, 1:04 pm--------------------
{"postState":"20","showexp":0,"totalWeight":0.5,"total_shipping_cost":95}
------------------FileName: Do_shipcost.php - Function Name: getstate-----July 19, 2022, 1:04 pm--------------------
"SELECT state, postcode FROM `customer_shipping_address` where customer_id='287797' order by address_id desc limit 1"
------------------FileName: Do_shipcost.php - Function Name: getzone-----July 19, 2022, 1:04 pm--------------------
"SELECT DISTINCT(zoneId), pincode FROM pincodeMaster WHERE cityCode = (SELECT cityCode FROM cityMaster WHERE stateId = 20 LIMIT 1) LIMIT 1"
------------------FileName: Do_shipcost.php - Function Name: getprodetail-----July 19, 2022, 1:04 pm--------------------
"SELECT promotionId, clearanceId FROM product_master WHERE proid = 147511 LIMIT 1"
------------------FileName: Do_shipcost.php - Function Name: getproductprice-----July 19, 2022, 1:04 pm--------------------
"SELECT onlinePrice,discountPrice,proweight FROM `product_master` where proid=147511"
------------------FileName: Do_shipcost.php - Function Name: getpromotiondtl-----July 19, 2022, 1:04 pm--------------------
"SELECT shippingstatus, startDate, endDate FROM promotionMaster WHERE id = 535 AND endDate >= '2022-07-19' AND startDate <= '2022-07-19' AND status = 1"
------------------FileName: Libshippingcost.php - Function Name: calculateshippingcost-final_response-----July 19, 2022, 1:04 pm--------------------
{"postState":"20","showexp":0,"totalWeight":0.5,"total_shipping_cost":95}
------------------FileName: Do_shipcost.php - Function Name: getstate-----July 19, 2022, 1:04 pm--------------------
"SELECT state, postcode FROM `customer_shipping_address` where customer_id='287797' order by address_id desc limit 1"
------------------FileName: Do_shipcost.php - Function Name: getzone-----July 19, 2022, 1:04 pm--------------------
"SELECT DISTINCT(zoneId), pincode FROM pincodeMaster WHERE cityCode = (SELECT cityCode FROM cityMaster WHERE stateId = 20 LIMIT 1) LIMIT 1"
------------------FileName: Do_shipcost.php - Function Name: getprodetail-----July 19, 2022, 1:04 pm--------------------
"SELECT promotionId, clearanceId FROM product_master WHERE proid = 147511 LIMIT 1"
------------------FileName: Do_shipcost.php - Function Name: getproductprice-----July 19, 2022, 1:04 pm--------------------
"SELECT onlinePrice,discountPrice,proweight FROM `product_master` where proid=147511"
------------------FileName: Do_shipcost.php - Function Name: getpromotiondtl-----July 19, 2022, 1:04 pm--------------------
"SELECT shippingstatus, startDate, endDate FROM promotionMaster WHERE id = 535 AND endDate >= '2022-07-19' AND startDate <= '2022-07-19' AND status = 1"
------------------FileName: Libshippingcost.php - Function Name: calculateshippingcost-final_response-----July 19, 2022, 1:04 pm--------------------
{"postState":"20","showexp":0,"totalWeight":0.5,"total_shipping_cost":95}
------------------FileName: Do_shipcost.php - Function Name: getstate-----July 19, 2022, 1:04 pm--------------------
"SELECT state, postcode FROM `customer_shipping_address` where customer_id='287797' order by address_id desc limit 1"
------------------FileName: Do_shipcost.php - Function Name: getzone-----July 19, 2022, 1:04 pm--------------------
"SELECT DISTINCT(zoneId), pincode FROM pincodeMaster WHERE cityCode = (SELECT cityCode FROM cityMaster WHERE stateId = 20 LIMIT 1) LIMIT 1"
------------------FileName: Do_shipcost.php - Function Name: getprodetail-----July 19, 2022, 1:04 pm--------------------
"SELECT promotionId, clearanceId FROM product_master WHERE proid = 147511 LIMIT 1"
------------------FileName: Do_shipcost.php - Function Name: getproductprice-----July 19, 2022, 1:04 pm--------------------
"SELECT onlinePrice,discountPrice,proweight FROM `product_master` where proid=147511"
------------------FileName: Do_shipcost.php - Function Name: getpromotiondtl-----July 19, 2022, 1:04 pm--------------------
"SELECT shippingstatus, startDate, endDate FROM promotionMaster WHERE id = 535 AND endDate >= '2022-07-19' AND startDate <= '2022-07-19' AND status = 1"
------------------FileName: Libshippingcost.php - Function Name: calculateshippingcost-final_response-----July 19, 2022, 1:04 pm--------------------
{"postState":"20","showexp":0,"totalWeight":0.5,"total_shipping_cost":95}
------------------FileName: Do_shipcost.php - Function Name: getstate-----July 19, 2022, 1:04 pm--------------------
"SELECT state, postcode FROM `customer_shipping_address` where customer_id='287797' order by address_id desc limit 1"
------------------FileName: Do_shipcost.php - Function Name: getzone-----July 19, 2022, 1:04 pm--------------------
"SELECT DISTINCT(zoneId), pincode FROM pincodeMaster WHERE cityCode = (SELECT cityCode FROM cityMaster WHERE stateId = 20 LIMIT 1) LIMIT 1"
------------------FileName: Do_shipcost.php - Function Name: getprodetail-----July 19, 2022, 1:04 pm--------------------
"SELECT promotionId, clearanceId FROM product_master WHERE proid = 147511 LIMIT 1"
------------------FileName: Do_shipcost.php - Function Name: getproductprice-----July 19, 2022, 1:04 pm--------------------
"SELECT onlinePrice,discountPrice,proweight FROM `product_master` where proid=147511"
------------------FileName: Do_shipcost.php - Function Name: getpromotiondtl-----July 19, 2022, 1:04 pm--------------------
"SELECT shippingstatus, startDate, endDate FROM promotionMaster WHERE id = 535 AND endDate >= '2022-07-19' AND startDate <= '2022-07-19' AND status = 1"
------------------FileName: Libshippingcost.php - Function Name: calculateshippingcost-final_response-----July 19, 2022, 1:04 pm--------------------
{"postState":"20","showexp":0,"totalWeight":0.5,"total_shipping_cost":95}
------------------FileName: Do_shipcost.php - Function Name: getstate-----July 19, 2022, 1:04 pm--------------------
"SELECT state, postcode FROM `customer_shipping_address` where customer_id='287797' order by address_id desc limit 1"
------------------FileName: Do_shipcost.php - Function Name: getzone-----July 19, 2022, 1:04 pm--------------------
"SELECT DISTINCT(zoneId), pincode FROM pincodeMaster WHERE cityCode = (SELECT cityCode FROM cityMaster WHERE stateId = 20 LIMIT 1) LIMIT 1"
------------------FileName: Do_shipcost.php - Function Name: getprodetail-----July 19, 2022, 1:04 pm--------------------
"SELECT promotionId, clearanceId FROM product_master WHERE proid = 147511 LIMIT 1"
------------------FileName: Do_shipcost.php - Function Name: getproductprice-----July 19, 2022, 1:04 pm--------------------
"SELECT onlinePrice,discountPrice,proweight FROM `product_master` where proid=147511"
------------------FileName: Do_shipcost.php - Function Name: getpromotiondtl-----July 19, 2022, 1:04 pm--------------------
"SELECT shippingstatus, startDate, endDate FROM promotionMaster WHERE id = 535 AND endDate >= '2022-07-19' AND startDate <= '2022-07-19' AND status = 1"
------------------FileName: Libshippingcost.php - Function Name: calculateshippingcost-final_response-----July 19, 2022, 1:04 pm--------------------
{"postState":"20","showexp":0,"totalWeight":0.5,"total_shipping_cost":95}
------------------FileName: Do_shipcost.php - Function Name: getstate-----July 19, 2022, 1:04 pm--------------------
"SELECT state, postcode FROM `customer_shipping_address` where customer_id='287797' order by address_id desc limit 1"
------------------FileName: Do_shipcost.php - Function Name: getzone-----July 19, 2022, 1:04 pm--------------------
"SELECT DISTINCT(zoneId), pincode FROM pincodeMaster WHERE cityCode = (SELECT cityCode FROM cityMaster WHERE stateId = 20 LIMIT 1) LIMIT 1"
------------------FileName: Do_shipcost.php - Function Name: getprodetail-----July 19, 2022, 1:04 pm--------------------
"SELECT promotionId, clearanceId FROM product_master WHERE proid = 147511 LIMIT 1"
------------------FileName: Do_shipcost.php - Function Name: getproductprice-----July 19, 2022, 1:04 pm--------------------
"SELECT onlinePrice,discountPrice,proweight FROM `product_master` where proid=147511"
------------------FileName: Do_shipcost.php - Function Name: getpromotiondtl-----July 19, 2022, 1:04 pm--------------------
"SELECT shippingstatus, startDate, endDate FROM promotionMaster WHERE id = 535 AND endDate >= '2022-07-19' AND startDate <= '2022-07-19' AND status = 1"
------------------FileName: Libshippingcost.php - Function Name: calculateshippingcost-final_response-----July 19, 2022, 1:04 pm--------------------
{"postState":"20","showexp":0,"totalWeight":0.5,"total_shipping_cost":95}
------------------FileName: Do_shipcost.php - Function Name: getstate-----July 19, 2022, 1:04 pm--------------------
"SELECT state, postcode FROM `customer_shipping_address` where customer_id='287797' order by address_id desc limit 1"
------------------FileName: Do_shipcost.php - Function Name: getzone-----July 19, 2022, 1:04 pm--------------------
"SELECT DISTINCT(zoneId), pincode FROM pincodeMaster WHERE cityCode = (SELECT cityCode FROM cityMaster WHERE stateId = 20 LIMIT 1) LIMIT 1"
------------------FileName: Do_shipcost.php - Function Name: getprodetail-----July 19, 2022, 1:04 pm--------------------
"SELECT promotionId, clearanceId FROM product_master WHERE proid = 147511 LIMIT 1"
------------------FileName: Do_shipcost.php - Function Name: getproductprice-----July 19, 2022, 1:04 pm--------------------
"SELECT onlinePrice,discountPrice,proweight FROM `product_master` where proid=147511"
------------------FileName: Do_shipcost.php - Function Name: getpromotiondtl-----July 19, 2022, 1:04 pm--------------------
"SELECT shippingstatus, startDate, endDate FROM promotionMaster WHERE id = 535 AND endDate >= '2022-07-19' AND startDate <= '2022-07-19' AND status = 1"
------------------FileName: Libshippingcost.php - Function Name: calculateshippingcost-final_response-----July 19, 2022, 1:04 pm--------------------
{"postState":"20","showexp":0,"totalWeight":0.5,"total_shipping_cost":95}
------------------FileName: Do_shipcost.php - Function Name: getstate-----July 19, 2022, 1:04 pm--------------------
"SELECT state, postcode FROM `customer_shipping_address` where customer_id='287797' order by address_id desc limit 1"
------------------FileName: Do_shipcost.php - Function Name: getzone-----July 19, 2022, 1:04 pm--------------------
"SELECT DISTINCT(zoneId), pincode FROM pincodeMaster WHERE cityCode = (SELECT cityCode FROM cityMaster WHERE stateId = 20 LIMIT 1) LIMIT 1"
------------------FileName: Do_shipcost.php - Function Name: getprodetail-----July 19, 2022, 1:04 pm--------------------
"SELECT promotionId, clearanceId FROM product_master WHERE proid = 147511 LIMIT 1"
------------------FileName: Do_shipcost.php - Function Name: getproductprice-----July 19, 2022, 1:04 pm--------------------
"SELECT onlinePrice,discountPrice,proweight FROM `product_master` where proid=147511"
------------------FileName: Do_shipcost.php - Function Name: getpromotiondtl-----July 19, 2022, 1:04 pm--------------------
"SELECT shippingstatus, startDate, endDate FROM promotionMaster WHERE id = 535 AND endDate >= '2022-07-19' AND startDate <= '2022-07-19' AND status = 1"
------------------FileName: Libshippingcost.php - Function Name: calculateshippingcost-final_response-----July 19, 2022, 1:04 pm--------------------
{"postState":"20","showexp":0,"totalWeight":0.5,"total_shipping_cost":95}
------------------FileName: Do_shipcost.php - Function Name: getstate-----July 19, 2022, 5:27 pm--------------------
"SELECT state, postcode FROM `customer_shipping_address` where customer_id='228989' order by address_id desc limit 1"
------------------FileName: Do_shipcost.php - Function Name: getzone-----July 19, 2022, 5:27 pm--------------------
"SELECT DISTINCT(zoneId), pincode FROM pincodeMaster WHERE cityCode = (SELECT cityCode FROM cityMaster WHERE stateId = 29 LIMIT 1) LIMIT 1"
------------------FileName: Do_shipcost.php - Function Name: getprodetail-----July 19, 2022, 5:27 pm--------------------
"SELECT promotionId, clearanceId FROM product_master WHERE proid = 148206 LIMIT 1"
------------------FileName: Do_shipcost.php - Function Name: getproductprice-----July 19, 2022, 5:27 pm--------------------
"SELECT onlinePrice,discountPrice,proweight FROM `product_master` where proid=148206"
------------------FileName: Libshippingcost.php - Function Name: calculateshippingcost-final_response-----July 19, 2022, 5:27 pm--------------------
{"postState":"29","showexp":0,"totalWeight":0.5,"total_shipping_cost":95}
------------------FileName: Do_shipcost.php - Function Name: getstate-----July 19, 2022, 5:27 pm--------------------
"SELECT state, postcode FROM `customer_shipping_address` where customer_id='228989' order by address_id desc limit 1"
------------------FileName: Do_shipcost.php - Function Name: getzone-----July 19, 2022, 5:27 pm--------------------
"SELECT DISTINCT(zoneId), pincode FROM pincodeMaster WHERE cityCode = (SELECT cityCode FROM cityMaster WHERE stateId = 29 LIMIT 1) LIMIT 1"
------------------FileName: Do_shipcost.php - Function Name: getprodetail-----July 19, 2022, 5:27 pm--------------------
"SELECT promotionId, clearanceId FROM product_master WHERE proid = 148206 LIMIT 1"
------------------FileName: Do_shipcost.php - Function Name: getproductprice-----July 19, 2022, 5:27 pm--------------------
"SELECT onlinePrice,discountPrice,proweight FROM `product_master` where proid=148206"
------------------FileName: Libshippingcost.php - Function Name: calculateshippingcost-final_response-----July 19, 2022, 5:27 pm--------------------
{"postState":"29","showexp":0,"totalWeight":0.5,"total_shipping_cost":95}
------------------FileName: Do_shipcost.php - Function Name: getstate-----July 19, 2022, 5:36 pm--------------------
"SELECT state, postcode FROM `customer_shipping_address` where customer_id='228602' order by address_id desc limit 1"
------------------FileName: Do_shipcost.php - Function Name: getzone-----July 19, 2022, 5:36 pm--------------------
"SELECT DISTINCT(zoneId), pincode FROM pincodeMaster WHERE cityCode = (SELECT cityCode FROM cityMaster WHERE stateId = 29 LIMIT 1) LIMIT 1"
------------------FileName: Do_shipcost.php - Function Name: getprodetail-----July 19, 2022, 5:36 pm--------------------
"SELECT promotionId, clearanceId FROM product_master WHERE proid = 216158 LIMIT 1"
------------------FileName: Do_shipcost.php - Function Name: getproductprice-----July 19, 2022, 5:36 pm--------------------
"SELECT onlinePrice,discountPrice,proweight FROM `product_master` where proid=216158"
------------------FileName: Do_shipcost.php - Function Name: getpromotiondtl-----July 19, 2022, 5:36 pm--------------------
"SELECT shippingstatus, startDate, endDate FROM promotionMaster WHERE id = 1102 AND endDate >= '2022-07-19' AND startDate <= '2022-07-19' AND status = 1"
------------------FileName: Libshippingcost.php - Function Name: calculateshippingcost-final_response-----July 19, 2022, 5:36 pm--------------------
{"postState":"29","showexp":0,"totalWeight":0.5,"total_shipping_cost":95}
------------------FileName: Do_shipcost.php - Function Name: getstate-----July 19, 2022, 5:36 pm--------------------
"SELECT state, postcode FROM `customer_shipping_address` where customer_id='228602' order by address_id desc limit 1"
------------------FileName: Do_shipcost.php - Function Name: getzone-----July 19, 2022, 5:36 pm--------------------
"SELECT DISTINCT(zoneId), pincode FROM pincodeMaster WHERE cityCode = (SELECT cityCode FROM cityMaster WHERE stateId = 29 LIMIT 1) LIMIT 1"
------------------FileName: Do_shipcost.php - Function Name: getprodetail-----July 19, 2022, 5:36 pm--------------------
"SELECT promotionId, clearanceId FROM product_master WHERE proid = 216158 LIMIT 1"
------------------FileName: Do_shipcost.php - Function Name: getproductprice-----July 19, 2022, 5:36 pm--------------------
"SELECT onlinePrice,discountPrice,proweight FROM `product_master` where proid=216158"
------------------FileName: Do_shipcost.php - Function Name: getpromotiondtl-----July 19, 2022, 5:36 pm--------------------
"SELECT shippingstatus, startDate, endDate FROM promotionMaster WHERE id = 1102 AND endDate >= '2022-07-19' AND startDate <= '2022-07-19' AND status = 1"
------------------FileName: Libshippingcost.php - Function Name: calculateshippingcost-final_response-----July 19, 2022, 5:36 pm--------------------
{"postState":"29","showexp":0,"totalWeight":0.5,"total_shipping_cost":95}
------------------FileName: Do_shipcost.php - Function Name: getstate-----July 19, 2022, 5:46 pm--------------------
"SELECT state, postcode FROM `customer_shipping_address` where customer_id='228602' order by address_id desc limit 1"
------------------FileName: Do_shipcost.php - Function Name: getzone-----July 19, 2022, 5:46 pm--------------------
"SELECT DISTINCT(zoneId), pincode FROM pincodeMaster WHERE cityCode = (SELECT cityCode FROM cityMaster WHERE stateId = 29 LIMIT 1) LIMIT 1"
------------------FileName: Do_shipcost.php - Function Name: getprodetail-----July 19, 2022, 5:46 pm--------------------
"SELECT promotionId, clearanceId FROM product_master WHERE proid = 216158 LIMIT 1"
------------------FileName: Do_shipcost.php - Function Name: getproductprice-----July 19, 2022, 5:46 pm--------------------
"SELECT onlinePrice,discountPrice,proweight FROM `product_master` where proid=216158"
------------------FileName: Do_shipcost.php - Function Name: getpromotiondtl-----July 19, 2022, 5:46 pm--------------------
"SELECT shippingstatus, startDate, endDate FROM promotionMaster WHERE id = 1102 AND endDate >= '2022-07-19' AND startDate <= '2022-07-19' AND status = 1"
------------------FileName: Do_shipcost.php - Function Name: getprodetail-----July 19, 2022, 5:46 pm--------------------
"SELECT promotionId, clearanceId FROM product_master WHERE proid = 217082 LIMIT 1"
------------------FileName: Do_shipcost.php - Function Name: getproductprice-----July 19, 2022, 5:46 pm--------------------
"SELECT onlinePrice,discountPrice,proweight FROM `product_master` where proid=217082"
------------------FileName: Do_shipcost.php - Function Name: getpromotiondtl-----July 19, 2022, 5:46 pm--------------------
"SELECT shippingstatus, startDate, endDate FROM promotionMaster WHERE id = 1197 AND endDate >= '2022-07-19' AND startDate <= '2022-07-19' AND status = 1"
------------------FileName: Libshippingcost.php - Function Name: calculateshippingcost-final_response-----July 19, 2022, 5:46 pm--------------------
{"postState":"29","showexp":0,"totalWeight":0.5,"total_shipping_cost":95}
------------------FileName: Do_shipcost.php - Function Name: getstate-----July 19, 2022, 5:46 pm--------------------
"SELECT state, postcode FROM `customer_shipping_address` where customer_id='228602' order by address_id desc limit 1"
------------------FileName: Do_shipcost.php - Function Name: getzone-----July 19, 2022, 5:46 pm--------------------
"SELECT DISTINCT(zoneId), pincode FROM pincodeMaster WHERE cityCode = (SELECT cityCode FROM cityMaster WHERE stateId = 29 LIMIT 1) LIMIT 1"
------------------FileName: Do_shipcost.php - Function Name: getprodetail-----July 19, 2022, 5:46 pm--------------------
"SELECT promotionId, clearanceId FROM product_master WHERE proid = 216158 LIMIT 1"
------------------FileName: Do_shipcost.php - Function Name: getproductprice-----July 19, 2022, 5:46 pm--------------------
"SELECT onlinePrice,discountPrice,proweight FROM `product_master` where proid=216158"
------------------FileName: Do_shipcost.php - Function Name: getpromotiondtl-----July 19, 2022, 5:46 pm--------------------
"SELECT shippingstatus, startDate, endDate FROM promotionMaster WHERE id = 1102 AND endDate >= '2022-07-19' AND startDate <= '2022-07-19' AND status = 1"
------------------FileName: Do_shipcost.php - Function Name: getprodetail-----July 19, 2022, 5:46 pm--------------------
"SELECT promotionId, clearanceId FROM product_master WHERE proid = 217082 LIMIT 1"
------------------FileName: Do_shipcost.php - Function Name: getproductprice-----July 19, 2022, 5:46 pm--------------------
"SELECT onlinePrice,discountPrice,proweight FROM `product_master` where proid=217082"
------------------FileName: Do_shipcost.php - Function Name: getpromotiondtl-----July 19, 2022, 5:46 pm--------------------
"SELECT shippingstatus, startDate, endDate FROM promotionMaster WHERE id = 1197 AND endDate >= '2022-07-19' AND startDate <= '2022-07-19' AND status = 1"
------------------FileName: Libshippingcost.php - Function Name: calculateshippingcost-final_response-----July 19, 2022, 5:46 pm--------------------
{"postState":"29","showexp":0,"totalWeight":0.5,"total_shipping_cost":95}
------------------FileName: Do_shipcost.php - Function Name: getstate-----July 19, 2022, 10:03 pm--------------------
"SELECT state, postcode FROM `customer_shipping_address` where customer_id='287800' order by address_id desc limit 1"
------------------FileName: Do_shipcost.php - Function Name: getzone-----July 19, 2022, 10:03 pm--------------------
"SELECT DISTINCT(zoneId), pincode FROM pincodeMaster WHERE cityCode = (SELECT cityCode FROM cityMaster WHERE stateId = 33 LIMIT 1) LIMIT 1"
------------------FileName: Do_shipcost.php - Function Name: getprodetail-----July 19, 2022, 10:03 pm--------------------
"SELECT promotionId, clearanceId FROM product_master WHERE proid = 146798 LIMIT 1"
------------------FileName: Do_shipcost.php - Function Name: getproductprice-----July 19, 2022, 10:03 pm--------------------
"SELECT onlinePrice,discountPrice,proweight FROM `product_master` where proid=146798"
------------------FileName: Libshippingcost.php - Function Name: calculateshippingcost-final_response-----July 19, 2022, 10:03 pm--------------------
{"postState":"33","showexp":0,"totalWeight":0.5,"total_shipping_cost":95}
------------------FileName: Do_shipcost.php - Function Name: getstate-----July 19, 2022, 10:03 pm--------------------
"SELECT state, postcode FROM `customer_shipping_address` where customer_id='287800' order by address_id desc limit 1"
------------------FileName: Do_shipcost.php - Function Name: getzone-----July 19, 2022, 10:03 pm--------------------
"SELECT DISTINCT(zoneId), pincode FROM pincodeMaster WHERE cityCode = (SELECT cityCode FROM cityMaster WHERE stateId = 33 LIMIT 1) LIMIT 1"
------------------FileName: Do_shipcost.php - Function Name: getprodetail-----July 19, 2022, 10:03 pm--------------------
"SELECT promotionId, clearanceId FROM product_master WHERE proid = 146798 LIMIT 1"
------------------FileName: Do_shipcost.php - Function Name: getproductprice-----July 19, 2022, 10:03 pm--------------------
"SELECT onlinePrice,discountPrice,proweight FROM `product_master` where proid=146798"
------------------FileName: Libshippingcost.php - Function Name: calculateshippingcost-final_response-----July 19, 2022, 10:03 pm--------------------
{"postState":"33","showexp":0,"totalWeight":0.5,"total_shipping_cost":95}
------------------FileName: Do_shipcost.php - Function Name: getstate-----July 19, 2022, 10:30 pm--------------------
"SELECT state, postcode FROM `customer_shipping_address` where customer_id='287801' order by address_id desc limit 1"
------------------FileName: Do_shipcost.php - Function Name: getzone-----July 19, 2022, 10:30 pm--------------------
"SELECT DISTINCT(zoneId), pincode FROM pincodeMaster WHERE cityCode = (SELECT cityCode FROM cityMaster WHERE stateId = 11 LIMIT 1) LIMIT 1"
------------------FileName: Do_shipcost.php - Function Name: getprodetail-----July 19, 2022, 10:30 pm--------------------
"SELECT promotionId, clearanceId FROM product_master WHERE proid = 147877 LIMIT 1"
------------------FileName: Do_shipcost.php - Function Name: getproductprice-----July 19, 2022, 10:30 pm--------------------
"SELECT onlinePrice,discountPrice,proweight FROM `product_master` where proid=147877"
------------------FileName: Libshippingcost.php - Function Name: calculateshippingcost-final_response-----July 19, 2022, 10:30 pm--------------------
{"postState":"11","showexp":0,"totalWeight":0.5,"total_shipping_cost":95}
------------------FileName: Do_shipcost.php - Function Name: getstate-----July 19, 2022, 10:30 pm--------------------
"SELECT state, postcode FROM `customer_shipping_address` where customer_id='287801' order by address_id desc limit 1"
------------------FileName: Do_shipcost.php - Function Name: getzone-----July 19, 2022, 10:30 pm--------------------
"SELECT DISTINCT(zoneId), pincode FROM pincodeMaster WHERE cityCode = (SELECT cityCode FROM cityMaster WHERE stateId = 11 LIMIT 1) LIMIT 1"
------------------FileName: Do_shipcost.php - Function Name: getprodetail-----July 19, 2022, 10:30 pm--------------------
"SELECT promotionId, clearanceId FROM product_master WHERE proid = 147877 LIMIT 1"
------------------FileName: Do_shipcost.php - Function Name: getproductprice-----July 19, 2022, 10:30 pm--------------------
"SELECT onlinePrice,discountPrice,proweight FROM `product_master` where proid=147877"
------------------FileName: Libshippingcost.php - Function Name: calculateshippingcost-final_response-----July 19, 2022, 10:30 pm--------------------
{"postState":"11","showexp":0,"totalWeight":0.5,"total_shipping_cost":95}
------------------FileName: Do_shipcost.php - Function Name: getstate-----July 19, 2022, 10:49 pm--------------------
"SELECT state, postcode FROM `customer_shipping_address` where customer_id='287801' order by address_id desc limit 1"
------------------FileName: Do_shipcost.php - Function Name: getzone-----July 19, 2022, 10:49 pm--------------------
"SELECT DISTINCT(zoneId), pincode FROM pincodeMaster WHERE cityCode = (SELECT cityCode FROM cityMaster WHERE stateId = 11 LIMIT 1) LIMIT 1"
------------------FileName: Do_shipcost.php - Function Name: getprodetail-----July 19, 2022, 10:49 pm--------------------
"SELECT promotionId, clearanceId FROM product_master WHERE proid = 147877 LIMIT 1"
------------------FileName: Do_shipcost.php - Function Name: getproductprice-----July 19, 2022, 10:49 pm--------------------
"SELECT onlinePrice,discountPrice,proweight FROM `product_master` where proid=147877"
------------------FileName: Libshippingcost.php - Function Name: calculateshippingcost-final_response-----July 19, 2022, 10:49 pm--------------------
{"postState":"11","showexp":0,"totalWeight":0.5,"total_shipping_cost":95}
------------------FileName: Do_shipcost.php - Function Name: getstate-----July 19, 2022, 10:49 pm--------------------
"SELECT state, postcode FROM `customer_shipping_address` where customer_id='287801' order by address_id desc limit 1"
------------------FileName: Do_shipcost.php - Function Name: getzone-----July 19, 2022, 10:49 pm--------------------
"SELECT DISTINCT(zoneId), pincode FROM pincodeMaster WHERE cityCode = (SELECT cityCode FROM cityMaster WHERE stateId = 11 LIMIT 1) LIMIT 1"
------------------FileName: Do_shipcost.php - Function Name: getprodetail-----July 19, 2022, 10:49 pm--------------------
"SELECT promotionId, clearanceId FROM product_master WHERE proid = 147877 LIMIT 1"
------------------FileName: Do_shipcost.php - Function Name: getproductprice-----July 19, 2022, 10:49 pm--------------------
"SELECT onlinePrice,discountPrice,proweight FROM `product_master` where proid=147877"
------------------FileName: Libshippingcost.php - Function Name: calculateshippingcost-final_response-----July 19, 2022, 10:49 pm--------------------
{"postState":"11","showexp":0,"totalWeight":0.5,"total_shipping_cost":95}
------------------FileName: Do_shipcost.php - Function Name: getstate-----July 19, 2022, 11:08 pm--------------------
"SELECT state, postcode FROM `customer_shipping_address` where customer_id='287802' order by address_id desc limit 1"
------------------FileName: Do_shipcost.php - Function Name: getzone-----July 19, 2022, 11:08 pm--------------------
"SELECT DISTINCT(zoneId), pincode FROM pincodeMaster WHERE cityCode = (SELECT cityCode FROM cityMaster WHERE stateId = 7 LIMIT 1) LIMIT 1"
------------------FileName: Do_shipcost.php - Function Name: getprodetail-----July 19, 2022, 11:08 pm--------------------
"SELECT promotionId, clearanceId FROM product_master WHERE proid = 205347 LIMIT 1"
------------------FileName: Do_shipcost.php - Function Name: getproductprice-----July 19, 2022, 11:08 pm--------------------
"SELECT onlinePrice,discountPrice,proweight FROM `product_master` where proid=205347"
------------------FileName: Do_shipcost.php - Function Name: getpromotiondtl-----July 19, 2022, 11:08 pm--------------------
"SELECT shippingstatus, startDate, endDate FROM promotionMaster WHERE id = 1213 AND endDate >= '2022-07-19' AND startDate <= '2022-07-19' AND status = 1"
------------------FileName: Libshippingcost.php - Function Name: calculateshippingcost-final_response-----July 19, 2022, 11:08 pm--------------------
{"postState":"7","showexp":1,"total_shipping_cost":0,"totalWeight":11.42}
------------------FileName: Do_shipcost.php - Function Name: getstate-----July 19, 2022, 11:08 pm--------------------
"SELECT state, postcode FROM `customer_shipping_address` where customer_id='287802' order by address_id desc limit 1"
------------------FileName: Do_shipcost.php - Function Name: getzone-----July 19, 2022, 11:08 pm--------------------
"SELECT DISTINCT(zoneId), pincode FROM pincodeMaster WHERE cityCode = (SELECT cityCode FROM cityMaster WHERE stateId = 7 LIMIT 1) LIMIT 1"
------------------FileName: Do_shipcost.php - Function Name: getprodetail-----July 19, 2022, 11:08 pm--------------------
"SELECT promotionId, clearanceId FROM product_master WHERE proid = 205347 LIMIT 1"
------------------FileName: Do_shipcost.php - Function Name: getproductprice-----July 19, 2022, 11:08 pm--------------------
"SELECT onlinePrice,discountPrice,proweight FROM `product_master` where proid=205347"
------------------FileName: Do_shipcost.php - Function Name: getpromotiondtl-----July 19, 2022, 11:08 pm--------------------
"SELECT shippingstatus, startDate, endDate FROM promotionMaster WHERE id = 1213 AND endDate >= '2022-07-19' AND startDate <= '2022-07-19' AND status = 1"
------------------FileName: Libshippingcost.php - Function Name: calculateshippingcost-final_response-----July 19, 2022, 11:08 pm--------------------
{"postState":"7","showexp":1,"total_shipping_cost":0,"totalWeight":11.42}
------------------FileName: Do_shipcost.php - Function Name: getstate-----July 19, 2022, 11:09 pm--------------------
"SELECT state, postcode FROM `customer_shipping_address` where customer_id='287802' order by address_id desc limit 1"
------------------FileName: Do_shipcost.php - Function Name: getzone-----July 19, 2022, 11:09 pm--------------------
"SELECT DISTINCT(zoneId), pincode FROM pincodeMaster WHERE cityCode = (SELECT cityCode FROM cityMaster WHERE stateId = 7 LIMIT 1) LIMIT 1"
------------------FileName: Do_shipcost.php - Function Name: getprodetail-----July 19, 2022, 11:09 pm--------------------
"SELECT promotionId, clearanceId FROM product_master WHERE proid = 205347 LIMIT 1"
------------------FileName: Do_shipcost.php - Function Name: getproductprice-----July 19, 2022, 11:09 pm--------------------
"SELECT onlinePrice,discountPrice,proweight FROM `product_master` where proid=205347"
------------------FileName: Do_shipcost.php - Function Name: getpromotiondtl-----July 19, 2022, 11:09 pm--------------------
"SELECT shippingstatus, startDate, endDate FROM promotionMaster WHERE id = 1213 AND endDate >= '2022-07-19' AND startDate <= '2022-07-19' AND status = 1"
------------------FileName: Libshippingcost.php - Function Name: calculateshippingcost-final_response-----July 19, 2022, 11:09 pm--------------------
{"postState":"7","showexp":1,"total_shipping_cost":0,"totalWeight":11.42}
------------------FileName: Do_shipcost.php - Function Name: getstate-----July 19, 2022, 11:09 pm--------------------
"SELECT state, postcode FROM `customer_shipping_address` where customer_id='287802' order by address_id desc limit 1"
------------------FileName: Do_shipcost.php - Function Name: getzone-----July 19, 2022, 11:09 pm--------------------
"SELECT DISTINCT(zoneId), pincode FROM pincodeMaster WHERE cityCode = (SELECT cityCode FROM cityMaster WHERE stateId = 7 LIMIT 1) LIMIT 1"
------------------FileName: Do_shipcost.php - Function Name: getprodetail-----July 19, 2022, 11:09 pm--------------------
"SELECT promotionId, clearanceId FROM product_master WHERE proid = 205347 LIMIT 1"
------------------FileName: Do_shipcost.php - Function Name: getproductprice-----July 19, 2022, 11:09 pm--------------------
"SELECT onlinePrice,discountPrice,proweight FROM `product_master` where proid=205347"
------------------FileName: Do_shipcost.php - Function Name: getpromotiondtl-----July 19, 2022, 11:09 pm--------------------
"SELECT shippingstatus, startDate, endDate FROM promotionMaster WHERE id = 1213 AND endDate >= '2022-07-19' AND startDate <= '2022-07-19' AND status = 1"
------------------FileName: Libshippingcost.php - Function Name: calculateshippingcost-final_response-----July 19, 2022, 11:09 pm--------------------
{"postState":"7","showexp":1,"total_shipping_cost":0,"totalWeight":11.42}
------------------FileName: Do_shipcost.php - Function Name: getstate-----July 19, 2022, 11:09 pm--------------------
"SELECT state, postcode FROM `customer_shipping_address` where customer_id='287802' order by address_id desc limit 1"
------------------FileName: Do_shipcost.php - Function Name: getzone-----July 19, 2022, 11:09 pm--------------------
"SELECT DISTINCT(zoneId), pincode FROM pincodeMaster WHERE cityCode = (SELECT cityCode FROM cityMaster WHERE stateId = 7 LIMIT 1) LIMIT 1"
------------------FileName: Do_shipcost.php - Function Name: getprodetail-----July 19, 2022, 11:09 pm--------------------
"SELECT promotionId, clearanceId FROM product_master WHERE proid = 205347 LIMIT 1"
------------------FileName: Do_shipcost.php - Function Name: getproductprice-----July 19, 2022, 11:09 pm--------------------
"SELECT onlinePrice,discountPrice,proweight FROM `product_master` where proid=205347"
------------------FileName: Do_shipcost.php - Function Name: getpromotiondtl-----July 19, 2022, 11:09 pm--------------------
"SELECT shippingstatus, startDate, endDate FROM promotionMaster WHERE id = 1213 AND endDate >= '2022-07-19' AND startDate <= '2022-07-19' AND status = 1"
------------------FileName: Libshippingcost.php - Function Name: calculateshippingcost-final_response-----July 19, 2022, 11:09 pm--------------------
{"postState":"7","showexp":1,"total_shipping_cost":0,"totalWeight":11.42}
------------------FileName: Do_shipcost.php - Function Name: getstate-----July 19, 2022, 11:12 pm--------------------
"SELECT state, postcode FROM `customer_shipping_address` where customer_id='287803' order by address_id desc limit 1"
------------------FileName: Do_shipcost.php - Function Name: getzone-----July 19, 2022, 11:12 pm--------------------
"SELECT DISTINCT(zoneId), pincode FROM pincodeMaster WHERE cityCode = (SELECT cityCode FROM cityMaster WHERE stateId = 33 LIMIT 1) LIMIT 1"
------------------FileName: Do_shipcost.php - Function Name: getprodetail-----July 19, 2022, 11:12 pm--------------------
"SELECT promotionId, clearanceId FROM product_master WHERE proid = 148220 LIMIT 1"
------------------FileName: Do_shipcost.php - Function Name: getproductprice-----July 19, 2022, 11:12 pm--------------------
"SELECT onlinePrice,discountPrice,proweight FROM `product_master` where proid=148220"
------------------FileName: Do_shipcost.php - Function Name: getprodetail-----July 19, 2022, 11:12 pm--------------------
"SELECT promotionId, clearanceId FROM product_master WHERE proid = 115415 LIMIT 1"
------------------FileName: Do_shipcost.php - Function Name: getproductprice-----July 19, 2022, 11:12 pm--------------------
"SELECT onlinePrice,discountPrice,proweight FROM `product_master` where proid=115415"
------------------FileName: Libshippingcost.php - Function Name: calculateshippingcost-final_response-----July 19, 2022, 11:12 pm--------------------
{"postState":"33","showexp":0,"totalWeight":1,"total_shipping_cost":95}
------------------FileName: Do_shipcost.php - Function Name: getstate-----July 19, 2022, 11:12 pm--------------------
"SELECT state, postcode FROM `customer_shipping_address` where customer_id='287803' order by address_id desc limit 1"
------------------FileName: Do_shipcost.php - Function Name: getzone-----July 19, 2022, 11:12 pm--------------------
"SELECT DISTINCT(zoneId), pincode FROM pincodeMaster WHERE cityCode = (SELECT cityCode FROM cityMaster WHERE stateId = 33 LIMIT 1) LIMIT 1"
------------------FileName: Do_shipcost.php - Function Name: getprodetail-----July 19, 2022, 11:12 pm--------------------
"SELECT promotionId, clearanceId FROM product_master WHERE proid = 148220 LIMIT 1"
------------------FileName: Do_shipcost.php - Function Name: getproductprice-----July 19, 2022, 11:12 pm--------------------
"SELECT onlinePrice,discountPrice,proweight FROM `product_master` where proid=148220"
------------------FileName: Do_shipcost.php - Function Name: getprodetail-----July 19, 2022, 11:12 pm--------------------
"SELECT promotionId, clearanceId FROM product_master WHERE proid = 115415 LIMIT 1"
------------------FileName: Do_shipcost.php - Function Name: getproductprice-----July 19, 2022, 11:12 pm--------------------
"SELECT onlinePrice,discountPrice,proweight FROM `product_master` where proid=115415"
------------------FileName: Libshippingcost.php - Function Name: calculateshippingcost-final_response-----July 19, 2022, 11:12 pm--------------------
{"postState":"33","showexp":0,"totalWeight":1,"total_shipping_cost":95}
------------------FileName: Do_shipcost.php - Function Name: getstate-----July 19, 2022, 11:15 pm--------------------
"SELECT state, postcode FROM `customer_shipping_address` where customer_id='287803' order by address_id desc limit 1"
------------------FileName: Do_shipcost.php - Function Name: getzone-----July 19, 2022, 11:15 pm--------------------
"SELECT DISTINCT(zoneId), pincode FROM pincodeMaster WHERE cityCode = (SELECT cityCode FROM cityMaster WHERE stateId = 33 LIMIT 1) LIMIT 1"
------------------FileName: Do_shipcost.php - Function Name: getprodetail-----July 19, 2022, 11:15 pm--------------------
"SELECT promotionId, clearanceId FROM product_master WHERE proid = 148220 LIMIT 1"
------------------FileName: Do_shipcost.php - Function Name: getproductprice-----July 19, 2022, 11:15 pm--------------------
"SELECT onlinePrice,discountPrice,proweight FROM `product_master` where proid=148220"
------------------FileName: Do_shipcost.php - Function Name: getprodetail-----July 19, 2022, 11:15 pm--------------------
"SELECT promotionId, clearanceId FROM product_master WHERE proid = 115415 LIMIT 1"
------------------FileName: Do_shipcost.php - Function Name: getproductprice-----July 19, 2022, 11:15 pm--------------------
"SELECT onlinePrice,discountPrice,proweight FROM `product_master` where proid=115415"
------------------FileName: Libshippingcost.php - Function Name: calculateshippingcost-final_response-----July 19, 2022, 11:15 pm--------------------
{"postState":"33","showexp":0,"totalWeight":1,"total_shipping_cost":95}
------------------FileName: Do_shipcost.php - Function Name: getstate-----July 19, 2022, 11:15 pm--------------------
"SELECT state, postcode FROM `customer_shipping_address` where customer_id='287803' order by address_id desc limit 1"
------------------FileName: Do_shipcost.php - Function Name: getzone-----July 19, 2022, 11:15 pm--------------------
"SELECT DISTINCT(zoneId), pincode FROM pincodeMaster WHERE cityCode = (SELECT cityCode FROM cityMaster WHERE stateId = 33 LIMIT 1) LIMIT 1"
------------------FileName: Do_shipcost.php - Function Name: getprodetail-----July 19, 2022, 11:15 pm--------------------
"SELECT promotionId, clearanceId FROM product_master WHERE proid = 148220 LIMIT 1"
------------------FileName: Do_shipcost.php - Function Name: getproductprice-----July 19, 2022, 11:15 pm--------------------
"SELECT onlinePrice,discountPrice,proweight FROM `product_master` where proid=148220"
------------------FileName: Do_shipcost.php - Function Name: getprodetail-----July 19, 2022, 11:15 pm--------------------
"SELECT promotionId, clearanceId FROM product_master WHERE proid = 115415 LIMIT 1"
------------------FileName: Do_shipcost.php - Function Name: getproductprice-----July 19, 2022, 11:15 pm--------------------
"SELECT onlinePrice,discountPrice,proweight FROM `product_master` where proid=115415"
------------------FileName: Libshippingcost.php - Function Name: calculateshippingcost-final_response-----July 19, 2022, 11:15 pm--------------------
{"postState":"33","showexp":0,"totalWeight":1,"total_shipping_cost":95}
------------------FileName: Do_shipcost.php - Function Name: getstate-----July 19, 2022, 11:15 pm--------------------
"SELECT state, postcode FROM `customer_shipping_address` where customer_id='287803' order by address_id desc limit 1"
------------------FileName: Do_shipcost.php - Function Name: getzone-----July 19, 2022, 11:15 pm--------------------
"SELECT DISTINCT(zoneId), pincode FROM pincodeMaster WHERE cityCode = (SELECT cityCode FROM cityMaster WHERE stateId = 33 LIMIT 1) LIMIT 1"
------------------FileName: Do_shipcost.php - Function Name: getprodetail-----July 19, 2022, 11:15 pm--------------------
"SELECT promotionId, clearanceId FROM product_master WHERE proid = 148220 LIMIT 1"
------------------FileName: Do_shipcost.php - Function Name: getproductprice-----July 19, 2022, 11:15 pm--------------------
"SELECT onlinePrice,discountPrice,proweight FROM `product_master` where proid=148220"
------------------FileName: Do_shipcost.php - Function Name: getprodetail-----July 19, 2022, 11:15 pm--------------------
"SELECT promotionId, clearanceId FROM product_master WHERE proid = 115415 LIMIT 1"
------------------FileName: Do_shipcost.php - Function Name: getproductprice-----July 19, 2022, 11:15 pm--------------------
"SELECT onlinePrice,discountPrice,proweight FROM `product_master` where proid=115415"
------------------FileName: Libshippingcost.php - Function Name: calculateshippingcost-final_response-----July 19, 2022, 11:15 pm--------------------
{"postState":"33","showexp":0,"totalWeight":1,"total_shipping_cost":95}
------------------FileName: Do_shipcost.php - Function Name: getstate-----July 19, 2022, 11:15 pm--------------------
"SELECT state, postcode FROM `customer_shipping_address` where customer_id='287803' order by address_id desc limit 1"
------------------FileName: Do_shipcost.php - Function Name: getzone-----July 19, 2022, 11:15 pm--------------------
"SELECT DISTINCT(zoneId), pincode FROM pincodeMaster WHERE cityCode = (SELECT cityCode FROM cityMaster WHERE stateId = 33 LIMIT 1) LIMIT 1"
------------------FileName: Do_shipcost.php - Function Name: getprodetail-----July 19, 2022, 11:15 pm--------------------
"SELECT promotionId, clearanceId FROM product_master WHERE proid = 148220 LIMIT 1"
------------------FileName: Do_shipcost.php - Function Name: getproductprice-----July 19, 2022, 11:15 pm--------------------
"SELECT onlinePrice,discountPrice,proweight FROM `product_master` where proid=148220"
------------------FileName: Do_shipcost.php - Function Name: getprodetail-----July 19, 2022, 11:15 pm--------------------
"SELECT promotionId, clearanceId FROM product_master WHERE proid = 115415 LIMIT 1"
------------------FileName: Do_shipcost.php - Function Name: getproductprice-----July 19, 2022, 11:15 pm--------------------
"SELECT onlinePrice,discountPrice,proweight FROM `product_master` where proid=115415"
------------------FileName: Libshippingcost.php - Function Name: calculateshippingcost-final_response-----July 19, 2022, 11:15 pm--------------------
{"postState":"33","showexp":0,"totalWeight":1,"total_shipping_cost":95}
------------------FileName: Do_shipcost.php - Function Name: getstate-----July 19, 2022, 11:15 pm--------------------
"SELECT state, postcode FROM `customer_shipping_address` where customer_id='287803' order by address_id desc limit 1"
------------------FileName: Do_shipcost.php - Function Name: getzone-----July 19, 2022, 11:15 pm--------------------
"SELECT DISTINCT(zoneId), pincode FROM pincodeMaster WHERE cityCode = (SELECT cityCode FROM cityMaster WHERE stateId = 33 LIMIT 1) LIMIT 1"
------------------FileName: Do_shipcost.php - Function Name: getprodetail-----July 19, 2022, 11:15 pm--------------------
"SELECT promotionId, clearanceId FROM product_master WHERE proid = 148220 LIMIT 1"
------------------FileName: Do_shipcost.php - Function Name: getproductprice-----July 19, 2022, 11:15 pm--------------------
"SELECT onlinePrice,discountPrice,proweight FROM `product_master` where proid=148220"
------------------FileName: Do_shipcost.php - Function Name: getprodetail-----July 19, 2022, 11:15 pm--------------------
"SELECT promotionId, clearanceId FROM product_master WHERE proid = 115415 LIMIT 1"
------------------FileName: Do_shipcost.php - Function Name: getproductprice-----July 19, 2022, 11:15 pm--------------------
"SELECT onlinePrice,discountPrice,proweight FROM `product_master` where proid=115415"
------------------FileName: Libshippingcost.php - Function Name: calculateshippingcost-final_response-----July 19, 2022, 11:15 pm--------------------
{"postState":"33","showexp":0,"totalWeight":1,"total_shipping_cost":95}
------------------FileName: Do_shipcost.php - Function Name: getstate-----July 19, 2022, 11:15 pm--------------------
"SELECT state, postcode FROM `customer_shipping_address` where customer_id='287803' order by address_id desc limit 1"
------------------FileName: Do_shipcost.php - Function Name: getzone-----July 19, 2022, 11:15 pm--------------------
"SELECT DISTINCT(zoneId), pincode FROM pincodeMaster WHERE cityCode = (SELECT cityCode FROM cityMaster WHERE stateId = 33 LIMIT 1) LIMIT 1"
------------------FileName: Do_shipcost.php - Function Name: getprodetail-----July 19, 2022, 11:15 pm--------------------
"SELECT promotionId, clearanceId FROM product_master WHERE proid = 148220 LIMIT 1"
------------------FileName: Do_shipcost.php - Function Name: getproductprice-----July 19, 2022, 11:15 pm--------------------
"SELECT onlinePrice,discountPrice,proweight FROM `product_master` where proid=148220"
------------------FileName: Do_shipcost.php - Function Name: getprodetail-----July 19, 2022, 11:15 pm--------------------
"SELECT promotionId, clearanceId FROM product_master WHERE proid = 115415 LIMIT 1"
------------------FileName: Do_shipcost.php - Function Name: getproductprice-----July 19, 2022, 11:15 pm--------------------
"SELECT onlinePrice,discountPrice,proweight FROM `product_master` where proid=115415"
------------------FileName: Libshippingcost.php - Function Name: calculateshippingcost-final_response-----July 19, 2022, 11:15 pm--------------------
{"postState":"33","showexp":0,"totalWeight":1,"total_shipping_cost":95}
------------------FileName: Do_shipcost.php - Function Name: getstate-----July 19, 2022, 11:25 pm--------------------
"SELECT state, postcode FROM `customer_shipping_address` where customer_id='285931' order by address_id desc limit 1"
------------------FileName: Do_shipcost.php - Function Name: getzone-----July 19, 2022, 11:25 pm--------------------
"SELECT DISTINCT(zoneId), pincode FROM pincodeMaster WHERE cityCode = (SELECT cityCode FROM cityMaster WHERE stateId = 16 LIMIT 1) LIMIT 1"
------------------FileName: Do_shipcost.php - Function Name: getprodetail-----July 19, 2022, 11:25 pm--------------------
"SELECT promotionId, clearanceId FROM product_master WHERE proid = 200411 LIMIT 1"
------------------FileName: Do_shipcost.php - Function Name: getproductprice-----July 19, 2022, 11:25 pm--------------------
"SELECT onlinePrice,discountPrice,proweight FROM `product_master` where proid=200411"
------------------FileName: Do_shipcost.php - Function Name: getpromotiondtl-----July 19, 2022, 11:25 pm--------------------
"SELECT shippingstatus, startDate, endDate FROM promotionMaster WHERE id = 1197 AND endDate >= '2022-07-19' AND startDate <= '2022-07-19' AND status = 1"
------------------FileName: Libshippingcost.php - Function Name: calculateshippingcost-final_response-----July 19, 2022, 11:25 pm--------------------
{"postState":"16","showexp":0,"totalWeight":0.5,"total_shipping_cost":95}
------------------FileName: Do_shipcost.php - Function Name: getstate-----July 19, 2022, 11:25 pm--------------------
"SELECT state, postcode FROM `customer_shipping_address` where customer_id='285931' order by address_id desc limit 1"
------------------FileName: Do_shipcost.php - Function Name: getzone-----July 19, 2022, 11:25 pm--------------------
"SELECT DISTINCT(zoneId), pincode FROM pincodeMaster WHERE cityCode = (SELECT cityCode FROM cityMaster WHERE stateId = 16 LIMIT 1) LIMIT 1"
------------------FileName: Do_shipcost.php - Function Name: getprodetail-----July 19, 2022, 11:25 pm--------------------
"SELECT promotionId, clearanceId FROM product_master WHERE proid = 200411 LIMIT 1"
------------------FileName: Do_shipcost.php - Function Name: getproductprice-----July 19, 2022, 11:25 pm--------------------
"SELECT onlinePrice,discountPrice,proweight FROM `product_master` where proid=200411"
------------------FileName: Do_shipcost.php - Function Name: getpromotiondtl-----July 19, 2022, 11:25 pm--------------------
"SELECT shippingstatus, startDate, endDate FROM promotionMaster WHERE id = 1197 AND endDate >= '2022-07-19' AND startDate <= '2022-07-19' AND status = 1"
------------------FileName: Libshippingcost.php - Function Name: calculateshippingcost-final_response-----July 19, 2022, 11:25 pm--------------------
{"postState":"16","showexp":0,"totalWeight":0.5,"total_shipping_cost":95}
