------------------FileName: Do_shipcost.php - Function Name: getstate-----April 18, 2022, 5:20 am--------------------
"SELECT state, postcode FROM `customer_shipping_address` where customer_id='218739' order by address_id desc limit 1"
------------------FileName: Do_shipcost.php - Function Name: getzone-----April 18, 2022, 5:20 am--------------------
"SELECT DISTINCT(zoneId), pincode FROM pincodeMaster WHERE cityCode = (SELECT cityCode FROM cityMaster WHERE stateId = 31 LIMIT 1) LIMIT 1"
------------------FileName: Do_shipcost.php - Function Name: getprodetail-----April 18, 2022, 5:20 am--------------------
"SELECT promotionId, clearanceId FROM product_master WHERE proid = 216367 LIMIT 1"
------------------FileName: Do_shipcost.php - Function Name: getproductprice-----April 18, 2022, 5:20 am--------------------
"SELECT onlinePrice,discountPrice,proweight FROM `product_master` where proid=216367"
------------------FileName: Do_shipcost.php - Function Name: getpromotiondtl-----April 18, 2022, 5:20 am--------------------
"SELECT shippingstatus, startDate, endDate FROM promotionMaster WHERE id = 1224 AND endDate >= '2022-04-18' AND startDate <= '2022-04-18' AND status = 1"
------------------FileName: Libshippingcost.php - Function Name: calculateshippingcost-final_response-----April 18, 2022, 5:20 am--------------------
{"postState":"31","showexp":0,"total_shipping_cost":0,"totalWeight":1}
------------------FileName: Do_shipcost.php - Function Name: getstate-----April 18, 2022, 5:20 am--------------------
"SELECT state, postcode FROM `customer_shipping_address` where customer_id='218739' order by address_id desc limit 1"
------------------FileName: Do_shipcost.php - Function Name: getzone-----April 18, 2022, 5:20 am--------------------
"SELECT DISTINCT(zoneId), pincode FROM pincodeMaster WHERE cityCode = (SELECT cityCode FROM cityMaster WHERE stateId = 31 LIMIT 1) LIMIT 1"
------------------FileName: Do_shipcost.php - Function Name: getprodetail-----April 18, 2022, 5:20 am--------------------
"SELECT promotionId, clearanceId FROM product_master WHERE proid = 216367 LIMIT 1"
------------------FileName: Do_shipcost.php - Function Name: getproductprice-----April 18, 2022, 5:20 am--------------------
"SELECT onlinePrice,discountPrice,proweight FROM `product_master` where proid=216367"
------------------FileName: Do_shipcost.php - Function Name: getpromotiondtl-----April 18, 2022, 5:20 am--------------------
"SELECT shippingstatus, startDate, endDate FROM promotionMaster WHERE id = 1224 AND endDate >= '2022-04-18' AND startDate <= '2022-04-18' AND status = 1"
------------------FileName: Libshippingcost.php - Function Name: calculateshippingcost-final_response-----April 18, 2022, 5:20 am--------------------
{"postState":"31","showexp":0,"total_shipping_cost":0,"totalWeight":1}
------------------FileName: Do_shipcost.php - Function Name: getstate-----April 18, 2022, 9:07 am--------------------
"SELECT state, postcode FROM `customer_shipping_address` where customer_id='286825' order by address_id desc limit 1"
------------------FileName: Do_shipcost.php - Function Name: getzone-----April 18, 2022, 9:07 am--------------------
"SELECT DISTINCT(zoneId), pincode FROM pincodeMaster WHERE cityCode = (SELECT cityCode FROM cityMaster WHERE stateId = 11 LIMIT 1) LIMIT 1"
------------------FileName: Do_shipcost.php - Function Name: getprodetail-----April 18, 2022, 9:07 am--------------------
"SELECT promotionId, clearanceId FROM product_master WHERE proid = 140796 LIMIT 1"
------------------FileName: Do_shipcost.php - Function Name: getproductprice-----April 18, 2022, 9:07 am--------------------
"SELECT onlinePrice,discountPrice,proweight FROM `product_master` where proid=140796"
------------------FileName: Do_shipcost.php - Function Name: getpromotiondtl-----April 18, 2022, 9:07 am--------------------
"SELECT shippingstatus, startDate, endDate FROM promotionMaster WHERE id = 577 AND endDate >= '2022-04-18' AND startDate <= '2022-04-18' AND status = 1"
------------------FileName: Libshippingcost.php - Function Name: calculateshippingcost-final_response-----April 18, 2022, 9:07 am--------------------
{"postState":"11","showexp":0,"totalWeight":0.5,"total_shipping_cost":95}
------------------FileName: Do_shipcost.php - Function Name: getstate-----April 18, 2022, 9:07 am--------------------
"SELECT state, postcode FROM `customer_shipping_address` where customer_id='286825' order by address_id desc limit 1"
------------------FileName: Do_shipcost.php - Function Name: getzone-----April 18, 2022, 9:07 am--------------------
"SELECT DISTINCT(zoneId), pincode FROM pincodeMaster WHERE cityCode = (SELECT cityCode FROM cityMaster WHERE stateId = 11 LIMIT 1) LIMIT 1"
------------------FileName: Do_shipcost.php - Function Name: getprodetail-----April 18, 2022, 9:07 am--------------------
"SELECT promotionId, clearanceId FROM product_master WHERE proid = 140796 LIMIT 1"
------------------FileName: Do_shipcost.php - Function Name: getproductprice-----April 18, 2022, 9:07 am--------------------
"SELECT onlinePrice,discountPrice,proweight FROM `product_master` where proid=140796"
------------------FileName: Do_shipcost.php - Function Name: getpromotiondtl-----April 18, 2022, 9:07 am--------------------
"SELECT shippingstatus, startDate, endDate FROM promotionMaster WHERE id = 577 AND endDate >= '2022-04-18' AND startDate <= '2022-04-18' AND status = 1"
------------------FileName: Libshippingcost.php - Function Name: calculateshippingcost-final_response-----April 18, 2022, 9:07 am--------------------
{"postState":"11","showexp":0,"totalWeight":0.5,"total_shipping_cost":95}
------------------FileName: Do_shipcost.php - Function Name: getstate-----April 18, 2022, 9:55 am--------------------
"SELECT state, postcode FROM `customer_shipping_address` where customer_id='268400' order by address_id desc limit 1"
------------------FileName: Do_shipcost.php - Function Name: getzone-----April 18, 2022, 9:55 am--------------------
"SELECT DISTINCT(zoneId), pincode FROM pincodeMaster WHERE cityCode = (SELECT cityCode FROM cityMaster WHERE stateId = 20 LIMIT 1) LIMIT 1"
------------------FileName: Do_shipcost.php - Function Name: getprodetail-----April 18, 2022, 9:55 am--------------------
"SELECT promotionId, clearanceId FROM product_master WHERE proid = 134964 LIMIT 1"
------------------FileName: Do_shipcost.php - Function Name: getproductprice-----April 18, 2022, 9:55 am--------------------
"SELECT onlinePrice,discountPrice,proweight FROM `product_master` where proid=134964"
------------------FileName: Do_shipcost.php - Function Name: getpromotiondtl-----April 18, 2022, 9:55 am--------------------
"SELECT shippingstatus, startDate, endDate FROM promotionMaster WHERE id = 1217 AND endDate >= '2022-04-18' AND startDate <= '2022-04-18' AND status = 1"
------------------FileName: Libshippingcost.php - Function Name: calculateshippingcost-final_response-----April 18, 2022, 9:55 am--------------------
{"postState":"20","showexp":0,"total_shipping_cost":0,"totalWeight":0.96}
------------------FileName: Do_shipcost.php - Function Name: getstate-----April 18, 2022, 9:55 am--------------------
"SELECT state, postcode FROM `customer_shipping_address` where customer_id='268400' order by address_id desc limit 1"
------------------FileName: Do_shipcost.php - Function Name: getzone-----April 18, 2022, 9:55 am--------------------
"SELECT DISTINCT(zoneId), pincode FROM pincodeMaster WHERE cityCode = (SELECT cityCode FROM cityMaster WHERE stateId = 20 LIMIT 1) LIMIT 1"
------------------FileName: Do_shipcost.php - Function Name: getprodetail-----April 18, 2022, 9:55 am--------------------
"SELECT promotionId, clearanceId FROM product_master WHERE proid = 134964 LIMIT 1"
------------------FileName: Do_shipcost.php - Function Name: getproductprice-----April 18, 2022, 9:55 am--------------------
"SELECT onlinePrice,discountPrice,proweight FROM `product_master` where proid=134964"
------------------FileName: Do_shipcost.php - Function Name: getpromotiondtl-----April 18, 2022, 9:55 am--------------------
"SELECT shippingstatus, startDate, endDate FROM promotionMaster WHERE id = 1217 AND endDate >= '2022-04-18' AND startDate <= '2022-04-18' AND status = 1"
------------------FileName: Libshippingcost.php - Function Name: calculateshippingcost-final_response-----April 18, 2022, 9:55 am--------------------
{"postState":"20","showexp":0,"total_shipping_cost":0,"totalWeight":0.96}
------------------FileName: Do_shipcost.php - Function Name: getstate-----April 18, 2022, 11:39 am--------------------
"SELECT state, postcode FROM `customer_shipping_address` where customer_id='286827' order by address_id desc limit 1"
------------------FileName: Do_shipcost.php - Function Name: getzone-----April 18, 2022, 11:39 am--------------------
"SELECT DISTINCT(zoneId), pincode FROM pincodeMaster WHERE cityCode = (SELECT cityCode FROM cityMaster WHERE stateId = 15 LIMIT 1) LIMIT 1"
------------------FileName: Do_shipcost.php - Function Name: getprodetail-----April 18, 2022, 11:39 am--------------------
"SELECT promotionId, clearanceId FROM product_master WHERE proid = 148172 LIMIT 1"
------------------FileName: Do_shipcost.php - Function Name: getproductprice-----April 18, 2022, 11:39 am--------------------
"SELECT onlinePrice,discountPrice,proweight FROM `product_master` where proid=148172"
------------------FileName: Libshippingcost.php - Function Name: calculateshippingcost-final_response-----April 18, 2022, 11:39 am--------------------
{"postState":"15","showexp":0,"totalWeight":0.5,"total_shipping_cost":95}
------------------FileName: Do_shipcost.php - Function Name: getstate-----April 18, 2022, 11:39 am--------------------
"SELECT state, postcode FROM `customer_shipping_address` where customer_id='286827' order by address_id desc limit 1"
------------------FileName: Do_shipcost.php - Function Name: getzone-----April 18, 2022, 11:39 am--------------------
"SELECT DISTINCT(zoneId), pincode FROM pincodeMaster WHERE cityCode = (SELECT cityCode FROM cityMaster WHERE stateId = 15 LIMIT 1) LIMIT 1"
------------------FileName: Do_shipcost.php - Function Name: getprodetail-----April 18, 2022, 11:39 am--------------------
"SELECT promotionId, clearanceId FROM product_master WHERE proid = 148172 LIMIT 1"
------------------FileName: Do_shipcost.php - Function Name: getproductprice-----April 18, 2022, 11:39 am--------------------
"SELECT onlinePrice,discountPrice,proweight FROM `product_master` where proid=148172"
------------------FileName: Libshippingcost.php - Function Name: calculateshippingcost-final_response-----April 18, 2022, 11:39 am--------------------
{"postState":"15","showexp":0,"totalWeight":0.5,"total_shipping_cost":95}
------------------FileName: Do_shipcost.php - Function Name: getstate-----April 18, 2022, 12:26 pm--------------------
"SELECT state, postcode FROM `customer_shipping_address` where customer_id='286830' order by address_id desc limit 1"
------------------FileName: Do_shipcost.php - Function Name: getzone-----April 18, 2022, 12:26 pm--------------------
"SELECT DISTINCT(zoneId), pincode FROM pincodeMaster WHERE cityCode = (SELECT cityCode FROM cityMaster WHERE stateId = 20 LIMIT 1) LIMIT 1"
------------------FileName: Do_shipcost.php - Function Name: getprodetail-----April 18, 2022, 12:26 pm--------------------
"SELECT promotionId, clearanceId FROM product_master WHERE proid = 215830 LIMIT 1"
------------------FileName: Do_shipcost.php - Function Name: getproductprice-----April 18, 2022, 12:26 pm--------------------
"SELECT onlinePrice,discountPrice,proweight FROM `product_master` where proid=215830"
------------------FileName: Do_shipcost.php - Function Name: getpromotiondtl-----April 18, 2022, 12:26 pm--------------------
"SELECT shippingstatus, startDate, endDate FROM promotionMaster WHERE id = 1208 AND endDate >= '2022-04-18' AND startDate <= '2022-04-18' AND status = 1"
------------------FileName: Do_shipcost.php - Function Name: getprodetail-----April 18, 2022, 12:26 pm--------------------
"SELECT promotionId, clearanceId FROM product_master WHERE proid = 217237 LIMIT 1"
------------------FileName: Do_shipcost.php - Function Name: getproductprice-----April 18, 2022, 12:26 pm--------------------
"SELECT onlinePrice,discountPrice,proweight FROM `product_master` where proid=217237"
------------------FileName: Do_shipcost.php - Function Name: getpromotiondtl-----April 18, 2022, 12:26 pm--------------------
"SELECT shippingstatus, startDate, endDate FROM promotionMaster WHERE id = 1208 AND endDate >= '2022-04-18' AND startDate <= '2022-04-18' AND status = 1"
------------------FileName: Libshippingcost.php - Function Name: calculateshippingcost-final_response-----April 18, 2022, 12:26 pm--------------------
{"postState":"20","showexp":0,"total_shipping_cost":0,"totalWeight":1.4600000000000002}
------------------FileName: Do_shipcost.php - Function Name: getstate-----April 18, 2022, 12:26 pm--------------------
"SELECT state, postcode FROM `customer_shipping_address` where customer_id='286830' order by address_id desc limit 1"
------------------FileName: Do_shipcost.php - Function Name: getzone-----April 18, 2022, 12:26 pm--------------------
"SELECT DISTINCT(zoneId), pincode FROM pincodeMaster WHERE cityCode = (SELECT cityCode FROM cityMaster WHERE stateId = 20 LIMIT 1) LIMIT 1"
------------------FileName: Do_shipcost.php - Function Name: getprodetail-----April 18, 2022, 12:26 pm--------------------
"SELECT promotionId, clearanceId FROM product_master WHERE proid = 215830 LIMIT 1"
------------------FileName: Do_shipcost.php - Function Name: getproductprice-----April 18, 2022, 12:26 pm--------------------
"SELECT onlinePrice,discountPrice,proweight FROM `product_master` where proid=215830"
------------------FileName: Do_shipcost.php - Function Name: getpromotiondtl-----April 18, 2022, 12:26 pm--------------------
"SELECT shippingstatus, startDate, endDate FROM promotionMaster WHERE id = 1208 AND endDate >= '2022-04-18' AND startDate <= '2022-04-18' AND status = 1"
------------------FileName: Do_shipcost.php - Function Name: getprodetail-----April 18, 2022, 12:26 pm--------------------
"SELECT promotionId, clearanceId FROM product_master WHERE proid = 217237 LIMIT 1"
------------------FileName: Do_shipcost.php - Function Name: getproductprice-----April 18, 2022, 12:26 pm--------------------
"SELECT onlinePrice,discountPrice,proweight FROM `product_master` where proid=217237"
------------------FileName: Do_shipcost.php - Function Name: getpromotiondtl-----April 18, 2022, 12:26 pm--------------------
"SELECT shippingstatus, startDate, endDate FROM promotionMaster WHERE id = 1208 AND endDate >= '2022-04-18' AND startDate <= '2022-04-18' AND status = 1"
------------------FileName: Libshippingcost.php - Function Name: calculateshippingcost-final_response-----April 18, 2022, 12:26 pm--------------------
{"postState":"20","showexp":0,"total_shipping_cost":0,"totalWeight":1.4600000000000002}
------------------FileName: Do_shipcost.php - Function Name: getstate-----April 18, 2022, 12:30 pm--------------------
"SELECT state, postcode FROM `customer_shipping_address` where customer_id='286830' order by address_id desc limit 1"
------------------FileName: Do_shipcost.php - Function Name: getzone-----April 18, 2022, 12:30 pm--------------------
"SELECT DISTINCT(zoneId), pincode FROM pincodeMaster WHERE cityCode = (SELECT cityCode FROM cityMaster WHERE stateId = 20 LIMIT 1) LIMIT 1"
------------------FileName: Do_shipcost.php - Function Name: getprodetail-----April 18, 2022, 12:30 pm--------------------
"SELECT promotionId, clearanceId FROM product_master WHERE proid = 215830 LIMIT 1"
------------------FileName: Do_shipcost.php - Function Name: getproductprice-----April 18, 2022, 12:30 pm--------------------
"SELECT onlinePrice,discountPrice,proweight FROM `product_master` where proid=215830"
------------------FileName: Do_shipcost.php - Function Name: getpromotiondtl-----April 18, 2022, 12:30 pm--------------------
"SELECT shippingstatus, startDate, endDate FROM promotionMaster WHERE id = 1208 AND endDate >= '2022-04-18' AND startDate <= '2022-04-18' AND status = 1"
------------------FileName: Do_shipcost.php - Function Name: getprodetail-----April 18, 2022, 12:30 pm--------------------
"SELECT promotionId, clearanceId FROM product_master WHERE proid = 217237 LIMIT 1"
------------------FileName: Do_shipcost.php - Function Name: getproductprice-----April 18, 2022, 12:30 pm--------------------
"SELECT onlinePrice,discountPrice,proweight FROM `product_master` where proid=217237"
------------------FileName: Do_shipcost.php - Function Name: getpromotiondtl-----April 18, 2022, 12:30 pm--------------------
"SELECT shippingstatus, startDate, endDate FROM promotionMaster WHERE id = 1208 AND endDate >= '2022-04-18' AND startDate <= '2022-04-18' AND status = 1"
------------------FileName: Libshippingcost.php - Function Name: calculateshippingcost-final_response-----April 18, 2022, 12:30 pm--------------------
{"postState":"20","showexp":0,"total_shipping_cost":0,"totalWeight":1.4600000000000002}
------------------FileName: Do_shipcost.php - Function Name: getstate-----April 18, 2022, 12:30 pm--------------------
"SELECT state, postcode FROM `customer_shipping_address` where customer_id='286830' order by address_id desc limit 1"
------------------FileName: Do_shipcost.php - Function Name: getzone-----April 18, 2022, 12:30 pm--------------------
"SELECT DISTINCT(zoneId), pincode FROM pincodeMaster WHERE cityCode = (SELECT cityCode FROM cityMaster WHERE stateId = 20 LIMIT 1) LIMIT 1"
------------------FileName: Do_shipcost.php - Function Name: getprodetail-----April 18, 2022, 12:30 pm--------------------
"SELECT promotionId, clearanceId FROM product_master WHERE proid = 215830 LIMIT 1"
------------------FileName: Do_shipcost.php - Function Name: getproductprice-----April 18, 2022, 12:30 pm--------------------
"SELECT onlinePrice,discountPrice,proweight FROM `product_master` where proid=215830"
------------------FileName: Do_shipcost.php - Function Name: getpromotiondtl-----April 18, 2022, 12:30 pm--------------------
"SELECT shippingstatus, startDate, endDate FROM promotionMaster WHERE id = 1208 AND endDate >= '2022-04-18' AND startDate <= '2022-04-18' AND status = 1"
------------------FileName: Do_shipcost.php - Function Name: getprodetail-----April 18, 2022, 12:30 pm--------------------
"SELECT promotionId, clearanceId FROM product_master WHERE proid = 217237 LIMIT 1"
------------------FileName: Do_shipcost.php - Function Name: getproductprice-----April 18, 2022, 12:30 pm--------------------
"SELECT onlinePrice,discountPrice,proweight FROM `product_master` where proid=217237"
------------------FileName: Do_shipcost.php - Function Name: getpromotiondtl-----April 18, 2022, 12:30 pm--------------------
"SELECT shippingstatus, startDate, endDate FROM promotionMaster WHERE id = 1208 AND endDate >= '2022-04-18' AND startDate <= '2022-04-18' AND status = 1"
------------------FileName: Libshippingcost.php - Function Name: calculateshippingcost-final_response-----April 18, 2022, 12:30 pm--------------------
{"postState":"20","showexp":0,"total_shipping_cost":0,"totalWeight":1.4600000000000002}
------------------FileName: Do_shipcost.php - Function Name: getstate-----April 18, 2022, 2:47 pm--------------------
"SELECT state, postcode FROM `customer_shipping_address` where customer_id='285505' order by address_id desc limit 1"
------------------FileName: Do_shipcost.php - Function Name: getzone-----April 18, 2022, 2:47 pm--------------------
"SELECT DISTINCT(zoneId), pincode FROM pincodeMaster WHERE cityCode = (SELECT cityCode FROM cityMaster WHERE stateId = 16 LIMIT 1) LIMIT 1"
------------------FileName: Do_shipcost.php - Function Name: getprodetail-----April 18, 2022, 2:47 pm--------------------
"SELECT promotionId, clearanceId FROM product_master WHERE proid = 133517 LIMIT 1"
------------------FileName: Do_shipcost.php - Function Name: getproductprice-----April 18, 2022, 2:47 pm--------------------
"SELECT onlinePrice,discountPrice,proweight FROM `product_master` where proid=133517"
------------------FileName: Do_shipcost.php - Function Name: getpromotiondtl-----April 18, 2022, 2:47 pm--------------------
"SELECT shippingstatus, startDate, endDate FROM promotionMaster WHERE id = 1212 AND endDate >= '2022-04-18' AND startDate <= '2022-04-18' AND status = 1"
------------------FileName: Libshippingcost.php - Function Name: calculateshippingcost-final_response-----April 18, 2022, 2:47 pm--------------------
{"postState":"16","showexp":0,"total_shipping_cost":0,"totalWeight":3}
------------------FileName: Do_shipcost.php - Function Name: getstate-----April 18, 2022, 2:47 pm--------------------
"SELECT state, postcode FROM `customer_shipping_address` where customer_id='285505' order by address_id desc limit 1"
------------------FileName: Do_shipcost.php - Function Name: getzone-----April 18, 2022, 2:47 pm--------------------
"SELECT DISTINCT(zoneId), pincode FROM pincodeMaster WHERE cityCode = (SELECT cityCode FROM cityMaster WHERE stateId = 16 LIMIT 1) LIMIT 1"
------------------FileName: Do_shipcost.php - Function Name: getprodetail-----April 18, 2022, 2:47 pm--------------------
"SELECT promotionId, clearanceId FROM product_master WHERE proid = 133517 LIMIT 1"
------------------FileName: Do_shipcost.php - Function Name: getproductprice-----April 18, 2022, 2:47 pm--------------------
"SELECT onlinePrice,discountPrice,proweight FROM `product_master` where proid=133517"
------------------FileName: Do_shipcost.php - Function Name: getpromotiondtl-----April 18, 2022, 2:47 pm--------------------
"SELECT shippingstatus, startDate, endDate FROM promotionMaster WHERE id = 1212 AND endDate >= '2022-04-18' AND startDate <= '2022-04-18' AND status = 1"
------------------FileName: Libshippingcost.php - Function Name: calculateshippingcost-final_response-----April 18, 2022, 2:47 pm--------------------
{"postState":"16","showexp":0,"total_shipping_cost":0,"totalWeight":3}
------------------FileName: Do_shipcost.php - Function Name: getstate-----April 18, 2022, 2:50 pm--------------------
"SELECT state, postcode FROM `customer_shipping_address` where customer_id='285505' order by address_id desc limit 1"
------------------FileName: Do_shipcost.php - Function Name: getzone-----April 18, 2022, 2:50 pm--------------------
"SELECT DISTINCT(zoneId), pincode FROM pincodeMaster WHERE cityCode = (SELECT cityCode FROM cityMaster WHERE stateId = 16 LIMIT 1) LIMIT 1"
------------------FileName: Do_shipcost.php - Function Name: getprodetail-----April 18, 2022, 2:50 pm--------------------
"SELECT promotionId, clearanceId FROM product_master WHERE proid = 133517 LIMIT 1"
------------------FileName: Do_shipcost.php - Function Name: getproductprice-----April 18, 2022, 2:50 pm--------------------
"SELECT onlinePrice,discountPrice,proweight FROM `product_master` where proid=133517"
------------------FileName: Do_shipcost.php - Function Name: getpromotiondtl-----April 18, 2022, 2:50 pm--------------------
"SELECT shippingstatus, startDate, endDate FROM promotionMaster WHERE id = 1212 AND endDate >= '2022-04-18' AND startDate <= '2022-04-18' AND status = 1"
------------------FileName: Libshippingcost.php - Function Name: calculateshippingcost-final_response-----April 18, 2022, 2:50 pm--------------------
{"postState":"16","showexp":0,"total_shipping_cost":0,"totalWeight":3}
------------------FileName: Do_shipcost.php - Function Name: getstate-----April 18, 2022, 2:50 pm--------------------
"SELECT state, postcode FROM `customer_shipping_address` where customer_id='285505' order by address_id desc limit 1"
------------------FileName: Do_shipcost.php - Function Name: getzone-----April 18, 2022, 2:50 pm--------------------
"SELECT DISTINCT(zoneId), pincode FROM pincodeMaster WHERE cityCode = (SELECT cityCode FROM cityMaster WHERE stateId = 16 LIMIT 1) LIMIT 1"
------------------FileName: Do_shipcost.php - Function Name: getprodetail-----April 18, 2022, 2:50 pm--------------------
"SELECT promotionId, clearanceId FROM product_master WHERE proid = 133517 LIMIT 1"
------------------FileName: Do_shipcost.php - Function Name: getproductprice-----April 18, 2022, 2:50 pm--------------------
"SELECT onlinePrice,discountPrice,proweight FROM `product_master` where proid=133517"
------------------FileName: Do_shipcost.php - Function Name: getpromotiondtl-----April 18, 2022, 2:50 pm--------------------
"SELECT shippingstatus, startDate, endDate FROM promotionMaster WHERE id = 1212 AND endDate >= '2022-04-18' AND startDate <= '2022-04-18' AND status = 1"
------------------FileName: Libshippingcost.php - Function Name: calculateshippingcost-final_response-----April 18, 2022, 2:50 pm--------------------
{"postState":"16","showexp":0,"total_shipping_cost":0,"totalWeight":3}
------------------FileName: Do_shipcost.php - Function Name: getstate-----April 18, 2022, 4:34 pm--------------------
"SELECT state, postcode FROM `customer_shipping_address` where customer_id='204410' order by address_id desc limit 1"
------------------FileName: Do_shipcost.php - Function Name: getzone-----April 18, 2022, 4:34 pm--------------------
"SELECT DISTINCT(zoneId), pincode FROM pincodeMaster WHERE cityCode = (SELECT cityCode FROM cityMaster WHERE stateId = 20 LIMIT 1) LIMIT 1"
------------------FileName: Do_shipcost.php - Function Name: getprodetail-----April 18, 2022, 4:34 pm--------------------
"SELECT promotionId, clearanceId FROM product_master WHERE proid = 212270 LIMIT 1"
------------------FileName: Do_shipcost.php - Function Name: getproductprice-----April 18, 2022, 4:34 pm--------------------
"SELECT onlinePrice,discountPrice,proweight FROM `product_master` where proid=212270"
------------------FileName: Libshippingcost.php - Function Name: calculateshippingcost-final_response-----April 18, 2022, 4:34 pm--------------------
{"postState":"20","showexp":0,"total_shipping_cost":0,"totalWeight":0.5}
------------------FileName: Do_shipcost.php - Function Name: getstate-----April 18, 2022, 4:34 pm--------------------
"SELECT state, postcode FROM `customer_shipping_address` where customer_id='204410' order by address_id desc limit 1"
------------------FileName: Do_shipcost.php - Function Name: getzone-----April 18, 2022, 4:34 pm--------------------
"SELECT DISTINCT(zoneId), pincode FROM pincodeMaster WHERE cityCode = (SELECT cityCode FROM cityMaster WHERE stateId = 20 LIMIT 1) LIMIT 1"
------------------FileName: Do_shipcost.php - Function Name: getprodetail-----April 18, 2022, 4:34 pm--------------------
"SELECT promotionId, clearanceId FROM product_master WHERE proid = 212270 LIMIT 1"
------------------FileName: Do_shipcost.php - Function Name: getproductprice-----April 18, 2022, 4:34 pm--------------------
"SELECT onlinePrice,discountPrice,proweight FROM `product_master` where proid=212270"
------------------FileName: Libshippingcost.php - Function Name: calculateshippingcost-final_response-----April 18, 2022, 4:34 pm--------------------
{"postState":"20","showexp":0,"total_shipping_cost":0,"totalWeight":0.5}
------------------FileName: Do_shipcost.php - Function Name: getstate-----April 18, 2022, 4:35 pm--------------------
"SELECT state, postcode FROM `customer_shipping_address` where customer_id='286833' order by address_id desc limit 1"
------------------FileName: Do_shipcost.php - Function Name: getzone-----April 18, 2022, 4:35 pm--------------------
"SELECT DISTINCT(zoneId), pincode FROM pincodeMaster WHERE cityCode = (SELECT cityCode FROM cityMaster WHERE stateId = 20 LIMIT 1) LIMIT 1"
------------------FileName: Do_shipcost.php - Function Name: getprodetail-----April 18, 2022, 4:35 pm--------------------
"SELECT promotionId, clearanceId FROM product_master WHERE proid = 201633 LIMIT 1"
------------------FileName: Do_shipcost.php - Function Name: getproductprice-----April 18, 2022, 4:35 pm--------------------
"SELECT onlinePrice,discountPrice,proweight FROM `product_master` where proid=201633"
------------------FileName: Do_shipcost.php - Function Name: getpromotiondtl-----April 18, 2022, 4:35 pm--------------------
"SELECT shippingstatus, startDate, endDate FROM promotionMaster WHERE id = 1211 AND endDate >= '2022-04-18' AND startDate <= '2022-04-18' AND status = 1"
------------------FileName: Libshippingcost.php - Function Name: calculateshippingcost-final_response-----April 18, 2022, 4:35 pm--------------------
{"postState":"20","showexp":1,"total_shipping_cost":0,"totalWeight":18.6}
------------------FileName: Do_shipcost.php - Function Name: getstate-----April 18, 2022, 4:35 pm--------------------
"SELECT state, postcode FROM `customer_shipping_address` where customer_id='286833' order by address_id desc limit 1"
------------------FileName: Do_shipcost.php - Function Name: getzone-----April 18, 2022, 4:35 pm--------------------
"SELECT DISTINCT(zoneId), pincode FROM pincodeMaster WHERE cityCode = (SELECT cityCode FROM cityMaster WHERE stateId = 20 LIMIT 1) LIMIT 1"
------------------FileName: Do_shipcost.php - Function Name: getprodetail-----April 18, 2022, 4:35 pm--------------------
"SELECT promotionId, clearanceId FROM product_master WHERE proid = 201633 LIMIT 1"
------------------FileName: Do_shipcost.php - Function Name: getproductprice-----April 18, 2022, 4:35 pm--------------------
"SELECT onlinePrice,discountPrice,proweight FROM `product_master` where proid=201633"
------------------FileName: Do_shipcost.php - Function Name: getpromotiondtl-----April 18, 2022, 4:35 pm--------------------
"SELECT shippingstatus, startDate, endDate FROM promotionMaster WHERE id = 1211 AND endDate >= '2022-04-18' AND startDate <= '2022-04-18' AND status = 1"
------------------FileName: Libshippingcost.php - Function Name: calculateshippingcost-final_response-----April 18, 2022, 4:35 pm--------------------
{"postState":"20","showexp":1,"total_shipping_cost":0,"totalWeight":18.6}
------------------FileName: Do_shipcost.php - Function Name: getstate-----April 18, 2022, 4:36 pm--------------------
"SELECT state, postcode FROM `customer_shipping_address` where customer_id='286833' order by address_id desc limit 1"
------------------FileName: Do_shipcost.php - Function Name: getzone-----April 18, 2022, 4:36 pm--------------------
"SELECT DISTINCT(zoneId), pincode FROM pincodeMaster WHERE cityCode = (SELECT cityCode FROM cityMaster WHERE stateId = 20 LIMIT 1) LIMIT 1"
------------------FileName: Do_shipcost.php - Function Name: getprodetail-----April 18, 2022, 4:36 pm--------------------
"SELECT promotionId, clearanceId FROM product_master WHERE proid = 201633 LIMIT 1"
------------------FileName: Do_shipcost.php - Function Name: getproductprice-----April 18, 2022, 4:36 pm--------------------
"SELECT onlinePrice,discountPrice,proweight FROM `product_master` where proid=201633"
------------------FileName: Do_shipcost.php - Function Name: getpromotiondtl-----April 18, 2022, 4:36 pm--------------------
"SELECT shippingstatus, startDate, endDate FROM promotionMaster WHERE id = 1211 AND endDate >= '2022-04-18' AND startDate <= '2022-04-18' AND status = 1"
------------------FileName: Libshippingcost.php - Function Name: calculateshippingcost-final_response-----April 18, 2022, 4:36 pm--------------------
{"postState":"20","showexp":1,"total_shipping_cost":0,"totalWeight":18.6}
------------------FileName: Do_shipcost.php - Function Name: getstate-----April 18, 2022, 4:37 pm--------------------
"SELECT state, postcode FROM `customer_shipping_address` where customer_id='286833' order by address_id desc limit 1"
------------------FileName: Do_shipcost.php - Function Name: getzone-----April 18, 2022, 4:37 pm--------------------
"SELECT DISTINCT(zoneId), pincode FROM pincodeMaster WHERE cityCode = (SELECT cityCode FROM cityMaster WHERE stateId = 20 LIMIT 1) LIMIT 1"
------------------FileName: Do_shipcost.php - Function Name: getprodetail-----April 18, 2022, 4:37 pm--------------------
"SELECT promotionId, clearanceId FROM product_master WHERE proid = 201633 LIMIT 1"
------------------FileName: Do_shipcost.php - Function Name: getproductprice-----April 18, 2022, 4:37 pm--------------------
"SELECT onlinePrice,discountPrice,proweight FROM `product_master` where proid=201633"
------------------FileName: Do_shipcost.php - Function Name: getpromotiondtl-----April 18, 2022, 4:37 pm--------------------
"SELECT shippingstatus, startDate, endDate FROM promotionMaster WHERE id = 1211 AND endDate >= '2022-04-18' AND startDate <= '2022-04-18' AND status = 1"
------------------FileName: Libshippingcost.php - Function Name: calculateshippingcost-final_response-----April 18, 2022, 4:37 pm--------------------
{"postState":"20","showexp":1,"total_shipping_cost":0,"totalWeight":18.6}
------------------FileName: Do_shipcost.php - Function Name: getstate-----April 18, 2022, 4:38 pm--------------------
"SELECT state, postcode FROM `customer_shipping_address` where customer_id='204410' order by address_id desc limit 1"
------------------FileName: Do_shipcost.php - Function Name: getzone-----April 18, 2022, 4:38 pm--------------------
"SELECT DISTINCT(zoneId), pincode FROM pincodeMaster WHERE cityCode = (SELECT cityCode FROM cityMaster WHERE stateId = 20 LIMIT 1) LIMIT 1"
------------------FileName: Do_shipcost.php - Function Name: getprodetail-----April 18, 2022, 4:38 pm--------------------
"SELECT promotionId, clearanceId FROM product_master WHERE proid = 212270 LIMIT 1"
------------------FileName: Do_shipcost.php - Function Name: getproductprice-----April 18, 2022, 4:38 pm--------------------
"SELECT onlinePrice,discountPrice,proweight FROM `product_master` where proid=212270"
------------------FileName: Libshippingcost.php - Function Name: calculateshippingcost-final_response-----April 18, 2022, 4:38 pm--------------------
{"postState":"20","showexp":0,"total_shipping_cost":0,"totalWeight":0.5}
------------------FileName: Do_shipcost.php - Function Name: getstate-----April 18, 2022, 4:38 pm--------------------
"SELECT state, postcode FROM `customer_shipping_address` where customer_id='204410' order by address_id desc limit 1"
------------------FileName: Do_shipcost.php - Function Name: getzone-----April 18, 2022, 4:38 pm--------------------
"SELECT DISTINCT(zoneId), pincode FROM pincodeMaster WHERE cityCode = (SELECT cityCode FROM cityMaster WHERE stateId = 20 LIMIT 1) LIMIT 1"
------------------FileName: Do_shipcost.php - Function Name: getprodetail-----April 18, 2022, 4:38 pm--------------------
"SELECT promotionId, clearanceId FROM product_master WHERE proid = 212270 LIMIT 1"
------------------FileName: Do_shipcost.php - Function Name: getproductprice-----April 18, 2022, 4:38 pm--------------------
"SELECT onlinePrice,discountPrice,proweight FROM `product_master` where proid=212270"
------------------FileName: Libshippingcost.php - Function Name: calculateshippingcost-final_response-----April 18, 2022, 4:38 pm--------------------
{"postState":"20","showexp":0,"total_shipping_cost":0,"totalWeight":0.5}
------------------FileName: Do_shipcost.php - Function Name: getstate-----April 18, 2022, 5:30 pm--------------------
"SELECT state, postcode FROM `customer_shipping_address` where customer_id='286834' order by address_id desc limit 1"
------------------FileName: Do_shipcost.php - Function Name: getzone-----April 18, 2022, 5:30 pm--------------------
"SELECT DISTINCT(zoneId), pincode FROM pincodeMaster WHERE cityCode = (SELECT cityCode FROM cityMaster WHERE stateId = 9 LIMIT 1) LIMIT 1"
------------------FileName: Do_shipcost.php - Function Name: getprodetail-----April 18, 2022, 5:30 pm--------------------
"SELECT promotionId, clearanceId FROM product_master WHERE proid = 128317 LIMIT 1"
------------------FileName: Do_shipcost.php - Function Name: getproductprice-----April 18, 2022, 5:30 pm--------------------
"SELECT onlinePrice,discountPrice,proweight FROM `product_master` where proid=128317"
------------------FileName: Do_shipcost.php - Function Name: getpromotiondtl-----April 18, 2022, 5:30 pm--------------------
"SELECT shippingstatus, startDate, endDate FROM promotionMaster WHERE id = 418 AND endDate >= '2022-04-18' AND startDate <= '2022-04-18' AND status = 1"
------------------FileName: Libshippingcost.php - Function Name: calculateshippingcost-final_response-----April 18, 2022, 5:30 pm--------------------
{"postState":"9","showexp":0,"totalWeight":0.5,"total_shipping_cost":95}
------------------FileName: Do_shipcost.php - Function Name: getstate-----April 18, 2022, 5:30 pm--------------------
"SELECT state, postcode FROM `customer_shipping_address` where customer_id='286834' order by address_id desc limit 1"
------------------FileName: Do_shipcost.php - Function Name: getzone-----April 18, 2022, 5:30 pm--------------------
"SELECT DISTINCT(zoneId), pincode FROM pincodeMaster WHERE cityCode = (SELECT cityCode FROM cityMaster WHERE stateId = 9 LIMIT 1) LIMIT 1"
------------------FileName: Do_shipcost.php - Function Name: getprodetail-----April 18, 2022, 5:30 pm--------------------
"SELECT promotionId, clearanceId FROM product_master WHERE proid = 128317 LIMIT 1"
------------------FileName: Do_shipcost.php - Function Name: getproductprice-----April 18, 2022, 5:30 pm--------------------
"SELECT onlinePrice,discountPrice,proweight FROM `product_master` where proid=128317"
------------------FileName: Do_shipcost.php - Function Name: getpromotiondtl-----April 18, 2022, 5:30 pm--------------------
"SELECT shippingstatus, startDate, endDate FROM promotionMaster WHERE id = 418 AND endDate >= '2022-04-18' AND startDate <= '2022-04-18' AND status = 1"
------------------FileName: Libshippingcost.php - Function Name: calculateshippingcost-final_response-----April 18, 2022, 5:30 pm--------------------
{"postState":"9","showexp":0,"totalWeight":0.5,"total_shipping_cost":95}
------------------FileName: Do_shipcost.php - Function Name: getstate-----April 18, 2022, 5:39 pm--------------------
"SELECT state, postcode FROM `customer_shipping_address` where customer_id='286716' order by address_id desc limit 1"
------------------FileName: Do_shipcost.php - Function Name: getzone-----April 18, 2022, 5:39 pm--------------------
"SELECT DISTINCT(zoneId), pincode FROM pincodeMaster WHERE cityCode = (SELECT cityCode FROM cityMaster WHERE stateId = 20 LIMIT 1) LIMIT 1"
------------------FileName: Do_shipcost.php - Function Name: getprodetail-----April 18, 2022, 5:39 pm--------------------
"SELECT promotionId, clearanceId FROM product_master WHERE proid = 217082 LIMIT 1"
------------------FileName: Do_shipcost.php - Function Name: getproductprice-----April 18, 2022, 5:39 pm--------------------
"SELECT onlinePrice,discountPrice,proweight FROM `product_master` where proid=217082"
------------------FileName: Do_shipcost.php - Function Name: getpromotiondtl-----April 18, 2022, 5:39 pm--------------------
"SELECT shippingstatus, startDate, endDate FROM promotionMaster WHERE id = 1197 AND endDate >= '2022-04-18' AND startDate <= '2022-04-18' AND status = 1"
------------------FileName: Libshippingcost.php - Function Name: calculateshippingcost-final_response-----April 18, 2022, 5:39 pm--------------------
{"postState":"20","showexp":0,"totalWeight":0.5,"total_shipping_cost":95}
------------------FileName: Do_shipcost.php - Function Name: getstate-----April 18, 2022, 5:39 pm--------------------
"SELECT state, postcode FROM `customer_shipping_address` where customer_id='286716' order by address_id desc limit 1"
------------------FileName: Do_shipcost.php - Function Name: getzone-----April 18, 2022, 5:39 pm--------------------
"SELECT DISTINCT(zoneId), pincode FROM pincodeMaster WHERE cityCode = (SELECT cityCode FROM cityMaster WHERE stateId = 20 LIMIT 1) LIMIT 1"
------------------FileName: Do_shipcost.php - Function Name: getprodetail-----April 18, 2022, 5:39 pm--------------------
"SELECT promotionId, clearanceId FROM product_master WHERE proid = 217082 LIMIT 1"
------------------FileName: Do_shipcost.php - Function Name: getproductprice-----April 18, 2022, 5:39 pm--------------------
"SELECT onlinePrice,discountPrice,proweight FROM `product_master` where proid=217082"
------------------FileName: Do_shipcost.php - Function Name: getpromotiondtl-----April 18, 2022, 5:39 pm--------------------
"SELECT shippingstatus, startDate, endDate FROM promotionMaster WHERE id = 1197 AND endDate >= '2022-04-18' AND startDate <= '2022-04-18' AND status = 1"
------------------FileName: Libshippingcost.php - Function Name: calculateshippingcost-final_response-----April 18, 2022, 5:39 pm--------------------
{"postState":"20","showexp":0,"totalWeight":0.5,"total_shipping_cost":95}
------------------FileName: Do_shipcost.php - Function Name: getstate-----April 18, 2022, 5:52 pm--------------------
"SELECT state, postcode FROM `customer_shipping_address` where customer_id='286834' order by address_id desc limit 1"
------------------FileName: Do_shipcost.php - Function Name: getzone-----April 18, 2022, 5:52 pm--------------------
"SELECT DISTINCT(zoneId), pincode FROM pincodeMaster WHERE cityCode = (SELECT cityCode FROM cityMaster WHERE stateId = 9 LIMIT 1) LIMIT 1"
------------------FileName: Do_shipcost.php - Function Name: getprodetail-----April 18, 2022, 5:52 pm--------------------
"SELECT promotionId, clearanceId FROM product_master WHERE proid = 128317 LIMIT 1"
------------------FileName: Do_shipcost.php - Function Name: getproductprice-----April 18, 2022, 5:52 pm--------------------
"SELECT onlinePrice,discountPrice,proweight FROM `product_master` where proid=128317"
------------------FileName: Do_shipcost.php - Function Name: getpromotiondtl-----April 18, 2022, 5:52 pm--------------------
"SELECT shippingstatus, startDate, endDate FROM promotionMaster WHERE id = 418 AND endDate >= '2022-04-18' AND startDate <= '2022-04-18' AND status = 1"
------------------FileName: Libshippingcost.php - Function Name: calculateshippingcost-final_response-----April 18, 2022, 5:52 pm--------------------
{"postState":"9","showexp":0,"totalWeight":0.5,"total_shipping_cost":95}
------------------FileName: Do_shipcost.php - Function Name: getstate-----April 18, 2022, 6:13 pm--------------------
"SELECT state, postcode FROM `customer_shipping_address` where customer_id='286834' order by address_id desc limit 1"
------------------FileName: Do_shipcost.php - Function Name: getzone-----April 18, 2022, 6:13 pm--------------------
"SELECT DISTINCT(zoneId), pincode FROM pincodeMaster WHERE cityCode = (SELECT cityCode FROM cityMaster WHERE stateId = 9 LIMIT 1) LIMIT 1"
------------------FileName: Do_shipcost.php - Function Name: getprodetail-----April 18, 2022, 6:13 pm--------------------
"SELECT promotionId, clearanceId FROM product_master WHERE proid = 128317 LIMIT 1"
------------------FileName: Do_shipcost.php - Function Name: getproductprice-----April 18, 2022, 6:13 pm--------------------
"SELECT onlinePrice,discountPrice,proweight FROM `product_master` where proid=128317"
------------------FileName: Do_shipcost.php - Function Name: getpromotiondtl-----April 18, 2022, 6:13 pm--------------------
"SELECT shippingstatus, startDate, endDate FROM promotionMaster WHERE id = 418 AND endDate >= '2022-04-18' AND startDate <= '2022-04-18' AND status = 1"
------------------FileName: Libshippingcost.php - Function Name: calculateshippingcost-final_response-----April 18, 2022, 6:13 pm--------------------
{"postState":"9","showexp":0,"totalWeight":0.5,"total_shipping_cost":95}
------------------FileName: Do_shipcost.php - Function Name: getstate-----April 18, 2022, 6:28 pm--------------------
"SELECT state, postcode FROM `customer_shipping_address` where customer_id='286834' order by address_id desc limit 1"
------------------FileName: Do_shipcost.php - Function Name: getzone-----April 18, 2022, 6:28 pm--------------------
"SELECT DISTINCT(zoneId), pincode FROM pincodeMaster WHERE cityCode = (SELECT cityCode FROM cityMaster WHERE stateId = 9 LIMIT 1) LIMIT 1"
------------------FileName: Do_shipcost.php - Function Name: getprodetail-----April 18, 2022, 6:28 pm--------------------
"SELECT promotionId, clearanceId FROM product_master WHERE proid = 128317 LIMIT 1"
------------------FileName: Do_shipcost.php - Function Name: getproductprice-----April 18, 2022, 6:28 pm--------------------
"SELECT onlinePrice,discountPrice,proweight FROM `product_master` where proid=128317"
------------------FileName: Do_shipcost.php - Function Name: getpromotiondtl-----April 18, 2022, 6:28 pm--------------------
"SELECT shippingstatus, startDate, endDate FROM promotionMaster WHERE id = 418 AND endDate >= '2022-04-18' AND startDate <= '2022-04-18' AND status = 1"
------------------FileName: Libshippingcost.php - Function Name: calculateshippingcost-final_response-----April 18, 2022, 6:28 pm--------------------
{"postState":"9","showexp":0,"totalWeight":0.5,"total_shipping_cost":95}
------------------FileName: Do_shipcost.php - Function Name: getstate-----April 18, 2022, 6:33 pm--------------------
"SELECT state, postcode FROM `customer_shipping_address` where customer_id='279107' order by address_id desc limit 1"
------------------FileName: Do_shipcost.php - Function Name: getzone-----April 18, 2022, 6:33 pm--------------------
"SELECT DISTINCT(zoneId), pincode FROM pincodeMaster WHERE cityCode = (SELECT cityCode FROM cityMaster WHERE stateId = 64 LIMIT 1) LIMIT 1"
------------------FileName: Do_shipcost.php - Function Name: getprodetail-----April 18, 2022, 6:33 pm--------------------
"SELECT promotionId, clearanceId FROM product_master WHERE proid = 217082 LIMIT 1"
------------------FileName: Do_shipcost.php - Function Name: getproductprice-----April 18, 2022, 6:33 pm--------------------
"SELECT onlinePrice,discountPrice,proweight FROM `product_master` where proid=217082"
------------------FileName: Do_shipcost.php - Function Name: getpromotiondtl-----April 18, 2022, 6:33 pm--------------------
"SELECT shippingstatus, startDate, endDate FROM promotionMaster WHERE id = 1197 AND endDate >= '2022-04-18' AND startDate <= '2022-04-18' AND status = 1"
------------------FileName: Do_shipcost.php - Function Name: getprodetail-----April 18, 2022, 6:33 pm--------------------
"SELECT promotionId, clearanceId FROM product_master WHERE proid = 217083 LIMIT 1"
------------------FileName: Do_shipcost.php - Function Name: getproductprice-----April 18, 2022, 6:33 pm--------------------
"SELECT onlinePrice,discountPrice,proweight FROM `product_master` where proid=217083"
------------------FileName: Do_shipcost.php - Function Name: getpromotiondtl-----April 18, 2022, 6:33 pm--------------------
"SELECT shippingstatus, startDate, endDate FROM promotionMaster WHERE id = 1197 AND endDate >= '2022-04-18' AND startDate <= '2022-04-18' AND status = 1"
------------------FileName: Libshippingcost.php - Function Name: calculateshippingcost-final_response-----April 18, 2022, 6:33 pm--------------------
{"postState":"64","showexp":0,"total_shipping_cost":0,"totalWeight":0.2}
------------------FileName: Do_shipcost.php - Function Name: getstate-----April 18, 2022, 6:33 pm--------------------
"SELECT state, postcode FROM `customer_shipping_address` where customer_id='279107' order by address_id desc limit 1"
------------------FileName: Do_shipcost.php - Function Name: getzone-----April 18, 2022, 6:33 pm--------------------
"SELECT DISTINCT(zoneId), pincode FROM pincodeMaster WHERE cityCode = (SELECT cityCode FROM cityMaster WHERE stateId = 64 LIMIT 1) LIMIT 1"
------------------FileName: Do_shipcost.php - Function Name: getprodetail-----April 18, 2022, 6:33 pm--------------------
"SELECT promotionId, clearanceId FROM product_master WHERE proid = 217082 LIMIT 1"
------------------FileName: Do_shipcost.php - Function Name: getproductprice-----April 18, 2022, 6:33 pm--------------------
"SELECT onlinePrice,discountPrice,proweight FROM `product_master` where proid=217082"
------------------FileName: Do_shipcost.php - Function Name: getpromotiondtl-----April 18, 2022, 6:33 pm--------------------
"SELECT shippingstatus, startDate, endDate FROM promotionMaster WHERE id = 1197 AND endDate >= '2022-04-18' AND startDate <= '2022-04-18' AND status = 1"
------------------FileName: Do_shipcost.php - Function Name: getprodetail-----April 18, 2022, 6:33 pm--------------------
"SELECT promotionId, clearanceId FROM product_master WHERE proid = 217083 LIMIT 1"
------------------FileName: Do_shipcost.php - Function Name: getproductprice-----April 18, 2022, 6:33 pm--------------------
"SELECT onlinePrice,discountPrice,proweight FROM `product_master` where proid=217083"
------------------FileName: Do_shipcost.php - Function Name: getpromotiondtl-----April 18, 2022, 6:33 pm--------------------
"SELECT shippingstatus, startDate, endDate FROM promotionMaster WHERE id = 1197 AND endDate >= '2022-04-18' AND startDate <= '2022-04-18' AND status = 1"
------------------FileName: Libshippingcost.php - Function Name: calculateshippingcost-final_response-----April 18, 2022, 6:33 pm--------------------
{"postState":"64","showexp":0,"total_shipping_cost":0,"totalWeight":0.2}
------------------FileName: Do_shipcost.php - Function Name: getstate-----April 18, 2022, 7:15 pm--------------------
"SELECT state, postcode FROM `customer_shipping_address` where customer_id='286835' order by address_id desc limit 1"
------------------FileName: Do_shipcost.php - Function Name: getzone-----April 18, 2022, 7:15 pm--------------------
"SELECT DISTINCT(zoneId), pincode FROM pincodeMaster WHERE cityCode = (SELECT cityCode FROM cityMaster WHERE stateId = 20 LIMIT 1) LIMIT 1"
------------------FileName: Do_shipcost.php - Function Name: getprodetail-----April 18, 2022, 7:15 pm--------------------
"SELECT promotionId, clearanceId FROM product_master WHERE proid = 217148 LIMIT 1"
------------------FileName: Do_shipcost.php - Function Name: getproductprice-----April 18, 2022, 7:15 pm--------------------
"SELECT onlinePrice,discountPrice,proweight FROM `product_master` where proid=217148"
------------------FileName: Do_shipcost.php - Function Name: getprodetail-----April 18, 2022, 7:15 pm--------------------
"SELECT promotionId, clearanceId FROM product_master WHERE proid = 213997 LIMIT 1"
------------------FileName: Do_shipcost.php - Function Name: getproductprice-----April 18, 2022, 7:15 pm--------------------
"SELECT onlinePrice,discountPrice,proweight FROM `product_master` where proid=213997"
------------------FileName: Do_shipcost.php - Function Name: getprodetail-----April 18, 2022, 7:15 pm--------------------
"SELECT promotionId, clearanceId FROM product_master WHERE proid = 216408 LIMIT 1"
------------------FileName: Do_shipcost.php - Function Name: getproductprice-----April 18, 2022, 7:15 pm--------------------
"SELECT onlinePrice,discountPrice,proweight FROM `product_master` where proid=216408"
------------------FileName: Do_shipcost.php - Function Name: getpromotiondtl-----April 18, 2022, 7:15 pm--------------------
"SELECT shippingstatus, startDate, endDate FROM promotionMaster WHERE id = 1224 AND endDate >= '2022-04-18' AND startDate <= '2022-04-18' AND status = 1"
------------------FileName: Libshippingcost.php - Function Name: calculateshippingcost-final_response-----April 18, 2022, 7:15 pm--------------------
{"postState":"20","showexp":0,"totalWeight":0.5,"total_shipping_cost":95}
------------------FileName: Do_shipcost.php - Function Name: getstate-----April 18, 2022, 7:15 pm--------------------
"SELECT state, postcode FROM `customer_shipping_address` where customer_id='286835' order by address_id desc limit 1"
------------------FileName: Do_shipcost.php - Function Name: getzone-----April 18, 2022, 7:15 pm--------------------
"SELECT DISTINCT(zoneId), pincode FROM pincodeMaster WHERE cityCode = (SELECT cityCode FROM cityMaster WHERE stateId = 20 LIMIT 1) LIMIT 1"
------------------FileName: Do_shipcost.php - Function Name: getprodetail-----April 18, 2022, 7:15 pm--------------------
"SELECT promotionId, clearanceId FROM product_master WHERE proid = 217148 LIMIT 1"
------------------FileName: Do_shipcost.php - Function Name: getproductprice-----April 18, 2022, 7:15 pm--------------------
"SELECT onlinePrice,discountPrice,proweight FROM `product_master` where proid=217148"
------------------FileName: Do_shipcost.php - Function Name: getprodetail-----April 18, 2022, 7:15 pm--------------------
"SELECT promotionId, clearanceId FROM product_master WHERE proid = 213997 LIMIT 1"
------------------FileName: Do_shipcost.php - Function Name: getproductprice-----April 18, 2022, 7:15 pm--------------------
"SELECT onlinePrice,discountPrice,proweight FROM `product_master` where proid=213997"
------------------FileName: Do_shipcost.php - Function Name: getprodetail-----April 18, 2022, 7:15 pm--------------------
"SELECT promotionId, clearanceId FROM product_master WHERE proid = 216408 LIMIT 1"
------------------FileName: Do_shipcost.php - Function Name: getproductprice-----April 18, 2022, 7:15 pm--------------------
"SELECT onlinePrice,discountPrice,proweight FROM `product_master` where proid=216408"
------------------FileName: Do_shipcost.php - Function Name: getpromotiondtl-----April 18, 2022, 7:15 pm--------------------
"SELECT shippingstatus, startDate, endDate FROM promotionMaster WHERE id = 1224 AND endDate >= '2022-04-18' AND startDate <= '2022-04-18' AND status = 1"
------------------FileName: Libshippingcost.php - Function Name: calculateshippingcost-final_response-----April 18, 2022, 7:15 pm--------------------
{"postState":"20","showexp":0,"totalWeight":0.5,"total_shipping_cost":95}
------------------FileName: Do_shipcost.php - Function Name: getstate-----April 18, 2022, 7:16 pm--------------------
"SELECT state, postcode FROM `customer_shipping_address` where customer_id='286835' order by address_id desc limit 1"
------------------FileName: Do_shipcost.php - Function Name: getzone-----April 18, 2022, 7:16 pm--------------------
"SELECT DISTINCT(zoneId), pincode FROM pincodeMaster WHERE cityCode = (SELECT cityCode FROM cityMaster WHERE stateId = 20 LIMIT 1) LIMIT 1"
------------------FileName: Do_shipcost.php - Function Name: getprodetail-----April 18, 2022, 7:16 pm--------------------
"SELECT promotionId, clearanceId FROM product_master WHERE proid = 217148 LIMIT 1"
------------------FileName: Do_shipcost.php - Function Name: getproductprice-----April 18, 2022, 7:16 pm--------------------
"SELECT onlinePrice,discountPrice,proweight FROM `product_master` where proid=217148"
------------------FileName: Do_shipcost.php - Function Name: getprodetail-----April 18, 2022, 7:16 pm--------------------
"SELECT promotionId, clearanceId FROM product_master WHERE proid = 213997 LIMIT 1"
------------------FileName: Do_shipcost.php - Function Name: getproductprice-----April 18, 2022, 7:16 pm--------------------
"SELECT onlinePrice,discountPrice,proweight FROM `product_master` where proid=213997"
------------------FileName: Do_shipcost.php - Function Name: getprodetail-----April 18, 2022, 7:16 pm--------------------
"SELECT promotionId, clearanceId FROM product_master WHERE proid = 216408 LIMIT 1"
------------------FileName: Do_shipcost.php - Function Name: getproductprice-----April 18, 2022, 7:16 pm--------------------
"SELECT onlinePrice,discountPrice,proweight FROM `product_master` where proid=216408"
------------------FileName: Do_shipcost.php - Function Name: getpromotiondtl-----April 18, 2022, 7:16 pm--------------------
"SELECT shippingstatus, startDate, endDate FROM promotionMaster WHERE id = 1224 AND endDate >= '2022-04-18' AND startDate <= '2022-04-18' AND status = 1"
------------------FileName: Libshippingcost.php - Function Name: calculateshippingcost-final_response-----April 18, 2022, 7:16 pm--------------------
{"postState":"20","showexp":0,"totalWeight":0.5,"total_shipping_cost":95}
------------------FileName: Do_shipcost.php - Function Name: getstate-----April 18, 2022, 7:16 pm--------------------
"SELECT state, postcode FROM `customer_shipping_address` where customer_id='286835' order by address_id desc limit 1"
------------------FileName: Do_shipcost.php - Function Name: getzone-----April 18, 2022, 7:16 pm--------------------
"SELECT DISTINCT(zoneId), pincode FROM pincodeMaster WHERE cityCode = (SELECT cityCode FROM cityMaster WHERE stateId = 20 LIMIT 1) LIMIT 1"
------------------FileName: Do_shipcost.php - Function Name: getprodetail-----April 18, 2022, 7:16 pm--------------------
"SELECT promotionId, clearanceId FROM product_master WHERE proid = 217148 LIMIT 1"
------------------FileName: Do_shipcost.php - Function Name: getproductprice-----April 18, 2022, 7:16 pm--------------------
"SELECT onlinePrice,discountPrice,proweight FROM `product_master` where proid=217148"
------------------FileName: Do_shipcost.php - Function Name: getprodetail-----April 18, 2022, 7:16 pm--------------------
"SELECT promotionId, clearanceId FROM product_master WHERE proid = 213997 LIMIT 1"
------------------FileName: Do_shipcost.php - Function Name: getproductprice-----April 18, 2022, 7:16 pm--------------------
"SELECT onlinePrice,discountPrice,proweight FROM `product_master` where proid=213997"
------------------FileName: Do_shipcost.php - Function Name: getprodetail-----April 18, 2022, 7:16 pm--------------------
"SELECT promotionId, clearanceId FROM product_master WHERE proid = 216408 LIMIT 1"
------------------FileName: Do_shipcost.php - Function Name: getproductprice-----April 18, 2022, 7:16 pm--------------------
"SELECT onlinePrice,discountPrice,proweight FROM `product_master` where proid=216408"
------------------FileName: Do_shipcost.php - Function Name: getpromotiondtl-----April 18, 2022, 7:16 pm--------------------
"SELECT shippingstatus, startDate, endDate FROM promotionMaster WHERE id = 1224 AND endDate >= '2022-04-18' AND startDate <= '2022-04-18' AND status = 1"
------------------FileName: Libshippingcost.php - Function Name: calculateshippingcost-final_response-----April 18, 2022, 7:16 pm--------------------
{"postState":"20","showexp":0,"totalWeight":0.5,"total_shipping_cost":95}
------------------FileName: Do_shipcost.php - Function Name: getstate-----April 18, 2022, 7:25 pm--------------------
"SELECT state, postcode FROM `customer_shipping_address` where customer_id='286835' order by address_id desc limit 1"
------------------FileName: Do_shipcost.php - Function Name: getzone-----April 18, 2022, 7:25 pm--------------------
"SELECT DISTINCT(zoneId), pincode FROM pincodeMaster WHERE cityCode = (SELECT cityCode FROM cityMaster WHERE stateId = 20 LIMIT 1) LIMIT 1"
------------------FileName: Do_shipcost.php - Function Name: getprodetail-----April 18, 2022, 7:25 pm--------------------
"SELECT promotionId, clearanceId FROM product_master WHERE proid = 217148 LIMIT 1"
------------------FileName: Do_shipcost.php - Function Name: getproductprice-----April 18, 2022, 7:25 pm--------------------
"SELECT onlinePrice,discountPrice,proweight FROM `product_master` where proid=217148"
------------------FileName: Do_shipcost.php - Function Name: getprodetail-----April 18, 2022, 7:25 pm--------------------
"SELECT promotionId, clearanceId FROM product_master WHERE proid = 213997 LIMIT 1"
------------------FileName: Do_shipcost.php - Function Name: getproductprice-----April 18, 2022, 7:25 pm--------------------
"SELECT onlinePrice,discountPrice,proweight FROM `product_master` where proid=213997"
------------------FileName: Do_shipcost.php - Function Name: getprodetail-----April 18, 2022, 7:25 pm--------------------
"SELECT promotionId, clearanceId FROM product_master WHERE proid = 216408 LIMIT 1"
------------------FileName: Do_shipcost.php - Function Name: getproductprice-----April 18, 2022, 7:25 pm--------------------
"SELECT onlinePrice,discountPrice,proweight FROM `product_master` where proid=216408"
------------------FileName: Do_shipcost.php - Function Name: getpromotiondtl-----April 18, 2022, 7:25 pm--------------------
"SELECT shippingstatus, startDate, endDate FROM promotionMaster WHERE id = 1224 AND endDate >= '2022-04-18' AND startDate <= '2022-04-18' AND status = 1"
------------------FileName: Do_shipcost.php - Function Name: getprodetail-----April 18, 2022, 7:25 pm--------------------
"SELECT promotionId, clearanceId FROM product_master WHERE proid = 216407 LIMIT 1"
------------------FileName: Do_shipcost.php - Function Name: getproductprice-----April 18, 2022, 7:25 pm--------------------
"SELECT onlinePrice,discountPrice,proweight FROM `product_master` where proid=216407"
------------------FileName: Do_shipcost.php - Function Name: getpromotiondtl-----April 18, 2022, 7:25 pm--------------------
"SELECT shippingstatus, startDate, endDate FROM promotionMaster WHERE id = 1224 AND endDate >= '2022-04-18' AND startDate <= '2022-04-18' AND status = 1"
------------------FileName: Do_shipcost.php - Function Name: getprodetail-----April 18, 2022, 7:25 pm--------------------
"SELECT promotionId, clearanceId FROM product_master WHERE proid = 217147 LIMIT 1"
------------------FileName: Do_shipcost.php - Function Name: getproductprice-----April 18, 2022, 7:25 pm--------------------
"SELECT onlinePrice,discountPrice,proweight FROM `product_master` where proid=217147"
------------------FileName: Libshippingcost.php - Function Name: calculateshippingcost-final_response-----April 18, 2022, 7:25 pm--------------------
{"postState":"20","showexp":0,"totalWeight":0.5,"total_shipping_cost":95}
------------------FileName: Do_shipcost.php - Function Name: getstate-----April 18, 2022, 7:25 pm--------------------
"SELECT state, postcode FROM `customer_shipping_address` where customer_id='286835' order by address_id desc limit 1"
------------------FileName: Do_shipcost.php - Function Name: getzone-----April 18, 2022, 7:25 pm--------------------
"SELECT DISTINCT(zoneId), pincode FROM pincodeMaster WHERE cityCode = (SELECT cityCode FROM cityMaster WHERE stateId = 20 LIMIT 1) LIMIT 1"
------------------FileName: Do_shipcost.php - Function Name: getprodetail-----April 18, 2022, 7:25 pm--------------------
"SELECT promotionId, clearanceId FROM product_master WHERE proid = 217148 LIMIT 1"
------------------FileName: Do_shipcost.php - Function Name: getproductprice-----April 18, 2022, 7:25 pm--------------------
"SELECT onlinePrice,discountPrice,proweight FROM `product_master` where proid=217148"
------------------FileName: Do_shipcost.php - Function Name: getprodetail-----April 18, 2022, 7:25 pm--------------------
"SELECT promotionId, clearanceId FROM product_master WHERE proid = 213997 LIMIT 1"
------------------FileName: Do_shipcost.php - Function Name: getproductprice-----April 18, 2022, 7:25 pm--------------------
"SELECT onlinePrice,discountPrice,proweight FROM `product_master` where proid=213997"
------------------FileName: Do_shipcost.php - Function Name: getprodetail-----April 18, 2022, 7:25 pm--------------------
"SELECT promotionId, clearanceId FROM product_master WHERE proid = 216408 LIMIT 1"
------------------FileName: Do_shipcost.php - Function Name: getproductprice-----April 18, 2022, 7:25 pm--------------------
"SELECT onlinePrice,discountPrice,proweight FROM `product_master` where proid=216408"
------------------FileName: Do_shipcost.php - Function Name: getpromotiondtl-----April 18, 2022, 7:25 pm--------------------
"SELECT shippingstatus, startDate, endDate FROM promotionMaster WHERE id = 1224 AND endDate >= '2022-04-18' AND startDate <= '2022-04-18' AND status = 1"
------------------FileName: Do_shipcost.php - Function Name: getprodetail-----April 18, 2022, 7:25 pm--------------------
"SELECT promotionId, clearanceId FROM product_master WHERE proid = 216407 LIMIT 1"
------------------FileName: Do_shipcost.php - Function Name: getproductprice-----April 18, 2022, 7:25 pm--------------------
"SELECT onlinePrice,discountPrice,proweight FROM `product_master` where proid=216407"
------------------FileName: Do_shipcost.php - Function Name: getpromotiondtl-----April 18, 2022, 7:25 pm--------------------
"SELECT shippingstatus, startDate, endDate FROM promotionMaster WHERE id = 1224 AND endDate >= '2022-04-18' AND startDate <= '2022-04-18' AND status = 1"
------------------FileName: Do_shipcost.php - Function Name: getprodetail-----April 18, 2022, 7:25 pm--------------------
"SELECT promotionId, clearanceId FROM product_master WHERE proid = 217147 LIMIT 1"
------------------FileName: Do_shipcost.php - Function Name: getproductprice-----April 18, 2022, 7:25 pm--------------------
"SELECT onlinePrice,discountPrice,proweight FROM `product_master` where proid=217147"
------------------FileName: Libshippingcost.php - Function Name: calculateshippingcost-final_response-----April 18, 2022, 7:25 pm--------------------
{"postState":"20","showexp":0,"totalWeight":0.5,"total_shipping_cost":95}
------------------FileName: Do_shipcost.php - Function Name: getstate-----April 18, 2022, 7:25 pm--------------------
"SELECT state, postcode FROM `customer_shipping_address` where customer_id='286835' order by address_id desc limit 1"
------------------FileName: Do_shipcost.php - Function Name: getzone-----April 18, 2022, 7:25 pm--------------------
"SELECT DISTINCT(zoneId), pincode FROM pincodeMaster WHERE cityCode = (SELECT cityCode FROM cityMaster WHERE stateId = 20 LIMIT 1) LIMIT 1"
------------------FileName: Do_shipcost.php - Function Name: getprodetail-----April 18, 2022, 7:25 pm--------------------
"SELECT promotionId, clearanceId FROM product_master WHERE proid = 217148 LIMIT 1"
------------------FileName: Do_shipcost.php - Function Name: getproductprice-----April 18, 2022, 7:25 pm--------------------
"SELECT onlinePrice,discountPrice,proweight FROM `product_master` where proid=217148"
------------------FileName: Do_shipcost.php - Function Name: getprodetail-----April 18, 2022, 7:25 pm--------------------
"SELECT promotionId, clearanceId FROM product_master WHERE proid = 213997 LIMIT 1"
------------------FileName: Do_shipcost.php - Function Name: getproductprice-----April 18, 2022, 7:25 pm--------------------
"SELECT onlinePrice,discountPrice,proweight FROM `product_master` where proid=213997"
------------------FileName: Do_shipcost.php - Function Name: getprodetail-----April 18, 2022, 7:25 pm--------------------
"SELECT promotionId, clearanceId FROM product_master WHERE proid = 216408 LIMIT 1"
------------------FileName: Do_shipcost.php - Function Name: getproductprice-----April 18, 2022, 7:25 pm--------------------
"SELECT onlinePrice,discountPrice,proweight FROM `product_master` where proid=216408"
------------------FileName: Do_shipcost.php - Function Name: getpromotiondtl-----April 18, 2022, 7:25 pm--------------------
"SELECT shippingstatus, startDate, endDate FROM promotionMaster WHERE id = 1224 AND endDate >= '2022-04-18' AND startDate <= '2022-04-18' AND status = 1"
------------------FileName: Do_shipcost.php - Function Name: getprodetail-----April 18, 2022, 7:25 pm--------------------
"SELECT promotionId, clearanceId FROM product_master WHERE proid = 216407 LIMIT 1"
------------------FileName: Do_shipcost.php - Function Name: getproductprice-----April 18, 2022, 7:25 pm--------------------
"SELECT onlinePrice,discountPrice,proweight FROM `product_master` where proid=216407"
------------------FileName: Do_shipcost.php - Function Name: getpromotiondtl-----April 18, 2022, 7:25 pm--------------------
"SELECT shippingstatus, startDate, endDate FROM promotionMaster WHERE id = 1224 AND endDate >= '2022-04-18' AND startDate <= '2022-04-18' AND status = 1"
------------------FileName: Do_shipcost.php - Function Name: getprodetail-----April 18, 2022, 7:25 pm--------------------
"SELECT promotionId, clearanceId FROM product_master WHERE proid = 217147 LIMIT 1"
------------------FileName: Do_shipcost.php - Function Name: getproductprice-----April 18, 2022, 7:25 pm--------------------
"SELECT onlinePrice,discountPrice,proweight FROM `product_master` where proid=217147"
------------------FileName: Libshippingcost.php - Function Name: calculateshippingcost-final_response-----April 18, 2022, 7:25 pm--------------------
{"postState":"20","showexp":0,"totalWeight":0.5,"total_shipping_cost":95}
------------------FileName: Do_shipcost.php - Function Name: getstate-----April 18, 2022, 7:35 pm--------------------
"SELECT state, postcode FROM `customer_shipping_address` where customer_id='285369' order by address_id desc limit 1"
------------------FileName: Do_shipcost.php - Function Name: getzone-----April 18, 2022, 7:35 pm--------------------
"SELECT DISTINCT(zoneId), pincode FROM pincodeMaster WHERE cityCode = (SELECT cityCode FROM cityMaster WHERE stateId = 19 LIMIT 1) LIMIT 1"
------------------FileName: Do_shipcost.php - Function Name: getprodetail-----April 18, 2022, 7:35 pm--------------------
"SELECT promotionId, clearanceId FROM product_master WHERE proid = 101751 LIMIT 1"
------------------FileName: Do_shipcost.php - Function Name: getproductprice-----April 18, 2022, 7:35 pm--------------------
"SELECT onlinePrice,discountPrice,proweight FROM `product_master` where proid=101751"
------------------FileName: Libshippingcost.php - Function Name: calculateshippingcost-final_response-----April 18, 2022, 7:35 pm--------------------
{"postState":"19","showexp":0,"totalWeight":0.5,"total_shipping_cost":95}
------------------FileName: Do_shipcost.php - Function Name: getstate-----April 18, 2022, 7:36 pm--------------------
"SELECT state, postcode FROM `customer_shipping_address` where customer_id='285369' order by address_id desc limit 1"
------------------FileName: Do_shipcost.php - Function Name: getzone-----April 18, 2022, 7:36 pm--------------------
"SELECT DISTINCT(zoneId), pincode FROM pincodeMaster WHERE cityCode = (SELECT cityCode FROM cityMaster WHERE stateId = 19 LIMIT 1) LIMIT 1"
------------------FileName: Do_shipcost.php - Function Name: getprodetail-----April 18, 2022, 7:36 pm--------------------
"SELECT promotionId, clearanceId FROM product_master WHERE proid = 101751 LIMIT 1"
------------------FileName: Do_shipcost.php - Function Name: getproductprice-----April 18, 2022, 7:36 pm--------------------
"SELECT onlinePrice,discountPrice,proweight FROM `product_master` where proid=101751"
------------------FileName: Libshippingcost.php - Function Name: calculateshippingcost-final_response-----April 18, 2022, 7:36 pm--------------------
{"postState":"19","showexp":0,"totalWeight":0.5,"total_shipping_cost":95}
------------------FileName: Do_shipcost.php - Function Name: getstate-----April 18, 2022, 7:38 pm--------------------
"SELECT state, postcode FROM `customer_shipping_address` where customer_id='285369' order by address_id desc limit 1"
------------------FileName: Do_shipcost.php - Function Name: getzone-----April 18, 2022, 7:38 pm--------------------
"SELECT DISTINCT(zoneId), pincode FROM pincodeMaster WHERE cityCode = (SELECT cityCode FROM cityMaster WHERE stateId = 19 LIMIT 1) LIMIT 1"
------------------FileName: Do_shipcost.php - Function Name: getprodetail-----April 18, 2022, 7:38 pm--------------------
"SELECT promotionId, clearanceId FROM product_master WHERE proid = 101751 LIMIT 1"
------------------FileName: Do_shipcost.php - Function Name: getproductprice-----April 18, 2022, 7:38 pm--------------------
"SELECT onlinePrice,discountPrice,proweight FROM `product_master` where proid=101751"
------------------FileName: Libshippingcost.php - Function Name: calculateshippingcost-final_response-----April 18, 2022, 7:38 pm--------------------
{"postState":"19","showexp":0,"totalWeight":0.5,"total_shipping_cost":95}
------------------FileName: Do_shipcost.php - Function Name: getstate-----April 18, 2022, 7:38 pm--------------------
"SELECT state, postcode FROM `customer_shipping_address` where customer_id='285369' order by address_id desc limit 1"
------------------FileName: Do_shipcost.php - Function Name: getzone-----April 18, 2022, 7:38 pm--------------------
"SELECT DISTINCT(zoneId), pincode FROM pincodeMaster WHERE cityCode = (SELECT cityCode FROM cityMaster WHERE stateId = 19 LIMIT 1) LIMIT 1"
------------------FileName: Do_shipcost.php - Function Name: getprodetail-----April 18, 2022, 7:38 pm--------------------
"SELECT promotionId, clearanceId FROM product_master WHERE proid = 101751 LIMIT 1"
------------------FileName: Do_shipcost.php - Function Name: getproductprice-----April 18, 2022, 7:38 pm--------------------
"SELECT onlinePrice,discountPrice,proweight FROM `product_master` where proid=101751"
------------------FileName: Libshippingcost.php - Function Name: calculateshippingcost-final_response-----April 18, 2022, 7:38 pm--------------------
{"postState":"19","showexp":0,"totalWeight":0.5,"total_shipping_cost":95}
------------------FileName: Do_shipcost.php - Function Name: getstate-----April 18, 2022, 7:39 pm--------------------
"SELECT state, postcode FROM `customer_shipping_address` where customer_id='285369' order by address_id desc limit 1"
------------------FileName: Do_shipcost.php - Function Name: getzone-----April 18, 2022, 7:39 pm--------------------
"SELECT DISTINCT(zoneId), pincode FROM pincodeMaster WHERE cityCode = (SELECT cityCode FROM cityMaster WHERE stateId = 19 LIMIT 1) LIMIT 1"
------------------FileName: Do_shipcost.php - Function Name: getprodetail-----April 18, 2022, 7:39 pm--------------------
"SELECT promotionId, clearanceId FROM product_master WHERE proid = 101751 LIMIT 1"
------------------FileName: Do_shipcost.php - Function Name: getproductprice-----April 18, 2022, 7:39 pm--------------------
"SELECT onlinePrice,discountPrice,proweight FROM `product_master` where proid=101751"
------------------FileName: Libshippingcost.php - Function Name: calculateshippingcost-final_response-----April 18, 2022, 7:39 pm--------------------
{"postState":"19","showexp":0,"totalWeight":0.5,"total_shipping_cost":95}
------------------FileName: Do_shipcost.php - Function Name: getstate-----April 18, 2022, 7:39 pm--------------------
"SELECT state, postcode FROM `customer_shipping_address` where customer_id='285369' order by address_id desc limit 1"
------------------FileName: Do_shipcost.php - Function Name: getzone-----April 18, 2022, 7:39 pm--------------------
"SELECT DISTINCT(zoneId), pincode FROM pincodeMaster WHERE cityCode = (SELECT cityCode FROM cityMaster WHERE stateId = 19 LIMIT 1) LIMIT 1"
------------------FileName: Do_shipcost.php - Function Name: getprodetail-----April 18, 2022, 7:39 pm--------------------
"SELECT promotionId, clearanceId FROM product_master WHERE proid = 101751 LIMIT 1"
------------------FileName: Do_shipcost.php - Function Name: getproductprice-----April 18, 2022, 7:39 pm--------------------
"SELECT onlinePrice,discountPrice,proweight FROM `product_master` where proid=101751"
------------------FileName: Libshippingcost.php - Function Name: calculateshippingcost-final_response-----April 18, 2022, 7:39 pm--------------------
{"postState":"19","showexp":0,"totalWeight":0.5,"total_shipping_cost":95}
------------------FileName: Do_shipcost.php - Function Name: getstate-----April 18, 2022, 7:48 pm--------------------
"SELECT state, postcode FROM `customer_shipping_address` where customer_id='279107' order by address_id desc limit 1"
------------------FileName: Do_shipcost.php - Function Name: getzone-----April 18, 2022, 7:48 pm--------------------
"SELECT DISTINCT(zoneId), pincode FROM pincodeMaster WHERE cityCode = (SELECT cityCode FROM cityMaster WHERE stateId = 64 LIMIT 1) LIMIT 1"
------------------FileName: Do_shipcost.php - Function Name: getprodetail-----April 18, 2022, 7:48 pm--------------------
"SELECT promotionId, clearanceId FROM product_master WHERE proid = 217082 LIMIT 1"
------------------FileName: Do_shipcost.php - Function Name: getproductprice-----April 18, 2022, 7:48 pm--------------------
"SELECT onlinePrice,discountPrice,proweight FROM `product_master` where proid=217082"
------------------FileName: Do_shipcost.php - Function Name: getpromotiondtl-----April 18, 2022, 7:48 pm--------------------
"SELECT shippingstatus, startDate, endDate FROM promotionMaster WHERE id = 1197 AND endDate >= '2022-04-18' AND startDate <= '2022-04-18' AND status = 1"
------------------FileName: Do_shipcost.php - Function Name: getprodetail-----April 18, 2022, 7:48 pm--------------------
"SELECT promotionId, clearanceId FROM product_master WHERE proid = 217083 LIMIT 1"
------------------FileName: Do_shipcost.php - Function Name: getproductprice-----April 18, 2022, 7:48 pm--------------------
"SELECT onlinePrice,discountPrice,proweight FROM `product_master` where proid=217083"
------------------FileName: Do_shipcost.php - Function Name: getpromotiondtl-----April 18, 2022, 7:48 pm--------------------
"SELECT shippingstatus, startDate, endDate FROM promotionMaster WHERE id = 1197 AND endDate >= '2022-04-18' AND startDate <= '2022-04-18' AND status = 1"
------------------FileName: Libshippingcost.php - Function Name: calculateshippingcost-final_response-----April 18, 2022, 7:48 pm--------------------
{"postState":"64","showexp":0,"total_shipping_cost":0,"totalWeight":0.2}
------------------FileName: Do_shipcost.php - Function Name: getstate-----April 18, 2022, 7:48 pm--------------------
"SELECT state, postcode FROM `customer_shipping_address` where customer_id='279107' order by address_id desc limit 1"
------------------FileName: Do_shipcost.php - Function Name: getzone-----April 18, 2022, 7:48 pm--------------------
"SELECT DISTINCT(zoneId), pincode FROM pincodeMaster WHERE cityCode = (SELECT cityCode FROM cityMaster WHERE stateId = 64 LIMIT 1) LIMIT 1"
------------------FileName: Do_shipcost.php - Function Name: getprodetail-----April 18, 2022, 7:48 pm--------------------
"SELECT promotionId, clearanceId FROM product_master WHERE proid = 217082 LIMIT 1"
------------------FileName: Do_shipcost.php - Function Name: getproductprice-----April 18, 2022, 7:48 pm--------------------
"SELECT onlinePrice,discountPrice,proweight FROM `product_master` where proid=217082"
------------------FileName: Do_shipcost.php - Function Name: getpromotiondtl-----April 18, 2022, 7:48 pm--------------------
"SELECT shippingstatus, startDate, endDate FROM promotionMaster WHERE id = 1197 AND endDate >= '2022-04-18' AND startDate <= '2022-04-18' AND status = 1"
------------------FileName: Do_shipcost.php - Function Name: getprodetail-----April 18, 2022, 7:48 pm--------------------
"SELECT promotionId, clearanceId FROM product_master WHERE proid = 217083 LIMIT 1"
------------------FileName: Do_shipcost.php - Function Name: getproductprice-----April 18, 2022, 7:48 pm--------------------
"SELECT onlinePrice,discountPrice,proweight FROM `product_master` where proid=217083"
------------------FileName: Do_shipcost.php - Function Name: getpromotiondtl-----April 18, 2022, 7:48 pm--------------------
"SELECT shippingstatus, startDate, endDate FROM promotionMaster WHERE id = 1197 AND endDate >= '2022-04-18' AND startDate <= '2022-04-18' AND status = 1"
------------------FileName: Libshippingcost.php - Function Name: calculateshippingcost-final_response-----April 18, 2022, 7:48 pm--------------------
{"postState":"64","showexp":0,"total_shipping_cost":0,"totalWeight":0.2}
------------------FileName: Do_shipcost.php - Function Name: getstate-----April 18, 2022, 10:17 pm--------------------
"SELECT state, postcode FROM `customer_shipping_address` where customer_id='286838' order by address_id desc limit 1"
------------------FileName: Do_shipcost.php - Function Name: getzone-----April 18, 2022, 10:17 pm--------------------
"SELECT DISTINCT(zoneId), pincode FROM pincodeMaster WHERE cityCode = (SELECT cityCode FROM cityMaster WHERE stateId = 33 LIMIT 1) LIMIT 1"
------------------FileName: Do_shipcost.php - Function Name: getprodetail-----April 18, 2022, 10:17 pm--------------------
"SELECT promotionId, clearanceId FROM product_master WHERE proid = 140796 LIMIT 1"
------------------FileName: Do_shipcost.php - Function Name: getproductprice-----April 18, 2022, 10:17 pm--------------------
"SELECT onlinePrice,discountPrice,proweight FROM `product_master` where proid=140796"
------------------FileName: Do_shipcost.php - Function Name: getpromotiondtl-----April 18, 2022, 10:17 pm--------------------
"SELECT shippingstatus, startDate, endDate FROM promotionMaster WHERE id = 577 AND endDate >= '2022-04-18' AND startDate <= '2022-04-18' AND status = 1"
------------------FileName: Libshippingcost.php - Function Name: calculateshippingcost-final_response-----April 18, 2022, 10:17 pm--------------------
{"postState":"33","showexp":0,"totalWeight":0.5,"total_shipping_cost":95}
------------------FileName: Do_shipcost.php - Function Name: getstate-----April 18, 2022, 10:17 pm--------------------
"SELECT state, postcode FROM `customer_shipping_address` where customer_id='286838' order by address_id desc limit 1"
------------------FileName: Do_shipcost.php - Function Name: getzone-----April 18, 2022, 10:17 pm--------------------
"SELECT DISTINCT(zoneId), pincode FROM pincodeMaster WHERE cityCode = (SELECT cityCode FROM cityMaster WHERE stateId = 33 LIMIT 1) LIMIT 1"
------------------FileName: Do_shipcost.php - Function Name: getprodetail-----April 18, 2022, 10:17 pm--------------------
"SELECT promotionId, clearanceId FROM product_master WHERE proid = 140796 LIMIT 1"
------------------FileName: Do_shipcost.php - Function Name: getproductprice-----April 18, 2022, 10:17 pm--------------------
"SELECT onlinePrice,discountPrice,proweight FROM `product_master` where proid=140796"
------------------FileName: Do_shipcost.php - Function Name: getpromotiondtl-----April 18, 2022, 10:17 pm--------------------
"SELECT shippingstatus, startDate, endDate FROM promotionMaster WHERE id = 577 AND endDate >= '2022-04-18' AND startDate <= '2022-04-18' AND status = 1"
------------------FileName: Libshippingcost.php - Function Name: calculateshippingcost-final_response-----April 18, 2022, 10:17 pm--------------------
{"postState":"33","showexp":0,"totalWeight":0.5,"total_shipping_cost":95}
------------------FileName: Do_shipcost.php - Function Name: getstate-----April 18, 2022, 11:48 pm--------------------
"SELECT state, postcode FROM `customer_shipping_address` where customer_id='286840' order by address_id desc limit 1"
------------------FileName: Do_shipcost.php - Function Name: getzone-----April 18, 2022, 11:48 pm--------------------
"SELECT DISTINCT(zoneId), pincode FROM pincodeMaster WHERE cityCode = (SELECT cityCode FROM cityMaster WHERE stateId = 15 LIMIT 1) LIMIT 1"
------------------FileName: Do_shipcost.php - Function Name: getprodetail-----April 18, 2022, 11:48 pm--------------------
"SELECT promotionId, clearanceId FROM product_master WHERE proid = 214060 LIMIT 1"
------------------FileName: Do_shipcost.php - Function Name: getproductprice-----April 18, 2022, 11:48 pm--------------------
"SELECT onlinePrice,discountPrice,proweight FROM `product_master` where proid=214060"
------------------FileName: Libshippingcost.php - Function Name: calculateshippingcost-final_response-----April 18, 2022, 11:48 pm--------------------
{"postState":"15","showexp":0,"total_shipping_cost":0,"totalWeight":0.25}
------------------FileName: Do_shipcost.php - Function Name: getstate-----April 18, 2022, 11:48 pm--------------------
"SELECT state, postcode FROM `customer_shipping_address` where customer_id='286840' order by address_id desc limit 1"
------------------FileName: Do_shipcost.php - Function Name: getzone-----April 18, 2022, 11:48 pm--------------------
"SELECT DISTINCT(zoneId), pincode FROM pincodeMaster WHERE cityCode = (SELECT cityCode FROM cityMaster WHERE stateId = 15 LIMIT 1) LIMIT 1"
------------------FileName: Do_shipcost.php - Function Name: getprodetail-----April 18, 2022, 11:48 pm--------------------
"SELECT promotionId, clearanceId FROM product_master WHERE proid = 214060 LIMIT 1"
------------------FileName: Do_shipcost.php - Function Name: getproductprice-----April 18, 2022, 11:48 pm--------------------
"SELECT onlinePrice,discountPrice,proweight FROM `product_master` where proid=214060"
------------------FileName: Libshippingcost.php - Function Name: calculateshippingcost-final_response-----April 18, 2022, 11:48 pm--------------------
{"postState":"15","showexp":0,"total_shipping_cost":0,"totalWeight":0.25}
------------------FileName: Do_shipcost.php - Function Name: getstate-----April 18, 2022, 11:48 pm--------------------
"SELECT state, postcode FROM `customer_shipping_address` where customer_id='286839' order by address_id desc limit 1"
------------------FileName: Do_shipcost.php - Function Name: getzone-----April 18, 2022, 11:48 pm--------------------
"SELECT DISTINCT(zoneId), pincode FROM pincodeMaster WHERE cityCode = (SELECT cityCode FROM cityMaster WHERE stateId = 20 LIMIT 1) LIMIT 1"
------------------FileName: Do_shipcost.php - Function Name: getprodetail-----April 18, 2022, 11:48 pm--------------------
"SELECT promotionId, clearanceId FROM product_master WHERE proid = 117777 LIMIT 1"
------------------FileName: Do_shipcost.php - Function Name: getproductprice-----April 18, 2022, 11:48 pm--------------------
"SELECT onlinePrice,discountPrice,proweight FROM `product_master` where proid=117777"
------------------FileName: Do_shipcost.php - Function Name: getpromotiondtl-----April 18, 2022, 11:48 pm--------------------
"SELECT shippingstatus, startDate, endDate FROM promotionMaster WHERE id = 1197 AND endDate >= '2022-04-18' AND startDate <= '2022-04-18' AND status = 1"
------------------FileName: Libshippingcost.php - Function Name: calculateshippingcost-final_response-----April 18, 2022, 11:48 pm--------------------
{"postState":"20","showexp":0,"totalWeight":0.5,"total_shipping_cost":95}
------------------FileName: Do_shipcost.php - Function Name: getstate-----April 18, 2022, 11:48 pm--------------------
"SELECT state, postcode FROM `customer_shipping_address` where customer_id='286839' order by address_id desc limit 1"
------------------FileName: Do_shipcost.php - Function Name: getzone-----April 18, 2022, 11:48 pm--------------------
"SELECT DISTINCT(zoneId), pincode FROM pincodeMaster WHERE cityCode = (SELECT cityCode FROM cityMaster WHERE stateId = 20 LIMIT 1) LIMIT 1"
------------------FileName: Do_shipcost.php - Function Name: getprodetail-----April 18, 2022, 11:48 pm--------------------
"SELECT promotionId, clearanceId FROM product_master WHERE proid = 117777 LIMIT 1"
------------------FileName: Do_shipcost.php - Function Name: getproductprice-----April 18, 2022, 11:48 pm--------------------
"SELECT onlinePrice,discountPrice,proweight FROM `product_master` where proid=117777"
------------------FileName: Do_shipcost.php - Function Name: getpromotiondtl-----April 18, 2022, 11:48 pm--------------------
"SELECT shippingstatus, startDate, endDate FROM promotionMaster WHERE id = 1197 AND endDate >= '2022-04-18' AND startDate <= '2022-04-18' AND status = 1"
------------------FileName: Libshippingcost.php - Function Name: calculateshippingcost-final_response-----April 18, 2022, 11:48 pm--------------------
{"postState":"20","showexp":0,"totalWeight":0.5,"total_shipping_cost":95}
------------------FileName: Do_shipcost.php - Function Name: getstate-----April 18, 2022, 11:52 pm--------------------
"SELECT state, postcode FROM `customer_shipping_address` where customer_id='211231' order by address_id desc limit 1"
------------------FileName: Do_shipcost.php - Function Name: getzone-----April 18, 2022, 11:52 pm--------------------
"SELECT DISTINCT(zoneId), pincode FROM pincodeMaster WHERE cityCode = (SELECT cityCode FROM cityMaster WHERE stateId = 15 LIMIT 1) LIMIT 1"
------------------FileName: Do_shipcost.php - Function Name: getprodetail-----April 18, 2022, 11:52 pm--------------------
"SELECT promotionId, clearanceId FROM product_master WHERE proid = 214060 LIMIT 1"
------------------FileName: Do_shipcost.php - Function Name: getproductprice-----April 18, 2022, 11:52 pm--------------------
"SELECT onlinePrice,discountPrice,proweight FROM `product_master` where proid=214060"
------------------FileName: Libshippingcost.php - Function Name: calculateshippingcost-final_response-----April 18, 2022, 11:52 pm--------------------
{"postState":"15","showexp":0,"total_shipping_cost":0,"totalWeight":0.5}
------------------FileName: Do_shipcost.php - Function Name: getstate-----April 18, 2022, 11:52 pm--------------------
"SELECT state, postcode FROM `customer_shipping_address` where customer_id='211231' order by address_id desc limit 1"
------------------FileName: Do_shipcost.php - Function Name: getzone-----April 18, 2022, 11:52 pm--------------------
"SELECT DISTINCT(zoneId), pincode FROM pincodeMaster WHERE cityCode = (SELECT cityCode FROM cityMaster WHERE stateId = 15 LIMIT 1) LIMIT 1"
------------------FileName: Do_shipcost.php - Function Name: getprodetail-----April 18, 2022, 11:52 pm--------------------
"SELECT promotionId, clearanceId FROM product_master WHERE proid = 214060 LIMIT 1"
------------------FileName: Do_shipcost.php - Function Name: getproductprice-----April 18, 2022, 11:52 pm--------------------
"SELECT onlinePrice,discountPrice,proweight FROM `product_master` where proid=214060"
------------------FileName: Libshippingcost.php - Function Name: calculateshippingcost-final_response-----April 18, 2022, 11:52 pm--------------------
{"postState":"15","showexp":0,"total_shipping_cost":0,"totalWeight":0.5}
