------------------FileName: Do_shipcost.php - Function Name: getstate-----July 15, 2022, 2:19 am--------------------
"SELECT state, postcode FROM `customer_shipping_address` where customer_id='287672' order by address_id desc limit 1"
------------------FileName: Do_shipcost.php - Function Name: getzone-----July 15, 2022, 2:19 am--------------------
"SELECT DISTINCT(zoneId), pincode FROM pincodeMaster WHERE cityCode = (SELECT cityCode FROM cityMaster WHERE stateId = 33 LIMIT 1) LIMIT 1"
------------------FileName: Do_shipcost.php - Function Name: getprodetail-----July 15, 2022, 2:19 am--------------------
"SELECT promotionId, clearanceId FROM product_master WHERE proid = 217723 LIMIT 1"
------------------FileName: Do_shipcost.php - Function Name: getproductprice-----July 15, 2022, 2:19 am--------------------
"SELECT onlinePrice,discountPrice,proweight FROM `product_master` where proid=217723"
------------------FileName: Do_shipcost.php - Function Name: getpromotiondtl-----July 15, 2022, 2:19 am--------------------
"SELECT shippingstatus, startDate, endDate FROM promotionMaster WHERE id = 1197 AND endDate >= '2022-07-15' AND startDate <= '2022-07-15' AND status = 1"
------------------FileName: Libshippingcost.php - Function Name: calculateshippingcost-final_response-----July 15, 2022, 2:19 am--------------------
{"postState":"33","showexp":0,"totalWeight":0.5,"total_shipping_cost":95}
------------------FileName: Do_shipcost.php - Function Name: getstate-----July 15, 2022, 2:19 am--------------------
"SELECT state, postcode FROM `customer_shipping_address` where customer_id='287672' order by address_id desc limit 1"
------------------FileName: Do_shipcost.php - Function Name: getzone-----July 15, 2022, 2:19 am--------------------
"SELECT DISTINCT(zoneId), pincode FROM pincodeMaster WHERE cityCode = (SELECT cityCode FROM cityMaster WHERE stateId = 33 LIMIT 1) LIMIT 1"
------------------FileName: Do_shipcost.php - Function Name: getprodetail-----July 15, 2022, 2:19 am--------------------
"SELECT promotionId, clearanceId FROM product_master WHERE proid = 217723 LIMIT 1"
------------------FileName: Do_shipcost.php - Function Name: getproductprice-----July 15, 2022, 2:19 am--------------------
"SELECT onlinePrice,discountPrice,proweight FROM `product_master` where proid=217723"
------------------FileName: Do_shipcost.php - Function Name: getpromotiondtl-----July 15, 2022, 2:19 am--------------------
"SELECT shippingstatus, startDate, endDate FROM promotionMaster WHERE id = 1197 AND endDate >= '2022-07-15' AND startDate <= '2022-07-15' AND status = 1"
------------------FileName: Libshippingcost.php - Function Name: calculateshippingcost-final_response-----July 15, 2022, 2:19 am--------------------
{"postState":"33","showexp":0,"totalWeight":0.5,"total_shipping_cost":95}
------------------FileName: Do_shipcost.php - Function Name: getstate-----July 15, 2022, 2:24 am--------------------
"SELECT state, postcode FROM `customer_shipping_address` where customer_id='287672' order by address_id desc limit 1"
------------------FileName: Do_shipcost.php - Function Name: getzone-----July 15, 2022, 2:24 am--------------------
"SELECT DISTINCT(zoneId), pincode FROM pincodeMaster WHERE cityCode = (SELECT cityCode FROM cityMaster WHERE stateId = 33 LIMIT 1) LIMIT 1"
------------------FileName: Do_shipcost.php - Function Name: getprodetail-----July 15, 2022, 2:24 am--------------------
"SELECT promotionId, clearanceId FROM product_master WHERE proid = 217723 LIMIT 1"
------------------FileName: Do_shipcost.php - Function Name: getproductprice-----July 15, 2022, 2:24 am--------------------
"SELECT onlinePrice,discountPrice,proweight FROM `product_master` where proid=217723"
------------------FileName: Do_shipcost.php - Function Name: getpromotiondtl-----July 15, 2022, 2:24 am--------------------
"SELECT shippingstatus, startDate, endDate FROM promotionMaster WHERE id = 1197 AND endDate >= '2022-07-15' AND startDate <= '2022-07-15' AND status = 1"
------------------FileName: Do_shipcost.php - Function Name: getprodetail-----July 15, 2022, 2:24 am--------------------
"SELECT promotionId, clearanceId FROM product_master WHERE proid = 209769 LIMIT 1"
------------------FileName: Do_shipcost.php - Function Name: getproductprice-----July 15, 2022, 2:24 am--------------------
"SELECT onlinePrice,discountPrice,proweight FROM `product_master` where proid=209769"
------------------FileName: Do_shipcost.php - Function Name: getpromotiondtl-----July 15, 2022, 2:24 am--------------------
"SELECT shippingstatus, startDate, endDate FROM promotionMaster WHERE id = 1197 AND endDate >= '2022-07-15' AND startDate <= '2022-07-15' AND status = 1"
------------------FileName: Libshippingcost.php - Function Name: calculateshippingcost-final_response-----July 15, 2022, 2:24 am--------------------
{"postState":"33","showexp":0,"totalWeight":0.5,"total_shipping_cost":95}
------------------FileName: Do_shipcost.php - Function Name: getstate-----July 15, 2022, 2:24 am--------------------
"SELECT state, postcode FROM `customer_shipping_address` where customer_id='287672' order by address_id desc limit 1"
------------------FileName: Do_shipcost.php - Function Name: getzone-----July 15, 2022, 2:24 am--------------------
"SELECT DISTINCT(zoneId), pincode FROM pincodeMaster WHERE cityCode = (SELECT cityCode FROM cityMaster WHERE stateId = 33 LIMIT 1) LIMIT 1"
------------------FileName: Do_shipcost.php - Function Name: getprodetail-----July 15, 2022, 2:24 am--------------------
"SELECT promotionId, clearanceId FROM product_master WHERE proid = 217723 LIMIT 1"
------------------FileName: Do_shipcost.php - Function Name: getproductprice-----July 15, 2022, 2:24 am--------------------
"SELECT onlinePrice,discountPrice,proweight FROM `product_master` where proid=217723"
------------------FileName: Do_shipcost.php - Function Name: getpromotiondtl-----July 15, 2022, 2:24 am--------------------
"SELECT shippingstatus, startDate, endDate FROM promotionMaster WHERE id = 1197 AND endDate >= '2022-07-15' AND startDate <= '2022-07-15' AND status = 1"
------------------FileName: Do_shipcost.php - Function Name: getprodetail-----July 15, 2022, 2:24 am--------------------
"SELECT promotionId, clearanceId FROM product_master WHERE proid = 209769 LIMIT 1"
------------------FileName: Do_shipcost.php - Function Name: getproductprice-----July 15, 2022, 2:24 am--------------------
"SELECT onlinePrice,discountPrice,proweight FROM `product_master` where proid=209769"
------------------FileName: Do_shipcost.php - Function Name: getpromotiondtl-----July 15, 2022, 2:24 am--------------------
"SELECT shippingstatus, startDate, endDate FROM promotionMaster WHERE id = 1197 AND endDate >= '2022-07-15' AND startDate <= '2022-07-15' AND status = 1"
------------------FileName: Libshippingcost.php - Function Name: calculateshippingcost-final_response-----July 15, 2022, 2:24 am--------------------
{"postState":"33","showexp":0,"totalWeight":0.5,"total_shipping_cost":95}
------------------FileName: Do_shipcost.php - Function Name: getstate-----July 15, 2022, 2:24 am--------------------
"SELECT state, postcode FROM `customer_shipping_address` where customer_id='287672' order by address_id desc limit 1"
------------------FileName: Do_shipcost.php - Function Name: getzone-----July 15, 2022, 2:24 am--------------------
"SELECT DISTINCT(zoneId), pincode FROM pincodeMaster WHERE cityCode = (SELECT cityCode FROM cityMaster WHERE stateId = 33 LIMIT 1) LIMIT 1"
------------------FileName: Do_shipcost.php - Function Name: getprodetail-----July 15, 2022, 2:24 am--------------------
"SELECT promotionId, clearanceId FROM product_master WHERE proid = 217723 LIMIT 1"
------------------FileName: Do_shipcost.php - Function Name: getproductprice-----July 15, 2022, 2:24 am--------------------
"SELECT onlinePrice,discountPrice,proweight FROM `product_master` where proid=217723"
------------------FileName: Do_shipcost.php - Function Name: getpromotiondtl-----July 15, 2022, 2:24 am--------------------
"SELECT shippingstatus, startDate, endDate FROM promotionMaster WHERE id = 1197 AND endDate >= '2022-07-15' AND startDate <= '2022-07-15' AND status = 1"
------------------FileName: Libshippingcost.php - Function Name: calculateshippingcost-final_response-----July 15, 2022, 2:24 am--------------------
{"postState":"33","showexp":0,"totalWeight":0.5,"total_shipping_cost":95}
------------------FileName: Do_shipcost.php - Function Name: getstate-----July 15, 2022, 2:24 am--------------------
"SELECT state, postcode FROM `customer_shipping_address` where customer_id='287672' order by address_id desc limit 1"
------------------FileName: Do_shipcost.php - Function Name: getzone-----July 15, 2022, 2:24 am--------------------
"SELECT DISTINCT(zoneId), pincode FROM pincodeMaster WHERE cityCode = (SELECT cityCode FROM cityMaster WHERE stateId = 33 LIMIT 1) LIMIT 1"
------------------FileName: Do_shipcost.php - Function Name: getprodetail-----July 15, 2022, 2:24 am--------------------
"SELECT promotionId, clearanceId FROM product_master WHERE proid = 217723 LIMIT 1"
------------------FileName: Do_shipcost.php - Function Name: getproductprice-----July 15, 2022, 2:24 am--------------------
"SELECT onlinePrice,discountPrice,proweight FROM `product_master` where proid=217723"
------------------FileName: Do_shipcost.php - Function Name: getpromotiondtl-----July 15, 2022, 2:24 am--------------------
"SELECT shippingstatus, startDate, endDate FROM promotionMaster WHERE id = 1197 AND endDate >= '2022-07-15' AND startDate <= '2022-07-15' AND status = 1"
------------------FileName: Libshippingcost.php - Function Name: calculateshippingcost-final_response-----July 15, 2022, 2:24 am--------------------
{"postState":"33","showexp":0,"totalWeight":0.5,"total_shipping_cost":95}
------------------FileName: Do_shipcost.php - Function Name: getstate-----July 15, 2022, 3:28 am--------------------
"SELECT state, postcode FROM `customer_shipping_address` where customer_id='287750' order by address_id desc limit 1"
------------------FileName: Do_shipcost.php - Function Name: getzone-----July 15, 2022, 3:28 am--------------------
"SELECT DISTINCT(zoneId), pincode FROM pincodeMaster WHERE cityCode = (SELECT cityCode FROM cityMaster WHERE stateId = 11 LIMIT 1) LIMIT 1"
------------------FileName: Do_shipcost.php - Function Name: getprodetail-----July 15, 2022, 3:28 am--------------------
"SELECT promotionId, clearanceId FROM product_master WHERE proid = 201700 LIMIT 1"
------------------FileName: Do_shipcost.php - Function Name: getproductprice-----July 15, 2022, 3:28 am--------------------
"SELECT onlinePrice,discountPrice,proweight FROM `product_master` where proid=201700"
------------------FileName: Libshippingcost.php - Function Name: calculateshippingcost-final_response-----July 15, 2022, 3:28 am--------------------
{"postState":"11","showexp":1,"total_shipping_cost":0,"totalWeight":25.1}
------------------FileName: Do_shipcost.php - Function Name: getstate-----July 15, 2022, 3:28 am--------------------
"SELECT state, postcode FROM `customer_shipping_address` where customer_id='287750' order by address_id desc limit 1"
------------------FileName: Do_shipcost.php - Function Name: getzone-----July 15, 2022, 3:28 am--------------------
"SELECT DISTINCT(zoneId), pincode FROM pincodeMaster WHERE cityCode = (SELECT cityCode FROM cityMaster WHERE stateId = 11 LIMIT 1) LIMIT 1"
------------------FileName: Do_shipcost.php - Function Name: getprodetail-----July 15, 2022, 3:28 am--------------------
"SELECT promotionId, clearanceId FROM product_master WHERE proid = 201700 LIMIT 1"
------------------FileName: Do_shipcost.php - Function Name: getproductprice-----July 15, 2022, 3:28 am--------------------
"SELECT onlinePrice,discountPrice,proweight FROM `product_master` where proid=201700"
------------------FileName: Libshippingcost.php - Function Name: calculateshippingcost-final_response-----July 15, 2022, 3:28 am--------------------
{"postState":"11","showexp":1,"total_shipping_cost":0,"totalWeight":25.1}
------------------FileName: Do_shipcost.php - Function Name: getstate-----July 15, 2022, 3:29 am--------------------
"SELECT state, postcode FROM `customer_shipping_address` where customer_id='287750' order by address_id desc limit 1"
------------------FileName: Do_shipcost.php - Function Name: getzone-----July 15, 2022, 3:29 am--------------------
"SELECT DISTINCT(zoneId), pincode FROM pincodeMaster WHERE cityCode = (SELECT cityCode FROM cityMaster WHERE stateId = 11 LIMIT 1) LIMIT 1"
------------------FileName: Do_shipcost.php - Function Name: getprodetail-----July 15, 2022, 3:29 am--------------------
"SELECT promotionId, clearanceId FROM product_master WHERE proid = 201700 LIMIT 1"
------------------FileName: Do_shipcost.php - Function Name: getproductprice-----July 15, 2022, 3:29 am--------------------
"SELECT onlinePrice,discountPrice,proweight FROM `product_master` where proid=201700"
------------------FileName: Libshippingcost.php - Function Name: calculateshippingcost-final_response-----July 15, 2022, 3:29 am--------------------
{"postState":"11","showexp":1,"total_shipping_cost":0,"totalWeight":25.1}
------------------FileName: Do_shipcost.php - Function Name: getstate-----July 15, 2022, 3:29 am--------------------
"SELECT state, postcode FROM `customer_shipping_address` where customer_id='287750' order by address_id desc limit 1"
------------------FileName: Do_shipcost.php - Function Name: getzone-----July 15, 2022, 3:29 am--------------------
"SELECT DISTINCT(zoneId), pincode FROM pincodeMaster WHERE cityCode = (SELECT cityCode FROM cityMaster WHERE stateId = 11 LIMIT 1) LIMIT 1"
------------------FileName: Do_shipcost.php - Function Name: getprodetail-----July 15, 2022, 3:29 am--------------------
"SELECT promotionId, clearanceId FROM product_master WHERE proid = 201700 LIMIT 1"
------------------FileName: Do_shipcost.php - Function Name: getproductprice-----July 15, 2022, 3:29 am--------------------
"SELECT onlinePrice,discountPrice,proweight FROM `product_master` where proid=201700"
------------------FileName: Libshippingcost.php - Function Name: calculateshippingcost-final_response-----July 15, 2022, 3:29 am--------------------
{"postState":"11","showexp":1,"total_shipping_cost":0,"totalWeight":25.1}
------------------FileName: Do_shipcost.php - Function Name: getstate-----July 15, 2022, 3:29 am--------------------
"SELECT state, postcode FROM `customer_shipping_address` where customer_id='287750' order by address_id desc limit 1"
------------------FileName: Do_shipcost.php - Function Name: getzone-----July 15, 2022, 3:29 am--------------------
"SELECT DISTINCT(zoneId), pincode FROM pincodeMaster WHERE cityCode = (SELECT cityCode FROM cityMaster WHERE stateId = 11 LIMIT 1) LIMIT 1"
------------------FileName: Do_shipcost.php - Function Name: getprodetail-----July 15, 2022, 3:29 am--------------------
"SELECT promotionId, clearanceId FROM product_master WHERE proid = 201700 LIMIT 1"
------------------FileName: Do_shipcost.php - Function Name: getproductprice-----July 15, 2022, 3:29 am--------------------
"SELECT onlinePrice,discountPrice,proweight FROM `product_master` where proid=201700"
------------------FileName: Libshippingcost.php - Function Name: calculateshippingcost-final_response-----July 15, 2022, 3:29 am--------------------
{"postState":"11","showexp":1,"total_shipping_cost":0,"totalWeight":25.1}
------------------FileName: Do_shipcost.php - Function Name: getstate-----July 15, 2022, 3:29 am--------------------
"SELECT state, postcode FROM `customer_shipping_address` where customer_id='287750' order by address_id desc limit 1"
------------------FileName: Do_shipcost.php - Function Name: getzone-----July 15, 2022, 3:29 am--------------------
"SELECT DISTINCT(zoneId), pincode FROM pincodeMaster WHERE cityCode = (SELECT cityCode FROM cityMaster WHERE stateId = 11 LIMIT 1) LIMIT 1"
------------------FileName: Do_shipcost.php - Function Name: getprodetail-----July 15, 2022, 3:29 am--------------------
"SELECT promotionId, clearanceId FROM product_master WHERE proid = 201700 LIMIT 1"
------------------FileName: Do_shipcost.php - Function Name: getproductprice-----July 15, 2022, 3:29 am--------------------
"SELECT onlinePrice,discountPrice,proweight FROM `product_master` where proid=201700"
------------------FileName: Libshippingcost.php - Function Name: calculateshippingcost-final_response-----July 15, 2022, 3:29 am--------------------
{"postState":"11","showexp":1,"total_shipping_cost":0,"totalWeight":25.1}
------------------FileName: Do_shipcost.php - Function Name: getstate-----July 15, 2022, 3:31 am--------------------
"SELECT state, postcode FROM `customer_shipping_address` where customer_id='287750' order by address_id desc limit 1"
------------------FileName: Do_shipcost.php - Function Name: getzone-----July 15, 2022, 3:31 am--------------------
"SELECT DISTINCT(zoneId), pincode FROM pincodeMaster WHERE cityCode = (SELECT cityCode FROM cityMaster WHERE stateId = 11 LIMIT 1) LIMIT 1"
------------------FileName: Do_shipcost.php - Function Name: getprodetail-----July 15, 2022, 3:31 am--------------------
"SELECT promotionId, clearanceId FROM product_master WHERE proid = 201700 LIMIT 1"
------------------FileName: Do_shipcost.php - Function Name: getproductprice-----July 15, 2022, 3:31 am--------------------
"SELECT onlinePrice,discountPrice,proweight FROM `product_master` where proid=201700"
------------------FileName: Libshippingcost.php - Function Name: calculateshippingcost-final_response-----July 15, 2022, 3:31 am--------------------
{"postState":"11","showexp":1,"total_shipping_cost":0,"totalWeight":25.1}
------------------FileName: Do_shipcost.php - Function Name: getstate-----July 15, 2022, 3:33 am--------------------
"SELECT state, postcode FROM `customer_shipping_address` where customer_id='287750' order by address_id desc limit 1"
------------------FileName: Do_shipcost.php - Function Name: getzone-----July 15, 2022, 3:33 am--------------------
"SELECT DISTINCT(zoneId), pincode FROM pincodeMaster WHERE cityCode = (SELECT cityCode FROM cityMaster WHERE stateId = 11 LIMIT 1) LIMIT 1"
------------------FileName: Do_shipcost.php - Function Name: getprodetail-----July 15, 2022, 3:33 am--------------------
"SELECT promotionId, clearanceId FROM product_master WHERE proid = 201700 LIMIT 1"
------------------FileName: Do_shipcost.php - Function Name: getproductprice-----July 15, 2022, 3:33 am--------------------
"SELECT onlinePrice,discountPrice,proweight FROM `product_master` where proid=201700"
------------------FileName: Libshippingcost.php - Function Name: calculateshippingcost-final_response-----July 15, 2022, 3:33 am--------------------
{"postState":"11","showexp":1,"total_shipping_cost":0,"totalWeight":25.1}
------------------FileName: Do_shipcost.php - Function Name: getstate-----July 15, 2022, 10:22 am--------------------
"SELECT state, postcode FROM `customer_shipping_address` where customer_id='287751' order by address_id desc limit 1"
------------------FileName: Do_shipcost.php - Function Name: getzone-----July 15, 2022, 10:22 am--------------------
"SELECT DISTINCT(zoneId), pincode FROM pincodeMaster WHERE cityCode = (SELECT cityCode FROM cityMaster WHERE stateId = 20 LIMIT 1) LIMIT 1"
------------------FileName: Do_shipcost.php - Function Name: getprodetail-----July 15, 2022, 10:22 am--------------------
"SELECT promotionId, clearanceId FROM product_master WHERE proid = 217746 LIMIT 1"
------------------FileName: Do_shipcost.php - Function Name: getproductprice-----July 15, 2022, 10:22 am--------------------
"SELECT onlinePrice,discountPrice,proweight FROM `product_master` where proid=217746"
------------------FileName: Libshippingcost.php - Function Name: calculateshippingcost-final_response-----July 15, 2022, 10:22 am--------------------
{"postState":"20","showexp":0,"totalWeight":0.5,"total_shipping_cost":95}
------------------FileName: Do_shipcost.php - Function Name: getstate-----July 15, 2022, 10:22 am--------------------
"SELECT state, postcode FROM `customer_shipping_address` where customer_id='287751' order by address_id desc limit 1"
------------------FileName: Do_shipcost.php - Function Name: getzone-----July 15, 2022, 10:22 am--------------------
"SELECT DISTINCT(zoneId), pincode FROM pincodeMaster WHERE cityCode = (SELECT cityCode FROM cityMaster WHERE stateId = 20 LIMIT 1) LIMIT 1"
------------------FileName: Do_shipcost.php - Function Name: getprodetail-----July 15, 2022, 10:22 am--------------------
"SELECT promotionId, clearanceId FROM product_master WHERE proid = 217746 LIMIT 1"
------------------FileName: Do_shipcost.php - Function Name: getproductprice-----July 15, 2022, 10:22 am--------------------
"SELECT onlinePrice,discountPrice,proweight FROM `product_master` where proid=217746"
------------------FileName: Libshippingcost.php - Function Name: calculateshippingcost-final_response-----July 15, 2022, 10:22 am--------------------
{"postState":"20","showexp":0,"totalWeight":0.5,"total_shipping_cost":95}
------------------FileName: Do_shipcost.php - Function Name: getstate-----July 15, 2022, 12:27 pm--------------------
"SELECT state, postcode FROM `customer_shipping_address` where customer_id='201712' order by address_id desc limit 1"
------------------FileName: Do_shipcost.php - Function Name: getzone-----July 15, 2022, 12:27 pm--------------------
"SELECT DISTINCT(zoneId), pincode FROM pincodeMaster WHERE cityCode = (SELECT cityCode FROM cityMaster WHERE stateId = 20 LIMIT 1) LIMIT 1"
------------------FileName: Do_shipcost.php - Function Name: getprodetail-----July 15, 2022, 12:27 pm--------------------
"SELECT promotionId, clearanceId FROM product_master WHERE proid = 121425 LIMIT 1"
------------------FileName: Do_shipcost.php - Function Name: getproductprice-----July 15, 2022, 12:27 pm--------------------
"SELECT onlinePrice,discountPrice,proweight FROM `product_master` where proid=121425"
------------------FileName: Libshippingcost.php - Function Name: calculateshippingcost-final_response-----July 15, 2022, 12:27 pm--------------------
{"postState":"20","showexp":0,"totalWeight":1.3,"total_shipping_cost":95}
------------------FileName: Do_shipcost.php - Function Name: getstate-----July 15, 2022, 12:27 pm--------------------
"SELECT state, postcode FROM `customer_shipping_address` where customer_id='201712' order by address_id desc limit 1"
------------------FileName: Do_shipcost.php - Function Name: getzone-----July 15, 2022, 12:27 pm--------------------
"SELECT DISTINCT(zoneId), pincode FROM pincodeMaster WHERE cityCode = (SELECT cityCode FROM cityMaster WHERE stateId = 20 LIMIT 1) LIMIT 1"
------------------FileName: Do_shipcost.php - Function Name: getprodetail-----July 15, 2022, 12:27 pm--------------------
"SELECT promotionId, clearanceId FROM product_master WHERE proid = 121425 LIMIT 1"
------------------FileName: Do_shipcost.php - Function Name: getproductprice-----July 15, 2022, 12:27 pm--------------------
"SELECT onlinePrice,discountPrice,proweight FROM `product_master` where proid=121425"
------------------FileName: Libshippingcost.php - Function Name: calculateshippingcost-final_response-----July 15, 2022, 12:27 pm--------------------
{"postState":"20","showexp":0,"totalWeight":1.3,"total_shipping_cost":95}
------------------FileName: Do_shipcost.php - Function Name: getstate-----July 15, 2022, 2:07 pm--------------------
"SELECT state, postcode FROM `customer_shipping_address` where customer_id='283057' order by address_id desc limit 1"
------------------FileName: Do_shipcost.php - Function Name: getzone-----July 15, 2022, 2:07 pm--------------------
"SELECT DISTINCT(zoneId), pincode FROM pincodeMaster WHERE cityCode = (SELECT cityCode FROM cityMaster WHERE stateId = 16 LIMIT 1) LIMIT 1"
------------------FileName: Do_shipcost.php - Function Name: getprodetail-----July 15, 2022, 2:07 pm--------------------
"SELECT promotionId, clearanceId FROM product_master WHERE proid = 145083 LIMIT 1"
------------------FileName: Do_shipcost.php - Function Name: getproductprice-----July 15, 2022, 2:07 pm--------------------
"SELECT onlinePrice,discountPrice,proweight FROM `product_master` where proid=145083"
------------------FileName: Do_shipcost.php - Function Name: getpromotiondtl-----July 15, 2022, 2:07 pm--------------------
"SELECT shippingstatus, startDate, endDate FROM promotionMaster WHERE id = 478 AND endDate >= '2022-07-15' AND startDate <= '2022-07-15' AND status = 1"
------------------FileName: Libshippingcost.php - Function Name: calculateshippingcost-final_response-----July 15, 2022, 2:07 pm--------------------
{"postState":"16","showexp":0,"totalWeight":0.5,"total_shipping_cost":95}
------------------FileName: Do_shipcost.php - Function Name: getstate-----July 15, 2022, 2:07 pm--------------------
"SELECT state, postcode FROM `customer_shipping_address` where customer_id='283057' order by address_id desc limit 1"
------------------FileName: Do_shipcost.php - Function Name: getzone-----July 15, 2022, 2:07 pm--------------------
"SELECT DISTINCT(zoneId), pincode FROM pincodeMaster WHERE cityCode = (SELECT cityCode FROM cityMaster WHERE stateId = 16 LIMIT 1) LIMIT 1"
------------------FileName: Do_shipcost.php - Function Name: getprodetail-----July 15, 2022, 2:07 pm--------------------
"SELECT promotionId, clearanceId FROM product_master WHERE proid = 145083 LIMIT 1"
------------------FileName: Do_shipcost.php - Function Name: getproductprice-----July 15, 2022, 2:07 pm--------------------
"SELECT onlinePrice,discountPrice,proweight FROM `product_master` where proid=145083"
------------------FileName: Do_shipcost.php - Function Name: getpromotiondtl-----July 15, 2022, 2:07 pm--------------------
"SELECT shippingstatus, startDate, endDate FROM promotionMaster WHERE id = 478 AND endDate >= '2022-07-15' AND startDate <= '2022-07-15' AND status = 1"
------------------FileName: Libshippingcost.php - Function Name: calculateshippingcost-final_response-----July 15, 2022, 2:07 pm--------------------
{"postState":"16","showexp":0,"totalWeight":0.5,"total_shipping_cost":95}
------------------FileName: Do_shipcost.php - Function Name: getstate-----July 15, 2022, 2:29 pm--------------------
"SELECT state, postcode FROM `customer_shipping_address` where customer_id='287734' order by address_id desc limit 1"
------------------FileName: Do_shipcost.php - Function Name: getzone-----July 15, 2022, 2:29 pm--------------------
"SELECT DISTINCT(zoneId), pincode FROM pincodeMaster WHERE cityCode = (SELECT cityCode FROM cityMaster WHERE stateId = 20 LIMIT 1) LIMIT 1"
------------------FileName: Do_shipcost.php - Function Name: getprodetail-----July 15, 2022, 2:29 pm--------------------
"SELECT promotionId, clearanceId FROM product_master WHERE proid = 132313 LIMIT 1"
------------------FileName: Do_shipcost.php - Function Name: getproductprice-----July 15, 2022, 2:29 pm--------------------
"SELECT onlinePrice,discountPrice,proweight FROM `product_master` where proid=132313"
------------------FileName: Do_shipcost.php - Function Name: getpromotiondtl-----July 15, 2022, 2:29 pm--------------------
"SELECT shippingstatus, startDate, endDate FROM promotionMaster WHERE id = 1242 AND endDate >= '2022-07-15' AND startDate <= '2022-07-15' AND status = 1"
------------------FileName: Libshippingcost.php - Function Name: calculateshippingcost-final_response-----July 15, 2022, 2:29 pm--------------------
{"postState":"20","showexp":0,"totalWeight":1,"total_shipping_cost":95}
------------------FileName: Do_shipcost.php - Function Name: getstate-----July 15, 2022, 2:29 pm--------------------
"SELECT state, postcode FROM `customer_shipping_address` where customer_id='287734' order by address_id desc limit 1"
------------------FileName: Do_shipcost.php - Function Name: getzone-----July 15, 2022, 2:29 pm--------------------
"SELECT DISTINCT(zoneId), pincode FROM pincodeMaster WHERE cityCode = (SELECT cityCode FROM cityMaster WHERE stateId = 20 LIMIT 1) LIMIT 1"
------------------FileName: Do_shipcost.php - Function Name: getprodetail-----July 15, 2022, 2:29 pm--------------------
"SELECT promotionId, clearanceId FROM product_master WHERE proid = 132313 LIMIT 1"
------------------FileName: Do_shipcost.php - Function Name: getproductprice-----July 15, 2022, 2:29 pm--------------------
"SELECT onlinePrice,discountPrice,proweight FROM `product_master` where proid=132313"
------------------FileName: Do_shipcost.php - Function Name: getpromotiondtl-----July 15, 2022, 2:29 pm--------------------
"SELECT shippingstatus, startDate, endDate FROM promotionMaster WHERE id = 1242 AND endDate >= '2022-07-15' AND startDate <= '2022-07-15' AND status = 1"
------------------FileName: Libshippingcost.php - Function Name: calculateshippingcost-final_response-----July 15, 2022, 2:29 pm--------------------
{"postState":"20","showexp":0,"totalWeight":1,"total_shipping_cost":95}
------------------FileName: Do_shipcost.php - Function Name: getstate-----July 15, 2022, 2:32 pm--------------------
"SELECT state, postcode FROM `customer_shipping_address` where customer_id='287753' order by address_id desc limit 1"
------------------FileName: Do_shipcost.php - Function Name: getzone-----July 15, 2022, 2:32 pm--------------------
"SELECT DISTINCT(zoneId), pincode FROM pincodeMaster WHERE cityCode = (SELECT cityCode FROM cityMaster WHERE stateId = 31 LIMIT 1) LIMIT 1"
------------------FileName: Do_shipcost.php - Function Name: getprodetail-----July 15, 2022, 2:32 pm--------------------
"SELECT promotionId, clearanceId FROM product_master WHERE proid = 210536 LIMIT 1"
------------------FileName: Do_shipcost.php - Function Name: getproductprice-----July 15, 2022, 2:32 pm--------------------
"SELECT onlinePrice,discountPrice,proweight FROM `product_master` where proid=210536"
------------------FileName: Do_shipcost.php - Function Name: getpromotiondtl-----July 15, 2022, 2:32 pm--------------------
"SELECT shippingstatus, startDate, endDate FROM promotionMaster WHERE id = 1177 AND endDate >= '2022-07-15' AND startDate <= '2022-07-15' AND status = 1"
------------------FileName: Do_shipcost.php - Function Name: getprodetail-----July 15, 2022, 2:32 pm--------------------
"SELECT promotionId, clearanceId FROM product_master WHERE proid = 217726 LIMIT 1"
------------------FileName: Do_shipcost.php - Function Name: getproductprice-----July 15, 2022, 2:32 pm--------------------
"SELECT onlinePrice,discountPrice,proweight FROM `product_master` where proid=217726"
------------------FileName: Do_shipcost.php - Function Name: getpromotiondtl-----July 15, 2022, 2:32 pm--------------------
"SELECT shippingstatus, startDate, endDate FROM promotionMaster WHERE id = 1177 AND endDate >= '2022-07-15' AND startDate <= '2022-07-15' AND status = 1"
------------------FileName: Libshippingcost.php - Function Name: calculateshippingcost-final_response-----July 15, 2022, 2:32 pm--------------------
{"postState":"31","showexp":0,"totalWeight":0.5,"total_shipping_cost":95}
------------------FileName: Do_shipcost.php - Function Name: getstate-----July 15, 2022, 2:32 pm--------------------
"SELECT state, postcode FROM `customer_shipping_address` where customer_id='287753' order by address_id desc limit 1"
------------------FileName: Do_shipcost.php - Function Name: getzone-----July 15, 2022, 2:32 pm--------------------
"SELECT DISTINCT(zoneId), pincode FROM pincodeMaster WHERE cityCode = (SELECT cityCode FROM cityMaster WHERE stateId = 31 LIMIT 1) LIMIT 1"
------------------FileName: Do_shipcost.php - Function Name: getprodetail-----July 15, 2022, 2:32 pm--------------------
"SELECT promotionId, clearanceId FROM product_master WHERE proid = 210536 LIMIT 1"
------------------FileName: Do_shipcost.php - Function Name: getproductprice-----July 15, 2022, 2:32 pm--------------------
"SELECT onlinePrice,discountPrice,proweight FROM `product_master` where proid=210536"
------------------FileName: Do_shipcost.php - Function Name: getpromotiondtl-----July 15, 2022, 2:32 pm--------------------
"SELECT shippingstatus, startDate, endDate FROM promotionMaster WHERE id = 1177 AND endDate >= '2022-07-15' AND startDate <= '2022-07-15' AND status = 1"
------------------FileName: Do_shipcost.php - Function Name: getprodetail-----July 15, 2022, 2:32 pm--------------------
"SELECT promotionId, clearanceId FROM product_master WHERE proid = 217726 LIMIT 1"
------------------FileName: Do_shipcost.php - Function Name: getproductprice-----July 15, 2022, 2:32 pm--------------------
"SELECT onlinePrice,discountPrice,proweight FROM `product_master` where proid=217726"
------------------FileName: Do_shipcost.php - Function Name: getpromotiondtl-----July 15, 2022, 2:32 pm--------------------
"SELECT shippingstatus, startDate, endDate FROM promotionMaster WHERE id = 1177 AND endDate >= '2022-07-15' AND startDate <= '2022-07-15' AND status = 1"
------------------FileName: Libshippingcost.php - Function Name: calculateshippingcost-final_response-----July 15, 2022, 2:32 pm--------------------
{"postState":"31","showexp":0,"totalWeight":0.5,"total_shipping_cost":95}
------------------FileName: Do_shipcost.php - Function Name: getstate-----July 15, 2022, 9:31 pm--------------------
"SELECT state, postcode FROM `customer_shipping_address` where customer_id='284349' order by address_id desc limit 1"
------------------FileName: Do_shipcost.php - Function Name: getzone-----July 15, 2022, 9:31 pm--------------------
"SELECT DISTINCT(zoneId), pincode FROM pincodeMaster WHERE cityCode = (SELECT cityCode FROM cityMaster WHERE stateId = 20 LIMIT 1) LIMIT 1"
------------------FileName: Do_shipcost.php - Function Name: getprodetail-----July 15, 2022, 9:31 pm--------------------
"SELECT promotionId, clearanceId FROM product_master WHERE proid = 146973 LIMIT 1"
------------------FileName: Do_shipcost.php - Function Name: getproductprice-----July 15, 2022, 9:31 pm--------------------
"SELECT onlinePrice,discountPrice,proweight FROM `product_master` where proid=146973"
------------------FileName: Do_shipcost.php - Function Name: getpromotiondtl-----July 15, 2022, 9:31 pm--------------------
"SELECT shippingstatus, startDate, endDate FROM promotionMaster WHERE id = 535 AND endDate >= '2022-07-15' AND startDate <= '2022-07-15' AND status = 1"
------------------FileName: Libshippingcost.php - Function Name: calculateshippingcost-final_response-----July 15, 2022, 9:31 pm--------------------
{"postState":"20","showexp":0,"totalWeight":0.5,"total_shipping_cost":95}
------------------FileName: Do_shipcost.php - Function Name: getstate-----July 15, 2022, 9:31 pm--------------------
"SELECT state, postcode FROM `customer_shipping_address` where customer_id='284349' order by address_id desc limit 1"
------------------FileName: Do_shipcost.php - Function Name: getzone-----July 15, 2022, 9:31 pm--------------------
"SELECT DISTINCT(zoneId), pincode FROM pincodeMaster WHERE cityCode = (SELECT cityCode FROM cityMaster WHERE stateId = 20 LIMIT 1) LIMIT 1"
------------------FileName: Do_shipcost.php - Function Name: getprodetail-----July 15, 2022, 9:31 pm--------------------
"SELECT promotionId, clearanceId FROM product_master WHERE proid = 146973 LIMIT 1"
------------------FileName: Do_shipcost.php - Function Name: getproductprice-----July 15, 2022, 9:31 pm--------------------
"SELECT onlinePrice,discountPrice,proweight FROM `product_master` where proid=146973"
------------------FileName: Do_shipcost.php - Function Name: getpromotiondtl-----July 15, 2022, 9:31 pm--------------------
"SELECT shippingstatus, startDate, endDate FROM promotionMaster WHERE id = 535 AND endDate >= '2022-07-15' AND startDate <= '2022-07-15' AND status = 1"
------------------FileName: Libshippingcost.php - Function Name: calculateshippingcost-final_response-----July 15, 2022, 9:31 pm--------------------
{"postState":"20","showexp":0,"totalWeight":0.5,"total_shipping_cost":95}
------------------FileName: Do_shipcost.php - Function Name: getstate-----July 15, 2022, 11:58 pm--------------------
"SELECT state, postcode FROM `customer_shipping_address` where customer_id='287754' order by address_id desc limit 1"
------------------FileName: Do_shipcost.php - Function Name: getzone-----July 15, 2022, 11:58 pm--------------------
"SELECT DISTINCT(zoneId), pincode FROM pincodeMaster WHERE cityCode = (SELECT cityCode FROM cityMaster WHERE stateId = 2 LIMIT 1) LIMIT 1"
------------------FileName: Do_shipcost.php - Function Name: getprodetail-----July 15, 2022, 11:58 pm--------------------
"SELECT promotionId, clearanceId FROM product_master WHERE proid = 148096 LIMIT 1"
------------------FileName: Do_shipcost.php - Function Name: getproductprice-----July 15, 2022, 11:58 pm--------------------
"SELECT onlinePrice,discountPrice,proweight FROM `product_master` where proid=148096"
------------------FileName: Libshippingcost.php - Function Name: calculateshippingcost-final_response-----July 15, 2022, 11:58 pm--------------------
{"postState":"2","showexp":0,"totalWeight":0.5,"total_shipping_cost":95}
------------------FileName: Do_shipcost.php - Function Name: getstate-----July 15, 2022, 11:58 pm--------------------
"SELECT state, postcode FROM `customer_shipping_address` where customer_id='287754' order by address_id desc limit 1"
------------------FileName: Do_shipcost.php - Function Name: getzone-----July 15, 2022, 11:58 pm--------------------
"SELECT DISTINCT(zoneId), pincode FROM pincodeMaster WHERE cityCode = (SELECT cityCode FROM cityMaster WHERE stateId = 2 LIMIT 1) LIMIT 1"
------------------FileName: Do_shipcost.php - Function Name: getprodetail-----July 15, 2022, 11:58 pm--------------------
"SELECT promotionId, clearanceId FROM product_master WHERE proid = 148096 LIMIT 1"
------------------FileName: Do_shipcost.php - Function Name: getproductprice-----July 15, 2022, 11:58 pm--------------------
"SELECT onlinePrice,discountPrice,proweight FROM `product_master` where proid=148096"
------------------FileName: Libshippingcost.php - Function Name: calculateshippingcost-final_response-----July 15, 2022, 11:58 pm--------------------
{"postState":"2","showexp":0,"totalWeight":0.5,"total_shipping_cost":95}
